[
  {
    "block": {
      "Properties": {
        "light": "0"
      },
      "Name": "tardis:tungsten_blue_runner_lights"
    },
    "x": -1,
    "y": -1,
    "z": -1
  },
  {
    "block": {
      "Properties": {
        "light": "0"
      },
      "Name": "tardis:tungsten_blue_runner_lights"
    },
    "x": 1,
    "y": -1,
    "z": -1
  },
  {
    "block": {
      "Name": "tardis:alabaster"
    },
    "x": -1,
    "y": 0,
    "z": -1
  },
  {
    "block": {
      "Name": "tardis:alabaster"
    },
    "x": 1,
    "y": 0,
    "z": -1
  },
  {
    "block": {
      "Name": "minecraft:orange_concrete"
    },
    "x": -1,
    "y": 1,
    "z": -1
  },
  {
    "block": {
      "Name": "tardis:alabaster"
    },
    "x": 0,
    "y": 1,
    "z": -1
  },
  {
    "block": {
      "Name": "minecraft:orange_concrete"
    },
    "x": 1,
    "y": 1,
    "z": -1
  },
  {
    "block": {
      "Name": "tardis:alabaster"
    },
    "x": -1,
    "y": 2,
    "z": -1
  },
  {
    "block": {
      "Name": "tardis:alabaster"
    },
    "x": 0,
    "y": 2,
    "z": -1
  },
  {
    "block": {
      "Name": "tardis:alabaster"
    },
    "x": 1,
    "y": 2,
    "z": -1
  },
  {
    "block": {
      "Name": "tardis:alabaster"
    },
    "x": -1,
    "y": 3,
    "z": -1
  },
  {
    "block": {
      "Name": "tardis:alabaster"
    },
    "x": 0,
    "y": 3,
    "z": -1
  },
  {
    "block": {
      "Name": "tardis:alabaster"
    },
    "x": 1,
    "y": 3,
    "z": -1
  },
  {
    "block": {
      "Name": "tardis:alabaster"
    },
    "x": 0,
    "y": 4,
    "z": -1
  },
  {
    "block": {
      "Name": "tardis:alabaster"
    },
    "x": 0,
    "y": 5,
    "z": -1
  },
  {
    "block": {
      "Name": "tardis:alabaster"
    },
    "x": 0,
    "y": 6,
    "z": -1
  },
  {
    "block": {
      "Name": "tardis:alabaster"
    },
    "x": -1,
    "y": 1,
    "z": 0
  },
  {
    "block": {
      "Name": "tardis:alabaster"
    },
    "x": 0,
    "y": 1,
    "z": 0
  },
  {
    "block": {
      "Name": "tardis:alabaster"
    },
    "x": 1,
    "y": 1,
    "z": 0
  },
  {
    "block": {
      "Name": "tardis:alabaster"
    },
    "x": -1,
    "y": 2,
    "z": 0
  },
  {
    "block": {
      "Name": "tardis:alabaster"
    },
    "x": 0,
    "y": 2,
    "z": 0
  },
  {
    "block": {
      "Name": "tardis:alabaster"
    },
    "x": 1,
    "y": 2,
    "z": 0
  },
  {
    "block": {
      "Name": "tardis:alabaster"
    },
    "x": -1,
    "y": 3,
    "z": 0
  },
  {
    "block": {
      "Name": "tardis:alabaster"
    },
    "x": 0,
    "y": 3,
    "z": 0
  },
  {
    "block": {
      "Name": "tardis:alabaster"
    },
    "x": 1,
    "y": 3,
    "z": 0
  },
  {
    "block": {
      "Name": "tardis:alabaster"
    },
    "x": -1,
    "y": 4,
    "z": 0
  },
  {
    "block": {
      "Name": "tardis:alabaster"
    },
    "x": 0,
    "y": 4,
    "z": 0
  },
  {
    "block": {
      "Name": "tardis:alabaster"
    },
    "x": 1,
    "y": 4,
    "z": 0
  },
  {
    "block": {
      "Name": "tardis:alabaster"
    },
    "x": -1,
    "y": 5,
    "z": 0
  },
  {
    "block": {
      "Name": "tardis:alabaster"
    },
    "x": 0,
    "y": 5,
    "z": 0
  },
  {
    "block": {
      "Name": "tardis:alabaster"
    },
    "x": 1,
    "y": 5,
    "z": 0
  },
  {
    "block": {
      "Name": "tardis:alabaster"
    },
    "x": -1,
    "y": 6,
    "z": 0
  },
  {
    "block": {
      "Name": "tardis:alabaster"
    },
    "x": 0,
    "y": 6,
    "z": 0
  },
  {
    "block": {
      "Name": "tardis:alabaster"
    },
    "x": 1,
    "y": 6,
    "z": 0
  },
  {
    "block": {
      "Name": "tardis:alabaster"
    },
    "x": 0,
    "y": 7,
    "z": 0
  },
  {
    "block": {
      "Name": "tardis:tungsten_plate"
    },
    "x": 0,
    "y": 8,
    "z": 0
  },
  {
    "block": {
      "Properties": {
        "light": "0"
      },
      "Name": "tardis:tungsten_blue_runner_lights"
    },
    "x": -1,
    "y": -1,
    "z": 1
  },
  {
    "block": {
      "Properties": {
        "light": "0"
      },
      "Name": "tardis:tungsten_blue_runner_lights"
    },
    "x": 1,
    "y": -1,
    "z": 1
  },
  {
    "block": {
      "Name": "tardis:alabaster"
    },
    "x": -1,
    "y": 0,
    "z": 1
  },
  {
    "block": {
      "Name": "tardis:alabaster"
    },
    "x": 1,
    "y": 0,
    "z": 1
  },
  {
    "block": {
      "Name": "minecraft:orange_concrete"
    },
    "x": -1,
    "y": 1,
    "z": 1
  },
  {
    "block": {
      "Name": "tardis:alabaster"
    },
    "x": 0,
    "y": 1,
    "z": 1
  },
  {
    "block": {
      "Name": "minecraft:orange_concrete"
    },
    "x": 1,
    "y": 1,
    "z": 1
  },
  {
    "block": {
      "Name": "tardis:alabaster"
    },
    "x": -1,
    "y": 2,
    "z": 1
  },
  {
    "block": {
      "Name": "tardis:alabaster"
    },
    "x": 0,
    "y": 2,
    "z": 1
  },
  {
    "block": {
      "Name": "tardis:alabaster"
    },
    "x": 1,
    "y": 2,
    "z": 1
  },
  {
    "block": {
      "Name": "tardis:alabaster"
    },
    "x": -1,
    "y": 3,
    "z": 1
  },
  {
    "block": {
      "Name": "tardis:alabaster"
    },
    "x": 0,
    "y": 3,
    "z": 1
  },
  {
    "block": {
      "Name": "tardis:alabaster"
    },
    "x": 1,
    "y": 3,
    "z": 1
  },
  {
    "block": {
      "Name": "tardis:alabaster"
    },
    "x": 0,
    "y": 4,
    "z": 1
  },
  {
    "block": {
      "Name": "tardis:alabaster"
    },
    "x": 0,
    "y": 5,
    "z": 1
  },
  {
    "block": {
      "Name": "tardis:alabaster"
    },
    "x": 0,
    "y": 6,
    "z": 1
  }
]