[
  {
    "block": {
      "Properties": {
        "waterlogged": "false",
        "hanging": "true"
      },
      "Name": "minecraft:lantern"
    },
    "x": 0,
    "y": 1,
    "z": -2
  },
  {
    "block": {
      "Properties": {
        "west": "false",
        "waterlogged": "false",
        "south": "true",
        "north": "false",
        "east": "false"
      },
      "Name": "minecraft:spruce_fence"
    },
    "x": 0,
    "y": 2,
    "z": -2
  },
  {
    "block": {
      "Properties": {
        "west": "false",
        "waterlogged": "false",
        "south": "false",
        "north": "false",
        "east": "false"
      },
      "Name": "minecraft:spruce_fence"
    },
    "x": -1,
    "y": -1,
    "z": -1
  },
  {
    "block": {
      "Properties": {
        "west": "false",
        "waterlogged": "false",
        "south": "false",
        "north": "false",
        "east": "false"
      },
      "Name": "minecraft:spruce_fence"
    },
    "x": 1,
    "y": -1,
    "z": -1
  },
  {
    "block": {
      "Properties": {
        "west": "false",
        "waterlogged": "false",
        "south": "false",
        "north": "false",
        "east": "false"
      },
      "Name": "minecraft:spruce_fence"
    },
    "x": -1,
    "y": 0,
    "z": -1
  },
  {
    "block": {
      "Properties": {
        "west": "false",
        "waterlogged": "false",
        "south": "false",
        "north": "false",
        "east": "false"
      },
      "Name": "minecraft:spruce_fence"
    },
    "x": 1,
    "y": 0,
    "z": -1
  },
  {
    "block": {
      "Properties": {
        "west": "false",
        "waterlogged": "false",
        "south": "false",
        "north": "false",
        "east": "false"
      },
      "Name": "minecraft:spruce_fence"
    },
    "x": -1,
    "y": 1,
    "z": -1
  },
  {
    "block": {
      "Properties": {
        "west": "false",
        "waterlogged": "false",
        "south": "false",
        "north": "false",
        "east": "false"
      },
      "Name": "minecraft:spruce_fence"
    },
    "x": 1,
    "y": 1,
    "z": -1
  },
  {
    "block": {
      "Properties": {
        "axis": "z"
      },
      "Name": "minecraft:stripped_spruce_wood"
    },
    "x": -1,
    "y": 2,
    "z": -1
  },
  {
    "block": {
      "Properties": {
        "axis": "x"
      },
      "Name": "minecraft:stripped_spruce_wood"
    },
    "x": 0,
    "y": 2,
    "z": -1
  },
  {
    "block": {
      "Properties": {
        "axis": "x"
      },
      "Name": "minecraft:stripped_spruce_wood"
    },
    "x": 1,
    "y": 2,
    "z": -1
  },
  {
    "block": {
      "Properties": {
        "waterlogged": "false",
        "hanging": "true"
      },
      "Name": "minecraft:lantern"
    },
    "x": -2,
    "y": 1,
    "z": 0
  },
  {
    "block": {
      "Properties": {
        "powered": "false",
        "facing": "east",
        "attachment": "ceiling"
      },
      "Name": "minecraft:bell"
    },
    "x": 0,
    "y": 1,
    "z": 0
  },
  {
    "block": {
      "Properties": {
        "waterlogged": "false",
        "hanging": "true"
      },
      "Name": "minecraft:lantern"
    },
    "x": 2,
    "y": 1,
    "z": 0
  },
  {
    "block": {
      "Properties": {
        "west": "false",
        "waterlogged": "false",
        "south": "false",
        "north": "false",
        "east": "true"
      },
      "Name": "minecraft:spruce_fence"
    },
    "x": -2,
    "y": 2,
    "z": 0
  },
  {
    "block": {
      "Properties": {
        "axis": "z"
      },
      "Name": "minecraft:stripped_spruce_wood"
    },
    "x": -1,
    "y": 2,
    "z": 0
  },
  {
    "block": {
      "Properties": {
        "axis": "z"
      },
      "Name": "minecraft:stripped_spruce_wood"
    },
    "x": 0,
    "y": 2,
    "z": 0
  },
  {
    "block": {
      "Properties": {
        "axis": "z"
      },
      "Name": "minecraft:stripped_spruce_wood"
    },
    "x": 1,
    "y": 2,
    "z": 0
  },
  {
    "block": {
      "Properties": {
        "west": "true",
        "waterlogged": "false",
        "south": "false",
        "north": "false",
        "east": "false"
      },
      "Name": "minecraft:spruce_fence"
    },
    "x": 2,
    "y": 2,
    "z": 0
  },
  {
    "block": {
      "Properties": {
        "axis": "z"
      },
      "Name": "minecraft:stripped_spruce_wood"
    },
    "x": 0,
    "y": 3,
    "z": 0
  },
  {
    "block": {
      "Properties": {
        "west": "false",
        "waterlogged": "false",
        "south": "false",
        "north": "false",
        "east": "false"
      },
      "Name": "minecraft:spruce_fence"
    },
    "x": -1,
    "y": -1,
    "z": 1
  },
  {
    "block": {
      "Properties": {
        "west": "false",
        "waterlogged": "false",
        "south": "false",
        "north": "false",
        "east": "false"
      },
      "Name": "minecraft:spruce_fence"
    },
    "x": 1,
    "y": -1,
    "z": 1
  },
  {
    "block": {
      "Properties": {
        "west": "false",
        "waterlogged": "false",
        "south": "false",
        "north": "false",
        "east": "false"
      },
      "Name": "minecraft:spruce_fence"
    },
    "x": -1,
    "y": 0,
    "z": 1
  },
  {
    "block": {
      "Properties": {
        "west": "false",
        "waterlogged": "false",
        "south": "false",
        "north": "false",
        "east": "false"
      },
      "Name": "minecraft:spruce_fence"
    },
    "x": 1,
    "y": 0,
    "z": 1
  },
  {
    "block": {
      "Properties": {
        "west": "false",
        "waterlogged": "false",
        "south": "false",
        "north": "false",
        "east": "false"
      },
      "Name": "minecraft:spruce_fence"
    },
    "x": -1,
    "y": 1,
    "z": 1
  },
  {
    "block": {
      "Properties": {
        "west": "false",
        "waterlogged": "false",
        "south": "false",
        "north": "false",
        "east": "false"
      },
      "Name": "minecraft:spruce_fence"
    },
    "x": 1,
    "y": 1,
    "z": 1
  },
  {
    "block": {
      "Properties": {
        "axis": "z"
      },
      "Name": "minecraft:stripped_spruce_wood"
    },
    "x": -1,
    "y": 2,
    "z": 1
  },
  {
    "block": {
      "Properties": {
        "axis": "x"
      },
      "Name": "minecraft:stripped_spruce_wood"
    },
    "x": 0,
    "y": 2,
    "z": 1
  },
  {
    "block": {
      "Properties": {
        "axis": "z"
      },
      "Name": "minecraft:stripped_spruce_wood"
    },
    "x": 1,
    "y": 2,
    "z": 1
  },
  {
    "block": {
      "Properties": {
        "waterlogged": "false",
        "hanging": "true"
      },
      "Name": "minecraft:lantern"
    },
    "x": 0,
    "y": 1,
    "z": 2
  },
  {
    "block": {
      "Properties": {
        "west": "false",
        "waterlogged": "false",
        "south": "false",
        "north": "true",
        "east": "false"
      },
      "Name": "minecraft:spruce_fence"
    },
    "x": 0,
    "y": 2,
    "z": 2
  }
]