[
  {
    "block": {
      "Name": "minecraft:spruce_planks"
    },
    "x": -3,
    "y": -2,
    "z": -4
  },
  {
    "block": {
      "Name": "minecraft:spruce_planks"
    },
    "x": 2,
    "y": -2,
    "z": -4
  },
  {
    "block": {
      "Name": "minecraft:spruce_planks"
    },
    "x": -3,
    "y": -1,
    "z": -4
  },
  {
    "block": {
      "Name": "minecraft:spruce_planks"
    },
    "x": 2,
    "y": -1,
    "z": -4
  },
  {
    "block": {
      "Properties": {
        "waterlogged": "false",
        "shape": "straight",
        "half": "bottom",
        "facing": "east"
      },
      "Name": "minecraft:spruce_stairs"
    },
    "x": -3,
    "y": 0,
    "z": -4
  },
  {
    "block": {
      "Name": "minecraft:spruce_planks"
    },
    "x": -2,
    "y": 0,
    "z": -4
  },
  {
    "block": {
      "Name": "minecraft:spruce_planks"
    },
    "x": 1,
    "y": 0,
    "z": -4
  },
  {
    "block": {
      "Properties": {
        "waterlogged": "false",
        "shape": "straight",
        "half": "bottom",
        "facing": "west"
      },
      "Name": "minecraft:spruce_stairs"
    },
    "x": 2,
    "y": 0,
    "z": -4
  },
  {
    "block": {
      "Name": "minecraft:spruce_planks"
    },
    "x": -2,
    "y": 1,
    "z": -4
  },
  {
    "block": {
      "Name": "minecraft:spruce_planks"
    },
    "x": 1,
    "y": 1,
    "z": -4
  },
  {
    "block": {
      "Properties": {
        "waterlogged": "false",
        "shape": "straight",
        "half": "bottom",
        "facing": "east"
      },
      "Name": "minecraft:spruce_stairs"
    },
    "x": -2,
    "y": 2,
    "z": -4
  },
  {
    "block": {
      "Name": "minecraft:spruce_planks"
    },
    "x": -1,
    "y": 2,
    "z": -4
  },
  {
    "block": {
      "Name": "minecraft:spruce_planks"
    },
    "x": 0,
    "y": 2,
    "z": -4
  },
  {
    "block": {
      "Properties": {
        "waterlogged": "false",
        "shape": "straight",
        "half": "bottom",
        "facing": "west"
      },
      "Name": "minecraft:spruce_stairs"
    },
    "x": 1,
    "y": 2,
    "z": -4
  },
  {
    "block": {
      "Properties": {
        "waterlogged": "false",
        "type": "bottom"
      },
      "Name": "minecraft:spruce_slab"
    },
    "x": -1,
    "y": 3,
    "z": -4
  },
  {
    "block": {
      "Properties": {
        "waterlogged": "false",
        "type": "bottom"
      },
      "Name": "minecraft:spruce_slab"
    },
    "x": 0,
    "y": 3,
    "z": -4
  },
  {
    "block": {
      "Name": "minecraft:spruce_planks"
    },
    "x": -3,
    "y": -2,
    "z": -3
  },
  {
    "block": {
      "Properties": {
        "axis": "y"
      },
      "Name": "minecraft:stripped_spruce_wood"
    },
    "x": -2,
    "y": -2,
    "z": -3
  },
  {
    "block": {
      "Properties": {
        "axis": "y"
      },
      "Name": "minecraft:stripped_spruce_wood"
    },
    "x": -1,
    "y": -2,
    "z": -3
  },
  {
    "block": {
      "Properties": {
        "axis": "y"
      },
      "Name": "minecraft:stripped_spruce_wood"
    },
    "x": 0,
    "y": -2,
    "z": -3
  },
  {
    "block": {
      "Properties": {
        "axis": "y"
      },
      "Name": "minecraft:stripped_spruce_wood"
    },
    "x": 1,
    "y": -2,
    "z": -3
  },
  {
    "block": {
      "Name": "minecraft:spruce_planks"
    },
    "x": 2,
    "y": -2,
    "z": -3
  },
  {
    "block": {
      "Name": "minecraft:spruce_planks"
    },
    "x": -3,
    "y": -1,
    "z": -3
  },
  {
    "block": {
      "Properties": {
        "axis": "y"
      },
      "Name": "minecraft:stripped_spruce_wood"
    },
    "x": -2,
    "y": -1,
    "z": -3
  },
  {
    "block": {
      "Properties": {
        "axis": "y"
      },
      "Name": "minecraft:stripped_spruce_wood"
    },
    "x": -1,
    "y": -1,
    "z": -3
  },
  {
    "block": {
      "Properties": {
        "axis": "y"
      },
      "Name": "minecraft:stripped_spruce_wood"
    },
    "x": 0,
    "y": -1,
    "z": -3
  },
  {
    "block": {
      "Properties": {
        "axis": "y"
      },
      "Name": "minecraft:stripped_spruce_wood"
    },
    "x": 1,
    "y": -1,
    "z": -3
  },
  {
    "block": {
      "Name": "minecraft:spruce_planks"
    },
    "x": 2,
    "y": -1,
    "z": -3
  },
  {
    "block": {
      "Properties": {
        "waterlogged": "false",
        "shape": "straight",
        "half": "bottom",
        "facing": "east"
      },
      "Name": "minecraft:spruce_stairs"
    },
    "x": -3,
    "y": 0,
    "z": -3
  },
  {
    "block": {
      "Name": "minecraft:spruce_planks"
    },
    "x": -2,
    "y": 0,
    "z": -3
  },
  {
    "block": {
      "Properties": {
        "axis": "y"
      },
      "Name": "minecraft:stripped_spruce_wood"
    },
    "x": -1,
    "y": 0,
    "z": -3
  },
  {
    "block": {
      "Properties": {
        "axis": "y"
      },
      "Name": "minecraft:stripped_spruce_wood"
    },
    "x": 0,
    "y": 0,
    "z": -3
  },
  {
    "block": {
      "Name": "minecraft:spruce_planks"
    },
    "x": 1,
    "y": 0,
    "z": -3
  },
  {
    "block": {
      "Properties": {
        "waterlogged": "false",
        "shape": "straight",
        "half": "bottom",
        "facing": "west"
      },
      "Name": "minecraft:spruce_stairs"
    },
    "x": 2,
    "y": 0,
    "z": -3
  },
  {
    "block": {
      "Name": "minecraft:spruce_planks"
    },
    "x": -2,
    "y": 1,
    "z": -3
  },
  {
    "block": {
      "Properties": {
        "axis": "y"
      },
      "Name": "minecraft:stripped_spruce_wood"
    },
    "x": -1,
    "y": 1,
    "z": -3
  },
  {
    "block": {
      "Properties": {
        "axis": "y"
      },
      "Name": "minecraft:stripped_spruce_wood"
    },
    "x": 0,
    "y": 1,
    "z": -3
  },
  {
    "block": {
      "Name": "minecraft:spruce_planks"
    },
    "x": 1,
    "y": 1,
    "z": -3
  },
  {
    "block": {
      "Properties": {
        "waterlogged": "false",
        "shape": "straight",
        "half": "bottom",
        "facing": "east"
      },
      "Name": "minecraft:spruce_stairs"
    },
    "x": -2,
    "y": 2,
    "z": -3
  },
  {
    "block": {
      "Name": "minecraft:spruce_planks"
    },
    "x": -1,
    "y": 2,
    "z": -3
  },
  {
    "block": {
      "Name": "minecraft:spruce_planks"
    },
    "x": 0,
    "y": 2,
    "z": -3
  },
  {
    "block": {
      "Properties": {
        "waterlogged": "false",
        "shape": "straight",
        "half": "bottom",
        "facing": "west"
      },
      "Name": "minecraft:spruce_stairs"
    },
    "x": 1,
    "y": 2,
    "z": -3
  },
  {
    "block": {
      "Properties": {
        "waterlogged": "false",
        "type": "bottom"
      },
      "Name": "minecraft:spruce_slab"
    },
    "x": -1,
    "y": 3,
    "z": -3
  },
  {
    "block": {
      "Properties": {
        "waterlogged": "false",
        "type": "bottom"
      },
      "Name": "minecraft:spruce_slab"
    },
    "x": 0,
    "y": 3,
    "z": -3
  },
  {
    "block": {
      "Name": "minecraft:spruce_planks"
    },
    "x": -3,
    "y": -2,
    "z": -2
  },
  {
    "block": {
      "Name": "minecraft:spruce_planks"
    },
    "x": -2,
    "y": -2,
    "z": -2
  },
  {
    "block": {
      "Name": "minecraft:spruce_planks"
    },
    "x": -1,
    "y": -2,
    "z": -2
  },
  {
    "block": {
      "Name": "minecraft:spruce_planks"
    },
    "x": 0,
    "y": -2,
    "z": -2
  },
  {
    "block": {
      "Name": "minecraft:spruce_planks"
    },
    "x": 1,
    "y": -2,
    "z": -2
  },
  {
    "block": {
      "Name": "minecraft:spruce_planks"
    },
    "x": 2,
    "y": -2,
    "z": -2
  },
  {
    "block": {
      "Name": "minecraft:spruce_planks"
    },
    "x": -3,
    "y": -1,
    "z": -2
  },
  {
    "block": {
      "Name": "minecraft:spruce_planks"
    },
    "x": -2,
    "y": -1,
    "z": -2
  },
  {
    "block": {
      "Properties": {
        "lit": "false",
        "facing": "west"
      },
      "Name": "minecraft:furnace"
    },
    "x": 1,
    "y": -1,
    "z": -2
  },
  {
    "block": {
      "Name": "minecraft:spruce_planks"
    },
    "x": 2,
    "y": -1,
    "z": -2
  },
  {
    "block": {
      "Properties": {
        "layers": "1"
      },
      "Name": "minecraft:snow"
    },
    "x": -3,
    "y": 0,
    "z": -2
  },
  {
    "block": {
      "Name": "minecraft:spruce_planks"
    },
    "x": -2,
    "y": 0,
    "z": -2
  },
  {
    "block": {
      "Name": "minecraft:spruce_planks"
    },
    "x": 1,
    "y": 0,
    "z": -2
  },
  {
    "block": {
      "Properties": {
        "layers": "2"
      },
      "Name": "minecraft:snow"
    },
    "x": 2,
    "y": 0,
    "z": -2
  },
  {
    "block": {
      "Name": "minecraft:spruce_planks"
    },
    "x": -2,
    "y": 1,
    "z": -2
  },
  {
    "block": {
      "Name": "minecraft:spruce_planks"
    },
    "x": 1,
    "y": 1,
    "z": -2
  },
  {
    "block": {
      "Properties": {
        "layers": "1"
      },
      "Name": "minecraft:snow"
    },
    "x": -2,
    "y": 2,
    "z": -2
  },
  {
    "block": {
      "Name": "minecraft:spruce_planks"
    },
    "x": -1,
    "y": 2,
    "z": -2
  },
  {
    "block": {
      "Name": "minecraft:spruce_planks"
    },
    "x": 0,
    "y": 2,
    "z": -2
  },
  {
    "block": {
      "Properties": {
        "layers": "4"
      },
      "Name": "minecraft:snow"
    },
    "x": 1,
    "y": 2,
    "z": -2
  },
  {
    "block": {
      "Properties": {
        "waterlogged": "false",
        "type": "bottom"
      },
      "Name": "minecraft:spruce_slab"
    },
    "x": -1,
    "y": 3,
    "z": -2
  },
  {
    "block": {
      "Properties": {
        "waterlogged": "false",
        "type": "bottom"
      },
      "Name": "minecraft:spruce_slab"
    },
    "x": 0,
    "y": 3,
    "z": -2
  },
  {
    "block": {
      "Name": "minecraft:spruce_planks"
    },
    "x": -3,
    "y": -2,
    "z": -1
  },
  {
    "block": {
      "Name": "minecraft:spruce_planks"
    },
    "x": -2,
    "y": -2,
    "z": -1
  },
  {
    "block": {
      "Name": "minecraft:spruce_planks"
    },
    "x": -1,
    "y": -2,
    "z": -1
  },
  {
    "block": {
      "Name": "minecraft:spruce_planks"
    },
    "x": 0,
    "y": -2,
    "z": -1
  },
  {
    "block": {
      "Name": "minecraft:spruce_planks"
    },
    "x": 1,
    "y": -2,
    "z": -1
  },
  {
    "block": {
      "Name": "minecraft:spruce_planks"
    },
    "x": 2,
    "y": -2,
    "z": -1
  },
  {
    "block": {
      "Name": "minecraft:spruce_planks"
    },
    "x": -3,
    "y": -1,
    "z": -1
  },
  {
    "block": {
      "Name": "minecraft:spruce_planks"
    },
    "x": -2,
    "y": -1,
    "z": -1
  },
  {
    "block": {
      "Properties": {
        "lit": "false",
        "facing": "west"
      },
      "Name": "minecraft:furnace"
    },
    "x": 1,
    "y": -1,
    "z": -1
  },
  {
    "block": {
      "Name": "minecraft:spruce_planks"
    },
    "x": 2,
    "y": -1,
    "z": -1
  },
  {
    "block": {
      "Properties": {
        "layers": "1"
      },
      "Name": "minecraft:snow"
    },
    "x": -3,
    "y": 0,
    "z": -1
  },
  {
    "block": {
      "Name": "minecraft:spruce_planks"
    },
    "x": -2,
    "y": 0,
    "z": -1
  },
  {
    "block": {
      "Name": "minecraft:spruce_planks"
    },
    "x": 1,
    "y": 0,
    "z": -1
  },
  {
    "block": {
      "Properties": {
        "layers": "4"
      },
      "Name": "minecraft:snow"
    },
    "x": 2,
    "y": 0,
    "z": -1
  },
  {
    "block": {
      "Name": "minecraft:spruce_planks"
    },
    "x": -2,
    "y": 1,
    "z": -1
  },
  {
    "block": {
      "Properties": {
        "facing": "north"
      },
      "Name": "minecraft:wall_torch"
    },
    "x": -1,
    "y": 1,
    "z": -1
  },
  {
    "block": {
      "Properties": {
        "facing": "north"
      },
      "Name": "minecraft:wall_torch"
    },
    "x": 0,
    "y": 1,
    "z": -1
  },
  {
    "block": {
      "Name": "minecraft:spruce_planks"
    },
    "x": 1,
    "y": 1,
    "z": -1
  },
  {
    "block": {
      "Properties": {
        "layers": "1"
      },
      "Name": "minecraft:snow"
    },
    "x": -2,
    "y": 2,
    "z": -1
  },
  {
    "block": {
      "Name": "minecraft:spruce_planks"
    },
    "x": -1,
    "y": 2,
    "z": -1
  },
  {
    "block": {
      "Name": "minecraft:spruce_planks"
    },
    "x": 0,
    "y": 2,
    "z": -1
  },
  {
    "block": {
      "Properties": {
        "layers": "1"
      },
      "Name": "minecraft:snow"
    },
    "x": 1,
    "y": 2,
    "z": -1
  },
  {
    "block": {
      "Properties": {
        "waterlogged": "false",
        "type": "bottom"
      },
      "Name": "minecraft:spruce_slab"
    },
    "x": -1,
    "y": 3,
    "z": -1
  },
  {
    "block": {
      "Properties": {
        "waterlogged": "false",
        "type": "bottom"
      },
      "Name": "minecraft:spruce_slab"
    },
    "x": 0,
    "y": 3,
    "z": -1
  },
  {
    "block": {
      "Name": "minecraft:spruce_planks"
    },
    "x": -3,
    "y": -2,
    "z": 0
  },
  {
    "block": {
      "Properties": {
        "axis": "y"
      },
      "Name": "minecraft:stripped_spruce_wood"
    },
    "x": -2,
    "y": -2,
    "z": 0
  },
  {
    "block": {
      "Properties": {
        "axis": "y"
      },
      "Name": "minecraft:stripped_spruce_wood"
    },
    "x": -1,
    "y": -2,
    "z": 0
  },
  {
    "block": {
      "Properties": {
        "axis": "y"
      },
      "Name": "minecraft:stripped_spruce_wood"
    },
    "x": 0,
    "y": -2,
    "z": 0
  },
  {
    "block": {
      "Properties": {
        "axis": "y"
      },
      "Name": "minecraft:stripped_spruce_wood"
    },
    "x": 1,
    "y": -2,
    "z": 0
  },
  {
    "block": {
      "Name": "minecraft:spruce_planks"
    },
    "x": 2,
    "y": -2,
    "z": 0
  },
  {
    "block": {
      "Name": "minecraft:snow_block"
    },
    "x": 3,
    "y": -2,
    "z": 0
  },
  {
    "block": {
      "Name": "minecraft:spruce_planks"
    },
    "x": -3,
    "y": -1,
    "z": 0
  },
  {
    "block": {
      "Properties": {
        "axis": "y"
      },
      "Name": "minecraft:stripped_spruce_wood"
    },
    "x": -2,
    "y": -1,
    "z": 0
  },
  {
    "block": {
      "Properties": {
        "powered": "false",
        "open": "false",
        "hinge": "left",
        "half": "lower",
        "facing": "north"
      },
      "Name": "minecraft:spruce_door"
    },
    "x": -1,
    "y": -1,
    "z": 0
  },
  {
    "block": {
      "Properties": {
        "axis": "y"
      },
      "Name": "minecraft:stripped_spruce_wood"
    },
    "x": 1,
    "y": -1,
    "z": 0
  },
  {
    "block": {
      "Name": "minecraft:spruce_planks"
    },
    "x": 2,
    "y": -1,
    "z": 0
  },
  {
    "block": {
      "Name": "minecraft:snow_block"
    },
    "x": 3,
    "y": -1,
    "z": 0
  },
  {
    "block": {
      "Properties": {
        "waterlogged": "false",
        "shape": "straight",
        "half": "bottom",
        "facing": "east"
      },
      "Name": "minecraft:spruce_stairs"
    },
    "x": -3,
    "y": 0,
    "z": 0
  },
  {
    "block": {
      "Properties": {
        "axis": "y"
      },
      "Name": "minecraft:stripped_spruce_wood"
    },
    "x": -2,
    "y": 0,
    "z": 0
  },
  {
    "block": {
      "Properties": {
        "powered": "false",
        "open": "false",
        "hinge": "left",
        "half": "upper",
        "facing": "north"
      },
      "Name": "minecraft:spruce_door"
    },
    "x": -1,
    "y": 0,
    "z": 0
  },
  {
    "block": {
      "Properties": {
        "axis": "y"
      },
      "Name": "minecraft:stripped_spruce_wood"
    },
    "x": 1,
    "y": 0,
    "z": 0
  },
  {
    "block": {
      "Properties": {
        "waterlogged": "false",
        "shape": "straight",
        "half": "bottom",
        "facing": "west"
      },
      "Name": "minecraft:spruce_stairs"
    },
    "x": 2,
    "y": 0,
    "z": 0
  },
  {
    "block": {
      "Properties": {
        "layers": "1"
      },
      "Name": "minecraft:snow"
    },
    "x": 3,
    "y": 0,
    "z": 0
  },
  {
    "block": {
      "Name": "minecraft:spruce_planks"
    },
    "x": -2,
    "y": 1,
    "z": 0
  },
  {
    "block": {
      "Properties": {
        "axis": "y"
      },
      "Name": "minecraft:stripped_spruce_wood"
    },
    "x": -1,
    "y": 1,
    "z": 0
  },
  {
    "block": {
      "Properties": {
        "axis": "y"
      },
      "Name": "minecraft:stripped_spruce_wood"
    },
    "x": 0,
    "y": 1,
    "z": 0
  },
  {
    "block": {
      "Name": "minecraft:spruce_planks"
    },
    "x": 1,
    "y": 1,
    "z": 0
  },
  {
    "block": {
      "Properties": {
        "waterlogged": "false",
        "shape": "straight",
        "half": "bottom",
        "facing": "east"
      },
      "Name": "minecraft:spruce_stairs"
    },
    "x": -2,
    "y": 2,
    "z": 0
  },
  {
    "block": {
      "Properties": {
        "axis": "y"
      },
      "Name": "minecraft:stripped_spruce_wood"
    },
    "x": -1,
    "y": 2,
    "z": 0
  },
  {
    "block": {
      "Properties": {
        "axis": "y"
      },
      "Name": "minecraft:stripped_spruce_wood"
    },
    "x": 0,
    "y": 2,
    "z": 0
  },
  {
    "block": {
      "Properties": {
        "waterlogged": "false",
        "shape": "straight",
        "half": "bottom",
        "facing": "west"
      },
      "Name": "minecraft:spruce_stairs"
    },
    "x": 1,
    "y": 2,
    "z": 0
  },
  {
    "block": {
      "Properties": {
        "waterlogged": "false",
        "type": "bottom"
      },
      "Name": "minecraft:spruce_slab"
    },
    "x": -1,
    "y": 3,
    "z": 0
  },
  {
    "block": {
      "Properties": {
        "waterlogged": "false",
        "type": "bottom"
      },
      "Name": "minecraft:spruce_slab"
    },
    "x": 0,
    "y": 3,
    "z": 0
  },
  {
    "block": {
      "Name": "minecraft:spruce_planks"
    },
    "x": -3,
    "y": -2,
    "z": 1
  },
  {
    "block": {
      "Properties": {
        "waterlogged": "false",
        "shape": "straight",
        "half": "bottom",
        "facing": "north"
      },
      "Name": "minecraft:spruce_stairs"
    },
    "x": -1,
    "y": -2,
    "z": 1
  },
  {
    "block": {
      "Properties": {
        "waterlogged": "false",
        "shape": "straight",
        "half": "bottom",
        "facing": "north"
      },
      "Name": "minecraft:spruce_stairs"
    },
    "x": 0,
    "y": -2,
    "z": 1
  },
  {
    "block": {
      "Name": "minecraft:snow_block"
    },
    "x": 1,
    "y": -2,
    "z": 1
  },
  {
    "block": {
      "Name": "minecraft:spruce_planks"
    },
    "x": 2,
    "y": -2,
    "z": 1
  },
  {
    "block": {
      "Name": "minecraft:snow_block"
    },
    "x": 3,
    "y": -2,
    "z": 1
  },
  {
    "block": {
      "Name": "minecraft:spruce_planks"
    },
    "x": -3,
    "y": -1,
    "z": 1
  },
  {
    "block": {
      "Properties": {
        "layers": "4"
      },
      "Name": "minecraft:snow"
    },
    "x": 1,
    "y": -1,
    "z": 1
  },
  {
    "block": {
      "Name": "minecraft:spruce_planks"
    },
    "x": 2,
    "y": -1,
    "z": 1
  },
  {
    "block": {
      "Properties": {
        "layers": "1"
      },
      "Name": "minecraft:snow"
    },
    "x": 3,
    "y": -1,
    "z": 1
  },
  {
    "block": {
      "Properties": {
        "waterlogged": "false",
        "shape": "straight",
        "half": "bottom",
        "facing": "east"
      },
      "Name": "minecraft:spruce_stairs"
    },
    "x": -3,
    "y": 0,
    "z": 1
  },
  {
    "block": {
      "Properties": {
        "waterlogged": "false",
        "shape": "straight",
        "half": "top",
        "facing": "west"
      },
      "Name": "minecraft:spruce_stairs"
    },
    "x": -2,
    "y": 0,
    "z": 1
  },
  {
    "block": {
      "Properties": {
        "waterlogged": "false",
        "shape": "straight",
        "half": "top",
        "facing": "east"
      },
      "Name": "minecraft:spruce_stairs"
    },
    "x": 1,
    "y": 0,
    "z": 1
  },
  {
    "block": {
      "Properties": {
        "waterlogged": "false",
        "shape": "straight",
        "half": "bottom",
        "facing": "west"
      },
      "Name": "minecraft:spruce_stairs"
    },
    "x": 2,
    "y": 0,
    "z": 1
  },
  {
    "block": {
      "Name": "minecraft:spruce_planks"
    },
    "x": -2,
    "y": 1,
    "z": 1
  },
  {
    "block": {
      "Name": "minecraft:spruce_planks"
    },
    "x": 1,
    "y": 1,
    "z": 1
  },
  {
    "block": {
      "Properties": {
        "waterlogged": "false",
        "shape": "straight",
        "half": "bottom",
        "facing": "east"
      },
      "Name": "minecraft:spruce_stairs"
    },
    "x": -2,
    "y": 2,
    "z": 1
  },
  {
    "block": {
      "Properties": {
        "waterlogged": "false",
        "shape": "straight",
        "half": "top",
        "facing": "west"
      },
      "Name": "minecraft:spruce_stairs"
    },
    "x": -1,
    "y": 2,
    "z": 1
  },
  {
    "block": {
      "Properties": {
        "waterlogged": "false",
        "shape": "straight",
        "half": "top",
        "facing": "east"
      },
      "Name": "minecraft:spruce_stairs"
    },
    "x": 0,
    "y": 2,
    "z": 1
  },
  {
    "block": {
      "Properties": {
        "waterlogged": "false",
        "shape": "straight",
        "half": "bottom",
        "facing": "west"
      },
      "Name": "minecraft:spruce_stairs"
    },
    "x": 1,
    "y": 2,
    "z": 1
  },
  {
    "block": {
      "Properties": {
        "waterlogged": "false",
        "type": "bottom"
      },
      "Name": "minecraft:spruce_slab"
    },
    "x": -1,
    "y": 3,
    "z": 1
  },
  {
    "block": {
      "Properties": {
        "waterlogged": "false",
        "type": "bottom"
      },
      "Name": "minecraft:spruce_slab"
    },
    "x": 0,
    "y": 3,
    "z": 1
  },
  {
    "block": {
      "Name": "minecraft:snow_block"
    },
    "x": 2,
    "y": -2,
    "z": 2
  },
  {
    "block": {
      "Properties": {
        "waterlogged": "false",
        "hanging": "true"
      },
      "Name": "minecraft:lantern"
    },
    "x": -2,
    "y": 0,
    "z": 2
  },
  {
    "block": {
      "Properties": {
        "waterlogged": "false",
        "hanging": "true"
      },
      "Name": "minecraft:lantern"
    },
    "x": 1,
    "y": 0,
    "z": 2
  },
  {
    "block": {
      "Properties": {
        "west": "false",
        "waterlogged": "false",
        "south": "false",
        "north": "true",
        "east": "false"
      },
      "Name": "minecraft:spruce_fence"
    },
    "x": -2,
    "y": 1,
    "z": 2
  },
  {
    "block": {
      "Properties": {
        "west": "false",
        "waterlogged": "false",
        "south": "false",
        "north": "true",
        "east": "false"
      },
      "Name": "minecraft:spruce_fence"
    },
    "x": 1,
    "y": 1,
    "z": 2
  }
]