[
  {
    "block": {
      "Properties": {
        "west": "none",
        "waterlogged": "false",
        "up": "true",
        "south": "tall",
        "north": "none",
        "east": "none"
      },
      "Name": "minecraft:cobblestone_wall"
    },
    "x": -1,
    "y": -2,
    "z": -1
  },
  {
    "block": {
      "Properties": {
        "waterlogged": "false",
        "shape": "straight",
        "half": "bottom",
        "facing": "south"
      },
      "Name": "minecraft:cobblestone_stairs"
    },
    "x": 0,
    "y": -2,
    "z": -1
  },
  {
    "block": {
      "Properties": {
        "west": "none",
        "waterlogged": "false",
        "up": "true",
        "south": "tall",
        "north": "none",
        "east": "none"
      },
      "Name": "minecraft:cobblestone_wall"
    },
    "x": 1,
    "y": -2,
    "z": -1
  },
  {
    "block": {
      "Properties": {
        "west": "none",
        "waterlogged": "false",
        "up": "true",
        "south": "low",
        "north": "none",
        "east": "none"
      },
      "Name": "minecraft:cobblestone_wall"
    },
    "x": -1,
    "y": -1,
    "z": -1
  },
  {
    "block": {
      "Properties": {
        "west": "none",
        "waterlogged": "false",
        "up": "true",
        "south": "low",
        "north": "none",
        "east": "none"
      },
      "Name": "minecraft:cobblestone_wall"
    },
    "x": 1,
    "y": -1,
    "z": -1
  },
  {
    "block": {
      "Name": "minecraft:torch"
    },
    "x": -1,
    "y": 0,
    "z": -1
  },
  {
    "block": {
      "Name": "minecraft:torch"
    },
    "x": 1,
    "y": 0,
    "z": -1
  },
  {
    "block": {
      "Properties": {
        "axis": "z"
      },
      "Name": "minecraft:spruce_log"
    },
    "x": -3,
    "y": 1,
    "z": -1
  },
  {
    "block": {
      "Properties": {
        "axis": "z"
      },
      "Name": "minecraft:spruce_log"
    },
    "x": 3,
    "y": 1,
    "z": -1
  },
  {
    "block": {
      "Properties": {
        "axis": "z"
      },
      "Name": "minecraft:spruce_log"
    },
    "x": -2,
    "y": 2,
    "z": -1
  },
  {
    "block": {
      "Properties": {
        "axis": "z"
      },
      "Name": "minecraft:spruce_log"
    },
    "x": 2,
    "y": 2,
    "z": -1
  },
  {
    "block": {
      "Properties": {
        "axis": "z"
      },
      "Name": "minecraft:spruce_log"
    },
    "x": -1,
    "y": 3,
    "z": -1
  },
  {
    "block": {
      "Properties": {
        "axis": "z"
      },
      "Name": "minecraft:spruce_log"
    },
    "x": 1,
    "y": 3,
    "z": -1
  },
  {
    "block": {
      "Properties": {
        "axis": "z"
      },
      "Name": "minecraft:spruce_log"
    },
    "x": 0,
    "y": 4,
    "z": -1
  },
  {
    "block": {
      "Properties": {
        "axis": "y"
      },
      "Name": "minecraft:spruce_log"
    },
    "x": -2,
    "y": -2,
    "z": 0
  },
  {
    "block": {
      "Name": "minecraft:cobblestone"
    },
    "x": -1,
    "y": -2,
    "z": 0
  },
  {
    "block": {
      "Name": "minecraft:cobblestone"
    },
    "x": 0,
    "y": -2,
    "z": 0
  },
  {
    "block": {
      "Name": "minecraft:cobblestone"
    },
    "x": 1,
    "y": -2,
    "z": 0
  },
  {
    "block": {
      "Properties": {
        "axis": "y"
      },
      "Name": "minecraft:spruce_log"
    },
    "x": 2,
    "y": -2,
    "z": 0
  },
  {
    "block": {
      "Properties": {
        "axis": "y"
      },
      "Name": "minecraft:spruce_log"
    },
    "x": -2,
    "y": -1,
    "z": 0
  },
  {
    "block": {
      "Name": "minecraft:cobblestone"
    },
    "x": -1,
    "y": -1,
    "z": 0
  },
  {
    "block": {
      "Name": "minecraft:cobblestone"
    },
    "x": 1,
    "y": -1,
    "z": 0
  },
  {
    "block": {
      "Properties": {
        "axis": "y"
      },
      "Name": "minecraft:spruce_log"
    },
    "x": 2,
    "y": -1,
    "z": 0
  },
  {
    "block": {
      "Properties": {
        "axis": "y"
      },
      "Name": "minecraft:spruce_log"
    },
    "x": -2,
    "y": 0,
    "z": 0
  },
  {
    "block": {
      "Name": "minecraft:cobblestone"
    },
    "x": -1,
    "y": 0,
    "z": 0
  },
  {
    "block": {
      "Name": "minecraft:cobblestone"
    },
    "x": 1,
    "y": 0,
    "z": 0
  },
  {
    "block": {
      "Properties": {
        "axis": "y"
      },
      "Name": "minecraft:spruce_log"
    },
    "x": 2,
    "y": 0,
    "z": 0
  },
  {
    "block": {
      "Properties": {
        "axis": "z"
      },
      "Name": "minecraft:spruce_log"
    },
    "x": -3,
    "y": 1,
    "z": 0
  },
  {
    "block": {
      "Properties": {
        "axis": "y"
      },
      "Name": "minecraft:spruce_log"
    },
    "x": -2,
    "y": 1,
    "z": 0
  },
  {
    "block": {
      "Name": "minecraft:cobblestone"
    },
    "x": -1,
    "y": 1,
    "z": 0
  },
  {
    "block": {
      "Name": "minecraft:cobblestone"
    },
    "x": 0,
    "y": 1,
    "z": 0
  },
  {
    "block": {
      "Name": "minecraft:cobblestone"
    },
    "x": 1,
    "y": 1,
    "z": 0
  },
  {
    "block": {
      "Properties": {
        "axis": "y"
      },
      "Name": "minecraft:spruce_log"
    },
    "x": 2,
    "y": 1,
    "z": 0
  },
  {
    "block": {
      "Properties": {
        "axis": "z"
      },
      "Name": "minecraft:spruce_log"
    },
    "x": 3,
    "y": 1,
    "z": 0
  },
  {
    "block": {
      "Properties": {
        "axis": "z"
      },
      "Name": "minecraft:spruce_log"
    },
    "x": -2,
    "y": 2,
    "z": 0
  },
  {
    "block": {
      "Name": "minecraft:cobblestone"
    },
    "x": -1,
    "y": 2,
    "z": 0
  },
  {
    "block": {
      "Name": "minecraft:cobblestone"
    },
    "x": 0,
    "y": 2,
    "z": 0
  },
  {
    "block": {
      "Name": "minecraft:cobblestone"
    },
    "x": 1,
    "y": 2,
    "z": 0
  },
  {
    "block": {
      "Properties": {
        "axis": "z"
      },
      "Name": "minecraft:spruce_log"
    },
    "x": 2,
    "y": 2,
    "z": 0
  },
  {
    "block": {
      "Properties": {
        "axis": "z"
      },
      "Name": "minecraft:spruce_log"
    },
    "x": -1,
    "y": 3,
    "z": 0
  },
  {
    "block": {
      "Name": "minecraft:cobblestone"
    },
    "x": 0,
    "y": 3,
    "z": 0
  },
  {
    "block": {
      "Properties": {
        "axis": "z"
      },
      "Name": "minecraft:spruce_log"
    },
    "x": 1,
    "y": 3,
    "z": 0
  },
  {
    "block": {
      "Properties": {
        "axis": "z"
      },
      "Name": "minecraft:spruce_log"
    },
    "x": 0,
    "y": 4,
    "z": 0
  },
  {
    "block": {
      "Name": "minecraft:cobblestone"
    },
    "x": -2,
    "y": -2,
    "z": 1
  },
  {
    "block": {
      "Name": "minecraft:cobblestone"
    },
    "x": -1,
    "y": -2,
    "z": 1
  },
  {
    "block": {
      "Name": "minecraft:cobblestone"
    },
    "x": 0,
    "y": -2,
    "z": 1
  },
  {
    "block": {
      "Name": "minecraft:cobblestone"
    },
    "x": 1,
    "y": -2,
    "z": 1
  },
  {
    "block": {
      "Name": "minecraft:cobblestone"
    },
    "x": 2,
    "y": -2,
    "z": 1
  },
  {
    "block": {
      "Name": "minecraft:cobblestone"
    },
    "x": -2,
    "y": -1,
    "z": 1
  },
  {
    "block": {
      "Properties": {
        "waterlogged": "false",
        "type": "single",
        "facing": "east"
      },
      "Name": "minecraft:chest"
    },
    "x": -1,
    "y": -1,
    "z": 1
  },
  {
    "block": {
      "Name": "minecraft:crafting_table"
    },
    "x": 1,
    "y": -1,
    "z": 1
  },
  {
    "block": {
      "Name": "minecraft:cobblestone"
    },
    "x": 2,
    "y": -1,
    "z": 1
  },
  {
    "block": {
      "Properties": {
        "waterlogged": "false",
        "powered": "false",
        "open": "true",
        "half": "bottom",
        "facing": "west"
      },
      "Name": "minecraft:spruce_trapdoor"
    },
    "x": -3,
    "y": 0,
    "z": 1
  },
  {
    "block": {
      "Name": "minecraft:cobblestone"
    },
    "x": -2,
    "y": 0,
    "z": 1
  },
  {
    "block": {
      "Name": "minecraft:cobblestone"
    },
    "x": 2,
    "y": 0,
    "z": 1
  },
  {
    "block": {
      "Properties": {
        "waterlogged": "false",
        "powered": "false",
        "open": "true",
        "half": "bottom",
        "facing": "east"
      },
      "Name": "minecraft:spruce_trapdoor"
    },
    "x": 3,
    "y": 0,
    "z": 1
  },
  {
    "block": {
      "Properties": {
        "axis": "z"
      },
      "Name": "minecraft:spruce_log"
    },
    "x": -3,
    "y": 1,
    "z": 1
  },
  {
    "block": {
      "Name": "minecraft:cobblestone"
    },
    "x": -2,
    "y": 1,
    "z": 1
  },
  {
    "block": {
      "Name": "minecraft:cobblestone"
    },
    "x": 2,
    "y": 1,
    "z": 1
  },
  {
    "block": {
      "Properties": {
        "axis": "z"
      },
      "Name": "minecraft:spruce_log"
    },
    "x": 3,
    "y": 1,
    "z": 1
  },
  {
    "block": {
      "Properties": {
        "axis": "z"
      },
      "Name": "minecraft:spruce_log"
    },
    "x": -2,
    "y": 2,
    "z": 1
  },
  {
    "block": {
      "Properties": {
        "facing": "south"
      },
      "Name": "minecraft:wall_torch"
    },
    "x": 0,
    "y": 2,
    "z": 1
  },
  {
    "block": {
      "Properties": {
        "axis": "z"
      },
      "Name": "minecraft:spruce_log"
    },
    "x": 2,
    "y": 2,
    "z": 1
  },
  {
    "block": {
      "Properties": {
        "axis": "z"
      },
      "Name": "minecraft:spruce_log"
    },
    "x": -1,
    "y": 3,
    "z": 1
  },
  {
    "block": {
      "Properties": {
        "axis": "z"
      },
      "Name": "minecraft:spruce_log"
    },
    "x": 1,
    "y": 3,
    "z": 1
  },
  {
    "block": {
      "Properties": {
        "axis": "z"
      },
      "Name": "minecraft:spruce_log"
    },
    "x": 0,
    "y": 4,
    "z": 1
  },
  {
    "block": {
      "Name": "minecraft:cobblestone"
    },
    "x": -2,
    "y": -2,
    "z": 2
  },
  {
    "block": {
      "Name": "minecraft:cobblestone"
    },
    "x": -1,
    "y": -2,
    "z": 2
  },
  {
    "block": {
      "Name": "minecraft:cobblestone"
    },
    "x": 0,
    "y": -2,
    "z": 2
  },
  {
    "block": {
      "Name": "minecraft:cobblestone"
    },
    "x": 1,
    "y": -2,
    "z": 2
  },
  {
    "block": {
      "Name": "minecraft:cobblestone"
    },
    "x": 2,
    "y": -2,
    "z": 2
  },
  {
    "block": {
      "Name": "minecraft:cobblestone"
    },
    "x": -2,
    "y": -1,
    "z": 2
  },
  {
    "block": {
      "Properties": {
        "part": "foot",
        "occupied": "false",
        "facing": "south"
      },
      "Name": "minecraft:blue_bed"
    },
    "x": -1,
    "y": -1,
    "z": 2
  },
  {
    "block": {
      "Properties": {
        "waterlogged": "false",
        "shape": "straight",
        "half": "bottom",
        "facing": "east"
      },
      "Name": "minecraft:spruce_stairs"
    },
    "x": 1,
    "y": -1,
    "z": 2
  },
  {
    "block": {
      "Name": "minecraft:cobblestone"
    },
    "x": 2,
    "y": -1,
    "z": 2
  },
  {
    "block": {
      "Properties": {
        "west": "false",
        "waterlogged": "false",
        "south": "true",
        "north": "true",
        "east": "false"
      },
      "Name": "minecraft:glass_pane"
    },
    "x": -2,
    "y": 0,
    "z": 2
  },
  {
    "block": {
      "Properties": {
        "west": "false",
        "waterlogged": "false",
        "south": "true",
        "north": "true",
        "east": "false"
      },
      "Name": "minecraft:glass_pane"
    },
    "x": 2,
    "y": 0,
    "z": 2
  },
  {
    "block": {
      "Properties": {
        "axis": "z"
      },
      "Name": "minecraft:spruce_log"
    },
    "x": -3,
    "y": 1,
    "z": 2
  },
  {
    "block": {
      "Name": "minecraft:cobblestone"
    },
    "x": -2,
    "y": 1,
    "z": 2
  },
  {
    "block": {
      "Name": "minecraft:cobblestone"
    },
    "x": 2,
    "y": 1,
    "z": 2
  },
  {
    "block": {
      "Properties": {
        "axis": "z"
      },
      "Name": "minecraft:spruce_log"
    },
    "x": 3,
    "y": 1,
    "z": 2
  },
  {
    "block": {
      "Properties": {
        "axis": "z"
      },
      "Name": "minecraft:spruce_log"
    },
    "x": -2,
    "y": 2,
    "z": 2
  },
  {
    "block": {
      "Properties": {
        "axis": "z"
      },
      "Name": "minecraft:spruce_log"
    },
    "x": 2,
    "y": 2,
    "z": 2
  },
  {
    "block": {
      "Properties": {
        "axis": "z"
      },
      "Name": "minecraft:spruce_log"
    },
    "x": -1,
    "y": 3,
    "z": 2
  },
  {
    "block": {
      "Properties": {
        "axis": "z"
      },
      "Name": "minecraft:spruce_log"
    },
    "x": 1,
    "y": 3,
    "z": 2
  },
  {
    "block": {
      "Properties": {
        "axis": "z"
      },
      "Name": "minecraft:spruce_log"
    },
    "x": 0,
    "y": 4,
    "z": 2
  },
  {
    "block": {
      "Name": "minecraft:cobblestone"
    },
    "x": -2,
    "y": -2,
    "z": 3
  },
  {
    "block": {
      "Name": "minecraft:cobblestone"
    },
    "x": -1,
    "y": -2,
    "z": 3
  },
  {
    "block": {
      "Name": "minecraft:cobblestone"
    },
    "x": 0,
    "y": -2,
    "z": 3
  },
  {
    "block": {
      "Name": "minecraft:cobblestone"
    },
    "x": 1,
    "y": -2,
    "z": 3
  },
  {
    "block": {
      "Name": "minecraft:cobblestone"
    },
    "x": 2,
    "y": -2,
    "z": 3
  },
  {
    "block": {
      "Name": "minecraft:cobblestone"
    },
    "x": -2,
    "y": -1,
    "z": 3
  },
  {
    "block": {
      "Properties": {
        "part": "head",
        "occupied": "false",
        "facing": "south"
      },
      "Name": "minecraft:blue_bed"
    },
    "x": -1,
    "y": -1,
    "z": 3
  },
  {
    "block": {
      "Properties": {
        "waterlogged": "false",
        "shape": "straight",
        "half": "bottom",
        "facing": "east"
      },
      "Name": "minecraft:spruce_stairs"
    },
    "x": 1,
    "y": -1,
    "z": 3
  },
  {
    "block": {
      "Name": "minecraft:cobblestone"
    },
    "x": 2,
    "y": -1,
    "z": 3
  },
  {
    "block": {
      "Properties": {
        "waterlogged": "false",
        "powered": "false",
        "open": "true",
        "half": "bottom",
        "facing": "west"
      },
      "Name": "minecraft:spruce_trapdoor"
    },
    "x": -3,
    "y": 0,
    "z": 3
  },
  {
    "block": {
      "Name": "minecraft:cobblestone"
    },
    "x": -2,
    "y": 0,
    "z": 3
  },
  {
    "block": {
      "Name": "minecraft:cobblestone"
    },
    "x": 2,
    "y": 0,
    "z": 3
  },
  {
    "block": {
      "Properties": {
        "waterlogged": "false",
        "powered": "false",
        "open": "true",
        "half": "bottom",
        "facing": "east"
      },
      "Name": "minecraft:spruce_trapdoor"
    },
    "x": 3,
    "y": 0,
    "z": 3
  },
  {
    "block": {
      "Properties": {
        "axis": "z"
      },
      "Name": "minecraft:spruce_log"
    },
    "x": -3,
    "y": 1,
    "z": 3
  },
  {
    "block": {
      "Name": "minecraft:cobblestone"
    },
    "x": -2,
    "y": 1,
    "z": 3
  },
  {
    "block": {
      "Name": "minecraft:cobblestone"
    },
    "x": 2,
    "y": 1,
    "z": 3
  },
  {
    "block": {
      "Properties": {
        "axis": "z"
      },
      "Name": "minecraft:spruce_log"
    },
    "x": 3,
    "y": 1,
    "z": 3
  },
  {
    "block": {
      "Properties": {
        "axis": "z"
      },
      "Name": "minecraft:spruce_log"
    },
    "x": -2,
    "y": 2,
    "z": 3
  },
  {
    "block": {
      "Properties": {
        "facing": "north"
      },
      "Name": "minecraft:wall_torch"
    },
    "x": 0,
    "y": 2,
    "z": 3
  },
  {
    "block": {
      "Properties": {
        "axis": "z"
      },
      "Name": "minecraft:spruce_log"
    },
    "x": 2,
    "y": 2,
    "z": 3
  },
  {
    "block": {
      "Properties": {
        "axis": "z"
      },
      "Name": "minecraft:spruce_log"
    },
    "x": -1,
    "y": 3,
    "z": 3
  },
  {
    "block": {
      "Properties": {
        "axis": "z"
      },
      "Name": "minecraft:spruce_log"
    },
    "x": 1,
    "y": 3,
    "z": 3
  },
  {
    "block": {
      "Properties": {
        "axis": "z"
      },
      "Name": "minecraft:spruce_log"
    },
    "x": 0,
    "y": 4,
    "z": 3
  },
  {
    "block": {
      "Properties": {
        "axis": "y"
      },
      "Name": "minecraft:spruce_log"
    },
    "x": -2,
    "y": -2,
    "z": 4
  },
  {
    "block": {
      "Name": "minecraft:cobblestone"
    },
    "x": -1,
    "y": -2,
    "z": 4
  },
  {
    "block": {
      "Name": "minecraft:cobblestone"
    },
    "x": 0,
    "y": -2,
    "z": 4
  },
  {
    "block": {
      "Name": "minecraft:cobblestone"
    },
    "x": 1,
    "y": -2,
    "z": 4
  },
  {
    "block": {
      "Properties": {
        "axis": "y"
      },
      "Name": "minecraft:spruce_log"
    },
    "x": 2,
    "y": -2,
    "z": 4
  },
  {
    "block": {
      "Properties": {
        "axis": "y"
      },
      "Name": "minecraft:spruce_log"
    },
    "x": -2,
    "y": -1,
    "z": 4
  },
  {
    "block": {
      "Name": "minecraft:cobblestone"
    },
    "x": -1,
    "y": -1,
    "z": 4
  },
  {
    "block": {
      "Name": "minecraft:cobblestone"
    },
    "x": 0,
    "y": -1,
    "z": 4
  },
  {
    "block": {
      "Name": "minecraft:cobblestone"
    },
    "x": 1,
    "y": -1,
    "z": 4
  },
  {
    "block": {
      "Properties": {
        "axis": "y"
      },
      "Name": "minecraft:spruce_log"
    },
    "x": 2,
    "y": -1,
    "z": 4
  },
  {
    "block": {
      "Properties": {
        "axis": "y"
      },
      "Name": "minecraft:spruce_log"
    },
    "x": -2,
    "y": 0,
    "z": 4
  },
  {
    "block": {
      "Name": "minecraft:cobblestone"
    },
    "x": -1,
    "y": 0,
    "z": 4
  },
  {
    "block": {
      "Properties": {
        "west": "true",
        "waterlogged": "false",
        "south": "false",
        "north": "false",
        "east": "true"
      },
      "Name": "minecraft:glass_pane"
    },
    "x": 0,
    "y": 0,
    "z": 4
  },
  {
    "block": {
      "Name": "minecraft:cobblestone"
    },
    "x": 1,
    "y": 0,
    "z": 4
  },
  {
    "block": {
      "Properties": {
        "axis": "y"
      },
      "Name": "minecraft:spruce_log"
    },
    "x": 2,
    "y": 0,
    "z": 4
  },
  {
    "block": {
      "Properties": {
        "axis": "z"
      },
      "Name": "minecraft:spruce_log"
    },
    "x": -3,
    "y": 1,
    "z": 4
  },
  {
    "block": {
      "Properties": {
        "axis": "y"
      },
      "Name": "minecraft:spruce_log"
    },
    "x": -2,
    "y": 1,
    "z": 4
  },
  {
    "block": {
      "Name": "minecraft:cobblestone"
    },
    "x": -1,
    "y": 1,
    "z": 4
  },
  {
    "block": {
      "Name": "minecraft:cobblestone"
    },
    "x": 0,
    "y": 1,
    "z": 4
  },
  {
    "block": {
      "Name": "minecraft:cobblestone"
    },
    "x": 1,
    "y": 1,
    "z": 4
  },
  {
    "block": {
      "Properties": {
        "axis": "y"
      },
      "Name": "minecraft:spruce_log"
    },
    "x": 2,
    "y": 1,
    "z": 4
  },
  {
    "block": {
      "Properties": {
        "axis": "z"
      },
      "Name": "minecraft:spruce_log"
    },
    "x": 3,
    "y": 1,
    "z": 4
  },
  {
    "block": {
      "Properties": {
        "axis": "z"
      },
      "Name": "minecraft:spruce_log"
    },
    "x": -2,
    "y": 2,
    "z": 4
  },
  {
    "block": {
      "Name": "minecraft:cobblestone"
    },
    "x": -1,
    "y": 2,
    "z": 4
  },
  {
    "block": {
      "Name": "minecraft:cobblestone"
    },
    "x": 0,
    "y": 2,
    "z": 4
  },
  {
    "block": {
      "Name": "minecraft:cobblestone"
    },
    "x": 1,
    "y": 2,
    "z": 4
  },
  {
    "block": {
      "Properties": {
        "axis": "z"
      },
      "Name": "minecraft:spruce_log"
    },
    "x": 2,
    "y": 2,
    "z": 4
  },
  {
    "block": {
      "Properties": {
        "axis": "z"
      },
      "Name": "minecraft:spruce_log"
    },
    "x": -1,
    "y": 3,
    "z": 4
  },
  {
    "block": {
      "Name": "minecraft:cobblestone"
    },
    "x": 0,
    "y": 3,
    "z": 4
  },
  {
    "block": {
      "Properties": {
        "axis": "z"
      },
      "Name": "minecraft:spruce_log"
    },
    "x": 1,
    "y": 3,
    "z": 4
  },
  {
    "block": {
      "Properties": {
        "axis": "z"
      },
      "Name": "minecraft:spruce_log"
    },
    "x": 0,
    "y": 4,
    "z": 4
  },
  {
    "block": {
      "Properties": {
        "waterlogged": "false",
        "powered": "false",
        "open": "true",
        "half": "bottom",
        "facing": "south"
      },
      "Name": "minecraft:spruce_trapdoor"
    },
    "x": -1,
    "y": 0,
    "z": 5
  },
  {
    "block": {
      "Properties": {
        "waterlogged": "false",
        "powered": "false",
        "open": "true",
        "half": "bottom",
        "facing": "south"
      },
      "Name": "minecraft:spruce_trapdoor"
    },
    "x": 1,
    "y": 0,
    "z": 5
  },
  {
    "block": {
      "Properties": {
        "axis": "z"
      },
      "Name": "minecraft:spruce_log"
    },
    "x": -3,
    "y": 1,
    "z": 5
  },
  {
    "block": {
      "Properties": {
        "axis": "z"
      },
      "Name": "minecraft:spruce_log"
    },
    "x": 3,
    "y": 1,
    "z": 5
  },
  {
    "block": {
      "Properties": {
        "axis": "z"
      },
      "Name": "minecraft:spruce_log"
    },
    "x": -2,
    "y": 2,
    "z": 5
  },
  {
    "block": {
      "Properties": {
        "axis": "z"
      },
      "Name": "minecraft:spruce_log"
    },
    "x": 2,
    "y": 2,
    "z": 5
  },
  {
    "block": {
      "Properties": {
        "axis": "z"
      },
      "Name": "minecraft:spruce_log"
    },
    "x": -1,
    "y": 3,
    "z": 5
  },
  {
    "block": {
      "Properties": {
        "axis": "z"
      },
      "Name": "minecraft:spruce_log"
    },
    "x": 1,
    "y": 3,
    "z": 5
  },
  {
    "block": {
      "Properties": {
        "axis": "z"
      },
      "Name": "minecraft:spruce_log"
    },
    "x": 0,
    "y": 4,
    "z": 5
  }
]