[
  {
    "block": {
      "Name": "minecraft:fern"
    },
    "x": 3,
    "y": -1,
    "z": -3
  },
  {
    "block": {
      "Properties": {
        "waterlogged": "false",
        "powered": "false",
        "open": "true",
        "half": "top",
        "facing": "north"
      },
      "Name": "minecraft:spruce_trapdoor"
    },
    "x": -2,
    "y": 2,
    "z": -3
  },
  {
    "block": {
      "Properties": {
        "waterlogged": "false",
        "powered": "false",
        "open": "true",
        "half": "top",
        "facing": "north"
      },
      "Name": "minecraft:spruce_trapdoor"
    },
    "x": -1,
    "y": 2,
    "z": -3
  },
  {
    "block": {
      "Properties": {
        "waterlogged": "false",
        "powered": "false",
        "open": "true",
        "half": "top",
        "facing": "north"
      },
      "Name": "minecraft:spruce_trapdoor"
    },
    "x": 0,
    "y": 2,
    "z": -3
  },
  {
    "block": {
      "Properties": {
        "waterlogged": "false",
        "powered": "false",
        "open": "true",
        "half": "top",
        "facing": "north"
      },
      "Name": "minecraft:spruce_trapdoor"
    },
    "x": 1,
    "y": 2,
    "z": -3
  },
  {
    "block": {
      "Properties": {
        "waterlogged": "false",
        "powered": "false",
        "open": "true",
        "half": "top",
        "facing": "north"
      },
      "Name": "minecraft:spruce_trapdoor"
    },
    "x": 2,
    "y": 2,
    "z": -3
  },
  {
    "block": {
      "Properties": {
        "facing": "south",
        "face": "floor"
      },
      "Name": "minecraft:grindstone"
    },
    "x": -1,
    "y": -1,
    "z": -2
  },
  {
    "block": {
      "Properties": {
        "facing": "south",
        "face": "floor"
      },
      "Name": "minecraft:grindstone"
    },
    "x": 1,
    "y": -1,
    "z": -2
  },
  {
    "block": {
      "Properties": {
        "facing": "north"
      },
      "Name": "minecraft:wall_torch"
    },
    "x": 0,
    "y": 1,
    "z": -2
  },
  {
    "block": {
      "Properties": {
        "waterlogged": "false",
        "powered": "false",
        "open": "true",
        "half": "bottom",
        "facing": "west"
      },
      "Name": "minecraft:spruce_trapdoor"
    },
    "x": -3,
    "y": 2,
    "z": -2
  },
  {
    "block": {
      "Properties": {
        "snowy": "false"
      },
      "Name": "minecraft:grass_block"
    },
    "x": -2,
    "y": 2,
    "z": -2
  },
  {
    "block": {
      "Properties": {
        "snowy": "false"
      },
      "Name": "minecraft:grass_block"
    },
    "x": -1,
    "y": 2,
    "z": -2
  },
  {
    "block": {
      "Properties": {
        "snowy": "false"
      },
      "Name": "minecraft:grass_block"
    },
    "x": 0,
    "y": 2,
    "z": -2
  },
  {
    "block": {
      "Properties": {
        "snowy": "false"
      },
      "Name": "minecraft:grass_block"
    },
    "x": 1,
    "y": 2,
    "z": -2
  },
  {
    "block": {
      "Properties": {
        "snowy": "false"
      },
      "Name": "minecraft:grass_block"
    },
    "x": 2,
    "y": 2,
    "z": -2
  },
  {
    "block": {
      "Properties": {
        "waterlogged": "false",
        "powered": "false",
        "open": "true",
        "half": "top",
        "facing": "east"
      },
      "Name": "minecraft:spruce_trapdoor"
    },
    "x": 3,
    "y": 2,
    "z": -2
  },
  {
    "block": {
      "Properties": {
        "axis": "z"
      },
      "Name": "minecraft:spruce_log"
    },
    "x": -3,
    "y": 3,
    "z": -2
  },
  {
    "block": {
      "Name": "minecraft:poppy"
    },
    "x": -2,
    "y": 3,
    "z": -2
  },
  {
    "block": {
      "Name": "minecraft:fern"
    },
    "x": 0,
    "y": 3,
    "z": -2
  },
  {
    "block": {
      "Name": "minecraft:poppy"
    },
    "x": 1,
    "y": 3,
    "z": -2
  },
  {
    "block": {
      "Name": "minecraft:fern"
    },
    "x": 2,
    "y": 3,
    "z": -2
  },
  {
    "block": {
      "Properties": {
        "axis": "z"
      },
      "Name": "minecraft:spruce_log"
    },
    "x": 3,
    "y": 3,
    "z": -2
  },
  {
    "block": {
      "Properties": {
        "axis": "z"
      },
      "Name": "minecraft:spruce_log"
    },
    "x": -2,
    "y": 4,
    "z": -2
  },
  {
    "block": {
      "Properties": {
        "facing": "north"
      },
      "Name": "minecraft:wall_torch"
    },
    "x": 0,
    "y": 4,
    "z": -2
  },
  {
    "block": {
      "Properties": {
        "axis": "z"
      },
      "Name": "minecraft:spruce_log"
    },
    "x": 2,
    "y": 4,
    "z": -2
  },
  {
    "block": {
      "Properties": {
        "axis": "z"
      },
      "Name": "minecraft:spruce_log"
    },
    "x": -1,
    "y": 5,
    "z": -2
  },
  {
    "block": {
      "Properties": {
        "axis": "z"
      },
      "Name": "minecraft:spruce_log"
    },
    "x": 1,
    "y": 5,
    "z": -2
  },
  {
    "block": {
      "Properties": {
        "axis": "z"
      },
      "Name": "minecraft:spruce_log"
    },
    "x": 0,
    "y": 6,
    "z": -2
  },
  {
    "block": {
      "Name": "minecraft:fern"
    },
    "x": -3,
    "y": -1,
    "z": -1
  },
  {
    "block": {
      "Name": "minecraft:cobblestone"
    },
    "x": -2,
    "y": -1,
    "z": -1
  },
  {
    "block": {
      "Name": "minecraft:cobblestone"
    },
    "x": -1,
    "y": -1,
    "z": -1
  },
  {
    "block": {
      "Properties": {
        "powered": "false",
        "open": "false",
        "hinge": "left",
        "half": "lower",
        "facing": "south"
      },
      "Name": "minecraft:spruce_door"
    },
    "x": 0,
    "y": -1,
    "z": -1
  },
  {
    "block": {
      "Name": "minecraft:cobblestone"
    },
    "x": 1,
    "y": -1,
    "z": -1
  },
  {
    "block": {
      "Name": "minecraft:cobblestone"
    },
    "x": 2,
    "y": -1,
    "z": -1
  },
  {
    "block": {
      "Name": "minecraft:cobblestone"
    },
    "x": -2,
    "y": 0,
    "z": -1
  },
  {
    "block": {
      "Name": "minecraft:cobblestone"
    },
    "x": -1,
    "y": 0,
    "z": -1
  },
  {
    "block": {
      "Properties": {
        "powered": "false",
        "open": "false",
        "hinge": "left",
        "half": "upper",
        "facing": "south"
      },
      "Name": "minecraft:spruce_door"
    },
    "x": 0,
    "y": 0,
    "z": -1
  },
  {
    "block": {
      "Name": "minecraft:cobblestone"
    },
    "x": 1,
    "y": 0,
    "z": -1
  },
  {
    "block": {
      "Name": "minecraft:cobblestone"
    },
    "x": 2,
    "y": 0,
    "z": -1
  },
  {
    "block": {
      "Name": "minecraft:cobblestone"
    },
    "x": -2,
    "y": 1,
    "z": -1
  },
  {
    "block": {
      "Name": "minecraft:cobblestone"
    },
    "x": -1,
    "y": 1,
    "z": -1
  },
  {
    "block": {
      "Name": "minecraft:cobblestone"
    },
    "x": 0,
    "y": 1,
    "z": -1
  },
  {
    "block": {
      "Name": "minecraft:cobblestone"
    },
    "x": 1,
    "y": 1,
    "z": -1
  },
  {
    "block": {
      "Name": "minecraft:cobblestone"
    },
    "x": 2,
    "y": 1,
    "z": -1
  },
  {
    "block": {
      "Name": "minecraft:spruce_planks"
    },
    "x": -2,
    "y": 2,
    "z": -1
  },
  {
    "block": {
      "Name": "minecraft:spruce_planks"
    },
    "x": -1,
    "y": 2,
    "z": -1
  },
  {
    "block": {
      "Name": "minecraft:spruce_planks"
    },
    "x": 0,
    "y": 2,
    "z": -1
  },
  {
    "block": {
      "Name": "minecraft:spruce_planks"
    },
    "x": 1,
    "y": 2,
    "z": -1
  },
  {
    "block": {
      "Name": "minecraft:spruce_planks"
    },
    "x": 2,
    "y": 2,
    "z": -1
  },
  {
    "block": {
      "Properties": {
        "axis": "z"
      },
      "Name": "minecraft:spruce_log"
    },
    "x": -3,
    "y": 3,
    "z": -1
  },
  {
    "block": {
      "Name": "minecraft:spruce_planks"
    },
    "x": -2,
    "y": 3,
    "z": -1
  },
  {
    "block": {
      "Properties": {
        "west": "true",
        "waterlogged": "false",
        "south": "false",
        "north": "false",
        "east": "true"
      },
      "Name": "minecraft:glass_pane"
    },
    "x": -1,
    "y": 3,
    "z": -1
  },
  {
    "block": {
      "Name": "minecraft:spruce_planks"
    },
    "x": 0,
    "y": 3,
    "z": -1
  },
  {
    "block": {
      "Properties": {
        "west": "true",
        "waterlogged": "false",
        "south": "false",
        "north": "false",
        "east": "true"
      },
      "Name": "minecraft:glass_pane"
    },
    "x": 1,
    "y": 3,
    "z": -1
  },
  {
    "block": {
      "Name": "minecraft:spruce_planks"
    },
    "x": 2,
    "y": 3,
    "z": -1
  },
  {
    "block": {
      "Properties": {
        "axis": "z"
      },
      "Name": "minecraft:spruce_log"
    },
    "x": 3,
    "y": 3,
    "z": -1
  },
  {
    "block": {
      "Properties": {
        "axis": "z"
      },
      "Name": "minecraft:spruce_log"
    },
    "x": -2,
    "y": 4,
    "z": -1
  },
  {
    "block": {
      "Name": "minecraft:spruce_planks"
    },
    "x": -1,
    "y": 4,
    "z": -1
  },
  {
    "block": {
      "Name": "minecraft:spruce_planks"
    },
    "x": 0,
    "y": 4,
    "z": -1
  },
  {
    "block": {
      "Name": "minecraft:spruce_planks"
    },
    "x": 1,
    "y": 4,
    "z": -1
  },
  {
    "block": {
      "Properties": {
        "axis": "z"
      },
      "Name": "minecraft:spruce_log"
    },
    "x": 2,
    "y": 4,
    "z": -1
  },
  {
    "block": {
      "Properties": {
        "axis": "z"
      },
      "Name": "minecraft:spruce_log"
    },
    "x": -1,
    "y": 5,
    "z": -1
  },
  {
    "block": {
      "Name": "minecraft:spruce_planks"
    },
    "x": 0,
    "y": 5,
    "z": -1
  },
  {
    "block": {
      "Properties": {
        "axis": "z"
      },
      "Name": "minecraft:spruce_log"
    },
    "x": 1,
    "y": 5,
    "z": -1
  },
  {
    "block": {
      "Properties": {
        "axis": "z"
      },
      "Name": "minecraft:spruce_log"
    },
    "x": 0,
    "y": 6,
    "z": -1
  },
  {
    "block": {
      "Name": "minecraft:cobblestone"
    },
    "x": -2,
    "y": -1,
    "z": 0
  },
  {
    "block": {
      "Properties": {
        "waterlogged": "false",
        "type": "single",
        "facing": "east"
      },
      "Name": "minecraft:chest"
    },
    "x": -1,
    "y": -1,
    "z": 0
  },
  {
    "block": {
      "Properties": {
        "waterlogged": "false",
        "shape": "straight",
        "half": "bottom",
        "facing": "east"
      },
      "Name": "minecraft:spruce_stairs"
    },
    "x": 1,
    "y": -1,
    "z": 0
  },
  {
    "block": {
      "Name": "minecraft:cobblestone"
    },
    "x": 2,
    "y": -1,
    "z": 0
  },
  {
    "block": {
      "Name": "minecraft:cobblestone"
    },
    "x": -2,
    "y": 0,
    "z": 0
  },
  {
    "block": {
      "Name": "minecraft:cobblestone"
    },
    "x": 2,
    "y": 0,
    "z": 0
  },
  {
    "block": {
      "Name": "minecraft:cobblestone"
    },
    "x": -2,
    "y": 1,
    "z": 0
  },
  {
    "block": {
      "Name": "minecraft:cobblestone"
    },
    "x": 2,
    "y": 1,
    "z": 0
  },
  {
    "block": {
      "Name": "minecraft:spruce_planks"
    },
    "x": -2,
    "y": 2,
    "z": 0
  },
  {
    "block": {
      "Name": "minecraft:spruce_planks"
    },
    "x": 2,
    "y": 2,
    "z": 0
  },
  {
    "block": {
      "Properties": {
        "axis": "z"
      },
      "Name": "minecraft:spruce_log"
    },
    "x": -3,
    "y": 3,
    "z": 0
  },
  {
    "block": {
      "Name": "minecraft:spruce_planks"
    },
    "x": -2,
    "y": 3,
    "z": 0
  },
  {
    "block": {
      "Name": "minecraft:spruce_planks"
    },
    "x": 2,
    "y": 3,
    "z": 0
  },
  {
    "block": {
      "Properties": {
        "axis": "z"
      },
      "Name": "minecraft:spruce_log"
    },
    "x": 3,
    "y": 3,
    "z": 0
  },
  {
    "block": {
      "Properties": {
        "axis": "z"
      },
      "Name": "minecraft:spruce_log"
    },
    "x": -2,
    "y": 4,
    "z": 0
  },
  {
    "block": {
      "Properties": {
        "axis": "z"
      },
      "Name": "minecraft:spruce_log"
    },
    "x": 2,
    "y": 4,
    "z": 0
  },
  {
    "block": {
      "Properties": {
        "axis": "z"
      },
      "Name": "minecraft:spruce_log"
    },
    "x": -1,
    "y": 5,
    "z": 0
  },
  {
    "block": {
      "Properties": {
        "axis": "z"
      },
      "Name": "minecraft:spruce_log"
    },
    "x": 1,
    "y": 5,
    "z": 0
  },
  {
    "block": {
      "Properties": {
        "axis": "z"
      },
      "Name": "minecraft:spruce_log"
    },
    "x": 0,
    "y": 6,
    "z": 0
  },
  {
    "block": {
      "Name": "minecraft:cobblestone"
    },
    "x": -2,
    "y": -1,
    "z": 1
  },
  {
    "block": {
      "Properties": {
        "west": "true",
        "waterlogged": "false",
        "south": "true",
        "north": "false",
        "east": "false"
      },
      "Name": "minecraft:spruce_fence"
    },
    "x": -1,
    "y": -1,
    "z": 1
  },
  {
    "block": {
      "Properties": {
        "waterlogged": "false",
        "shape": "straight",
        "half": "bottom",
        "facing": "east"
      },
      "Name": "minecraft:spruce_stairs"
    },
    "x": 1,
    "y": -1,
    "z": 1
  },
  {
    "block": {
      "Name": "minecraft:cobblestone"
    },
    "x": 2,
    "y": -1,
    "z": 1
  },
  {
    "block": {
      "Name": "minecraft:cobblestone"
    },
    "x": -2,
    "y": 0,
    "z": 1
  },
  {
    "block": {
      "Properties": {
        "waterlogged": "false",
        "powered": "false",
        "open": "false",
        "half": "bottom",
        "facing": "east"
      },
      "Name": "minecraft:spruce_trapdoor"
    },
    "x": -1,
    "y": 0,
    "z": 1
  },
  {
    "block": {
      "Name": "minecraft:cobblestone"
    },
    "x": 2,
    "y": 0,
    "z": 1
  },
  {
    "block": {
      "Name": "minecraft:cobblestone"
    },
    "x": -2,
    "y": 1,
    "z": 1
  },
  {
    "block": {
      "Name": "minecraft:cobblestone"
    },
    "x": 2,
    "y": 1,
    "z": 1
  },
  {
    "block": {
      "Name": "minecraft:spruce_planks"
    },
    "x": -2,
    "y": 2,
    "z": 1
  },
  {
    "block": {
      "Name": "minecraft:spruce_planks"
    },
    "x": 2,
    "y": 2,
    "z": 1
  },
  {
    "block": {
      "Properties": {
        "axis": "z"
      },
      "Name": "minecraft:spruce_log"
    },
    "x": -3,
    "y": 3,
    "z": 1
  },
  {
    "block": {
      "Name": "minecraft:spruce_planks"
    },
    "x": -2,
    "y": 3,
    "z": 1
  },
  {
    "block": {
      "Properties": {
        "facing": "north"
      },
      "Name": "minecraft:wall_torch"
    },
    "x": 0,
    "y": 3,
    "z": 1
  },
  {
    "block": {
      "Name": "minecraft:spruce_planks"
    },
    "x": 2,
    "y": 3,
    "z": 1
  },
  {
    "block": {
      "Properties": {
        "axis": "z"
      },
      "Name": "minecraft:spruce_log"
    },
    "x": 3,
    "y": 3,
    "z": 1
  },
  {
    "block": {
      "Properties": {
        "axis": "z"
      },
      "Name": "minecraft:spruce_log"
    },
    "x": -2,
    "y": 4,
    "z": 1
  },
  {
    "block": {
      "Properties": {
        "axis": "z"
      },
      "Name": "minecraft:spruce_log"
    },
    "x": 2,
    "y": 4,
    "z": 1
  },
  {
    "block": {
      "Properties": {
        "axis": "z"
      },
      "Name": "minecraft:spruce_log"
    },
    "x": -1,
    "y": 5,
    "z": 1
  },
  {
    "block": {
      "Properties": {
        "axis": "z"
      },
      "Name": "minecraft:spruce_log"
    },
    "x": 1,
    "y": 5,
    "z": 1
  },
  {
    "block": {
      "Properties": {
        "axis": "z"
      },
      "Name": "minecraft:spruce_log"
    },
    "x": 0,
    "y": 6,
    "z": 1
  },
  {
    "block": {
      "Name": "minecraft:cobblestone"
    },
    "x": -2,
    "y": -1,
    "z": 2
  },
  {
    "block": {
      "Name": "minecraft:cobblestone"
    },
    "x": -1,
    "y": -1,
    "z": 2
  },
  {
    "block": {
      "Name": "minecraft:cobblestone"
    },
    "x": 0,
    "y": -1,
    "z": 2
  },
  {
    "block": {
      "Name": "minecraft:cobblestone"
    },
    "x": 1,
    "y": -1,
    "z": 2
  },
  {
    "block": {
      "Name": "minecraft:cobblestone"
    },
    "x": 2,
    "y": -1,
    "z": 2
  },
  {
    "block": {
      "Name": "minecraft:cobblestone"
    },
    "x": -2,
    "y": 0,
    "z": 2
  },
  {
    "block": {
      "Properties": {
        "west": "true",
        "waterlogged": "false",
        "south": "false",
        "north": "false",
        "east": "true"
      },
      "Name": "minecraft:glass_pane"
    },
    "x": -1,
    "y": 0,
    "z": 2
  },
  {
    "block": {
      "Name": "minecraft:cobblestone"
    },
    "x": 0,
    "y": 0,
    "z": 2
  },
  {
    "block": {
      "Properties": {
        "west": "true",
        "waterlogged": "false",
        "south": "false",
        "north": "false",
        "east": "true"
      },
      "Name": "minecraft:glass_pane"
    },
    "x": 1,
    "y": 0,
    "z": 2
  },
  {
    "block": {
      "Name": "minecraft:cobblestone"
    },
    "x": 2,
    "y": 0,
    "z": 2
  },
  {
    "block": {
      "Name": "minecraft:cobblestone"
    },
    "x": -2,
    "y": 1,
    "z": 2
  },
  {
    "block": {
      "Name": "minecraft:cobblestone"
    },
    "x": -1,
    "y": 1,
    "z": 2
  },
  {
    "block": {
      "Name": "minecraft:cobblestone"
    },
    "x": 0,
    "y": 1,
    "z": 2
  },
  {
    "block": {
      "Name": "minecraft:cobblestone"
    },
    "x": 1,
    "y": 1,
    "z": 2
  },
  {
    "block": {
      "Name": "minecraft:cobblestone"
    },
    "x": 2,
    "y": 1,
    "z": 2
  },
  {
    "block": {
      "Name": "minecraft:spruce_planks"
    },
    "x": -2,
    "y": 2,
    "z": 2
  },
  {
    "block": {
      "Name": "minecraft:spruce_planks"
    },
    "x": -1,
    "y": 2,
    "z": 2
  },
  {
    "block": {
      "Name": "minecraft:spruce_planks"
    },
    "x": 0,
    "y": 2,
    "z": 2
  },
  {
    "block": {
      "Name": "minecraft:spruce_planks"
    },
    "x": 1,
    "y": 2,
    "z": 2
  },
  {
    "block": {
      "Name": "minecraft:spruce_planks"
    },
    "x": 2,
    "y": 2,
    "z": 2
  },
  {
    "block": {
      "Properties": {
        "axis": "z"
      },
      "Name": "minecraft:spruce_log"
    },
    "x": -3,
    "y": 3,
    "z": 2
  },
  {
    "block": {
      "Name": "minecraft:spruce_planks"
    },
    "x": -2,
    "y": 3,
    "z": 2
  },
  {
    "block": {
      "Properties": {
        "west": "true",
        "waterlogged": "false",
        "south": "false",
        "north": "false",
        "east": "true"
      },
      "Name": "minecraft:glass_pane"
    },
    "x": -1,
    "y": 3,
    "z": 2
  },
  {
    "block": {
      "Name": "minecraft:spruce_planks"
    },
    "x": 0,
    "y": 3,
    "z": 2
  },
  {
    "block": {
      "Properties": {
        "west": "true",
        "waterlogged": "false",
        "south": "false",
        "north": "false",
        "east": "true"
      },
      "Name": "minecraft:glass_pane"
    },
    "x": 1,
    "y": 3,
    "z": 2
  },
  {
    "block": {
      "Name": "minecraft:spruce_planks"
    },
    "x": 2,
    "y": 3,
    "z": 2
  },
  {
    "block": {
      "Properties": {
        "axis": "z"
      },
      "Name": "minecraft:spruce_log"
    },
    "x": 3,
    "y": 3,
    "z": 2
  },
  {
    "block": {
      "Properties": {
        "axis": "z"
      },
      "Name": "minecraft:spruce_log"
    },
    "x": -2,
    "y": 4,
    "z": 2
  },
  {
    "block": {
      "Name": "minecraft:spruce_planks"
    },
    "x": -1,
    "y": 4,
    "z": 2
  },
  {
    "block": {
      "Name": "minecraft:spruce_planks"
    },
    "x": 0,
    "y": 4,
    "z": 2
  },
  {
    "block": {
      "Name": "minecraft:spruce_planks"
    },
    "x": 1,
    "y": 4,
    "z": 2
  },
  {
    "block": {
      "Properties": {
        "axis": "z"
      },
      "Name": "minecraft:spruce_log"
    },
    "x": 2,
    "y": 4,
    "z": 2
  },
  {
    "block": {
      "Properties": {
        "axis": "z"
      },
      "Name": "minecraft:spruce_log"
    },
    "x": -1,
    "y": 5,
    "z": 2
  },
  {
    "block": {
      "Name": "minecraft:spruce_planks"
    },
    "x": 0,
    "y": 5,
    "z": 2
  },
  {
    "block": {
      "Properties": {
        "axis": "z"
      },
      "Name": "minecraft:spruce_log"
    },
    "x": 1,
    "y": 5,
    "z": 2
  },
  {
    "block": {
      "Properties": {
        "axis": "z"
      },
      "Name": "minecraft:spruce_log"
    },
    "x": 0,
    "y": 6,
    "z": 2
  },
  {
    "block": {
      "Properties": {
        "waterlogged": "false",
        "powered": "false",
        "open": "true",
        "half": "top",
        "facing": "south"
      },
      "Name": "minecraft:spruce_trapdoor"
    },
    "x": -2,
    "y": 0,
    "z": 3
  },
  {
    "block": {
      "Properties": {
        "waterlogged": "false",
        "powered": "false",
        "open": "true",
        "half": "top",
        "facing": "south"
      },
      "Name": "minecraft:spruce_trapdoor"
    },
    "x": 0,
    "y": 0,
    "z": 3
  },
  {
    "block": {
      "Properties": {
        "waterlogged": "false",
        "powered": "false",
        "open": "true",
        "half": "top",
        "facing": "south"
      },
      "Name": "minecraft:spruce_trapdoor"
    },
    "x": 2,
    "y": 0,
    "z": 3
  },
  {
    "block": {
      "Properties": {
        "axis": "z"
      },
      "Name": "minecraft:spruce_log"
    },
    "x": -3,
    "y": 3,
    "z": 3
  },
  {
    "block": {
      "Properties": {
        "waterlogged": "false",
        "powered": "false",
        "open": "true",
        "half": "top",
        "facing": "south"
      },
      "Name": "minecraft:spruce_trapdoor"
    },
    "x": -2,
    "y": 3,
    "z": 3
  },
  {
    "block": {
      "Properties": {
        "waterlogged": "false",
        "powered": "false",
        "open": "true",
        "half": "top",
        "facing": "south"
      },
      "Name": "minecraft:spruce_trapdoor"
    },
    "x": 0,
    "y": 3,
    "z": 3
  },
  {
    "block": {
      "Properties": {
        "waterlogged": "false",
        "powered": "false",
        "open": "true",
        "half": "top",
        "facing": "south"
      },
      "Name": "minecraft:spruce_trapdoor"
    },
    "x": 2,
    "y": 3,
    "z": 3
  },
  {
    "block": {
      "Properties": {
        "axis": "z"
      },
      "Name": "minecraft:spruce_log"
    },
    "x": 3,
    "y": 3,
    "z": 3
  },
  {
    "block": {
      "Properties": {
        "axis": "z"
      },
      "Name": "minecraft:spruce_log"
    },
    "x": -2,
    "y": 4,
    "z": 3
  },
  {
    "block": {
      "Properties": {
        "axis": "z"
      },
      "Name": "minecraft:spruce_log"
    },
    "x": 2,
    "y": 4,
    "z": 3
  },
  {
    "block": {
      "Properties": {
        "axis": "z"
      },
      "Name": "minecraft:spruce_log"
    },
    "x": -1,
    "y": 5,
    "z": 3
  },
  {
    "block": {
      "Properties": {
        "axis": "z"
      },
      "Name": "minecraft:spruce_log"
    },
    "x": 1,
    "y": 5,
    "z": 3
  },
  {
    "block": {
      "Properties": {
        "axis": "z"
      },
      "Name": "minecraft:spruce_log"
    },
    "x": 0,
    "y": 6,
    "z": 3
  }
]