[
  {
    "block": {
      "Properties": {
        "waterlogged": "false",
        "powered": "false",
        "open": "true",
        "half": "bottom",
        "facing": "north"
      },
      "Name": "minecraft:spruce_trapdoor"
    },
    "x": -4,
    "y": -1,
    "z": -4
  },
  {
    "block": {
      "Properties": {
        "waterlogged": "false",
        "powered": "false",
        "open": "true",
        "half": "bottom",
        "facing": "north"
      },
      "Name": "minecraft:spruce_trapdoor"
    },
    "x": -3,
    "y": -1,
    "z": -4
  },
  {
    "block": {
      "Properties": {
        "waterlogged": "false",
        "powered": "false",
        "open": "true",
        "half": "bottom",
        "facing": "north"
      },
      "Name": "minecraft:spruce_trapdoor"
    },
    "x": -2,
    "y": -1,
    "z": -4
  },
  {
    "block": {
      "Properties": {
        "west": "none",
        "waterlogged": "false",
        "up": "true",
        "south": "none",
        "north": "none",
        "east": "none"
      },
      "Name": "minecraft:cobblestone_wall"
    },
    "x": -1,
    "y": -1,
    "z": -4
  },
  {
    "block": {
      "Properties": {
        "west": "none",
        "waterlogged": "false",
        "up": "true",
        "south": "none",
        "north": "none",
        "east": "none"
      },
      "Name": "minecraft:cobblestone_wall"
    },
    "x": 1,
    "y": -1,
    "z": -4
  },
  {
    "block": {
      "Properties": {
        "waterlogged": "false",
        "powered": "false",
        "open": "true",
        "half": "bottom",
        "facing": "north"
      },
      "Name": "minecraft:spruce_trapdoor"
    },
    "x": 2,
    "y": -1,
    "z": -4
  },
  {
    "block": {
      "Properties": {
        "waterlogged": "false",
        "powered": "false",
        "open": "true",
        "half": "bottom",
        "facing": "north"
      },
      "Name": "minecraft:spruce_trapdoor"
    },
    "x": 3,
    "y": -1,
    "z": -4
  },
  {
    "block": {
      "Properties": {
        "waterlogged": "false",
        "powered": "false",
        "open": "true",
        "half": "bottom",
        "facing": "north"
      },
      "Name": "minecraft:spruce_trapdoor"
    },
    "x": 4,
    "y": -1,
    "z": -4
  },
  {
    "block": {
      "Name": "minecraft:torch"
    },
    "x": -1,
    "y": 0,
    "z": -4
  },
  {
    "block": {
      "Name": "minecraft:torch"
    },
    "x": 1,
    "y": 0,
    "z": -4
  },
  {
    "block": {
      "Properties": {
        "waterlogged": "false",
        "powered": "false",
        "open": "true",
        "half": "bottom",
        "facing": "north"
      },
      "Name": "minecraft:spruce_trapdoor"
    },
    "x": -1,
    "y": 2,
    "z": -4
  },
  {
    "block": {
      "Properties": {
        "waterlogged": "false",
        "powered": "false",
        "open": "true",
        "half": "bottom",
        "facing": "north"
      },
      "Name": "minecraft:spruce_trapdoor"
    },
    "x": 0,
    "y": 2,
    "z": -4
  },
  {
    "block": {
      "Properties": {
        "waterlogged": "false",
        "powered": "false",
        "open": "true",
        "half": "bottom",
        "facing": "north"
      },
      "Name": "minecraft:spruce_trapdoor"
    },
    "x": 1,
    "y": 2,
    "z": -4
  },
  {
    "block": {
      "Properties": {
        "waterlogged": "false",
        "powered": "false",
        "open": "true",
        "half": "bottom",
        "facing": "west"
      },
      "Name": "minecraft:spruce_trapdoor"
    },
    "x": -5,
    "y": -1,
    "z": -3
  },
  {
    "block": {
      "Properties": {
        "snowy": "false"
      },
      "Name": "minecraft:grass_block"
    },
    "x": -4,
    "y": -1,
    "z": -3
  },
  {
    "block": {
      "Properties": {
        "snowy": "false"
      },
      "Name": "minecraft:grass_block"
    },
    "x": -3,
    "y": -1,
    "z": -3
  },
  {
    "block": {
      "Properties": {
        "snowy": "false"
      },
      "Name": "minecraft:grass_block"
    },
    "x": -2,
    "y": -1,
    "z": -3
  },
  {
    "block": {
      "Properties": {
        "waterlogged": "false",
        "powered": "false",
        "open": "true",
        "half": "bottom",
        "facing": "east"
      },
      "Name": "minecraft:spruce_trapdoor"
    },
    "x": -1,
    "y": -1,
    "z": -3
  },
  {
    "block": {
      "Properties": {
        "waterlogged": "false",
        "powered": "false",
        "open": "true",
        "half": "bottom",
        "facing": "west"
      },
      "Name": "minecraft:spruce_trapdoor"
    },
    "x": 1,
    "y": -1,
    "z": -3
  },
  {
    "block": {
      "Properties": {
        "snowy": "false"
      },
      "Name": "minecraft:grass_block"
    },
    "x": 2,
    "y": -1,
    "z": -3
  },
  {
    "block": {
      "Properties": {
        "snowy": "false"
      },
      "Name": "minecraft:grass_block"
    },
    "x": 3,
    "y": -1,
    "z": -3
  },
  {
    "block": {
      "Properties": {
        "snowy": "false"
      },
      "Name": "minecraft:grass_block"
    },
    "x": 4,
    "y": -1,
    "z": -3
  },
  {
    "block": {
      "Properties": {
        "waterlogged": "false",
        "powered": "false",
        "open": "true",
        "half": "bottom",
        "facing": "east"
      },
      "Name": "minecraft:spruce_trapdoor"
    },
    "x": 5,
    "y": -1,
    "z": -3
  },
  {
    "block": {
      "Properties": {
        "half": "lower"
      },
      "Name": "minecraft:large_fern"
    },
    "x": -4,
    "y": 0,
    "z": -3
  },
  {
    "block": {
      "Properties": {
        "waterlogged": "false",
        "powered": "false",
        "open": "true",
        "half": "bottom",
        "facing": "north"
      },
      "Name": "minecraft:spruce_trapdoor"
    },
    "x": -3,
    "y": 0,
    "z": -3
  },
  {
    "block": {
      "Name": "minecraft:poppy"
    },
    "x": 2,
    "y": 0,
    "z": -3
  },
  {
    "block": {
      "Properties": {
        "waterlogged": "false",
        "powered": "false",
        "open": "true",
        "half": "bottom",
        "facing": "north"
      },
      "Name": "minecraft:spruce_trapdoor"
    },
    "x": 3,
    "y": 0,
    "z": -3
  },
  {
    "block": {
      "Properties": {
        "half": "lower"
      },
      "Name": "minecraft:large_fern"
    },
    "x": 4,
    "y": 0,
    "z": -3
  },
  {
    "block": {
      "Properties": {
        "half": "upper"
      },
      "Name": "minecraft:large_fern"
    },
    "x": -4,
    "y": 1,
    "z": -3
  },
  {
    "block": {
      "Properties": {
        "half": "upper"
      },
      "Name": "minecraft:large_fern"
    },
    "x": 4,
    "y": 1,
    "z": -3
  },
  {
    "block": {
      "Properties": {
        "axis": "z"
      },
      "Name": "minecraft:spruce_log"
    },
    "x": -5,
    "y": 2,
    "z": -3
  },
  {
    "block": {
      "Properties": {
        "waterlogged": "false",
        "powered": "false",
        "open": "true",
        "half": "bottom",
        "facing": "west"
      },
      "Name": "minecraft:spruce_trapdoor"
    },
    "x": -2,
    "y": 2,
    "z": -3
  },
  {
    "block": {
      "Properties": {
        "snowy": "false"
      },
      "Name": "minecraft:grass_block"
    },
    "x": -1,
    "y": 2,
    "z": -3
  },
  {
    "block": {
      "Properties": {
        "snowy": "false"
      },
      "Name": "minecraft:grass_block"
    },
    "x": 0,
    "y": 2,
    "z": -3
  },
  {
    "block": {
      "Properties": {
        "snowy": "false"
      },
      "Name": "minecraft:grass_block"
    },
    "x": 1,
    "y": 2,
    "z": -3
  },
  {
    "block": {
      "Properties": {
        "waterlogged": "false",
        "powered": "false",
        "open": "true",
        "half": "bottom",
        "facing": "east"
      },
      "Name": "minecraft:spruce_trapdoor"
    },
    "x": 2,
    "y": 2,
    "z": -3
  },
  {
    "block": {
      "Properties": {
        "axis": "z"
      },
      "Name": "minecraft:spruce_log"
    },
    "x": 5,
    "y": 2,
    "z": -3
  },
  {
    "block": {
      "Properties": {
        "axis": "z"
      },
      "Name": "minecraft:spruce_log"
    },
    "x": -4,
    "y": 3,
    "z": -3
  },
  {
    "block": {
      "Properties": {
        "waterlogged": "false",
        "powered": "false",
        "open": "true",
        "half": "bottom",
        "facing": "north"
      },
      "Name": "minecraft:spruce_trapdoor"
    },
    "x": -2,
    "y": 3,
    "z": -3
  },
  {
    "block": {
      "Name": "minecraft:poppy"
    },
    "x": -1,
    "y": 3,
    "z": -3
  },
  {
    "block": {
      "Properties": {
        "waterlogged": "false",
        "powered": "false",
        "open": "true",
        "half": "bottom",
        "facing": "north"
      },
      "Name": "minecraft:spruce_trapdoor"
    },
    "x": 0,
    "y": 3,
    "z": -3
  },
  {
    "block": {
      "Properties": {
        "waterlogged": "false",
        "powered": "false",
        "open": "true",
        "half": "bottom",
        "facing": "north"
      },
      "Name": "minecraft:spruce_trapdoor"
    },
    "x": 2,
    "y": 3,
    "z": -3
  },
  {
    "block": {
      "Properties": {
        "axis": "z"
      },
      "Name": "minecraft:spruce_log"
    },
    "x": 4,
    "y": 3,
    "z": -3
  },
  {
    "block": {
      "Properties": {
        "axis": "z"
      },
      "Name": "minecraft:spruce_log"
    },
    "x": -3,
    "y": 4,
    "z": -3
  },
  {
    "block": {
      "Properties": {
        "axis": "z"
      },
      "Name": "minecraft:spruce_log"
    },
    "x": 3,
    "y": 4,
    "z": -3
  },
  {
    "block": {
      "Properties": {
        "axis": "z"
      },
      "Name": "minecraft:spruce_log"
    },
    "x": -2,
    "y": 5,
    "z": -3
  },
  {
    "block": {
      "Properties": {
        "facing": "north"
      },
      "Name": "minecraft:wall_torch"
    },
    "x": 0,
    "y": 5,
    "z": -3
  },
  {
    "block": {
      "Properties": {
        "axis": "z"
      },
      "Name": "minecraft:spruce_log"
    },
    "x": 2,
    "y": 5,
    "z": -3
  },
  {
    "block": {
      "Properties": {
        "axis": "z"
      },
      "Name": "minecraft:spruce_log"
    },
    "x": -1,
    "y": 6,
    "z": -3
  },
  {
    "block": {
      "Properties": {
        "axis": "z"
      },
      "Name": "minecraft:spruce_log"
    },
    "x": 1,
    "y": 6,
    "z": -3
  },
  {
    "block": {
      "Properties": {
        "axis": "z"
      },
      "Name": "minecraft:spruce_log"
    },
    "x": 0,
    "y": 7,
    "z": -3
  },
  {
    "block": {
      "Name": "minecraft:cobblestone"
    },
    "x": -4,
    "y": -1,
    "z": -2
  },
  {
    "block": {
      "Name": "minecraft:cobblestone"
    },
    "x": -3,
    "y": -1,
    "z": -2
  },
  {
    "block": {
      "Name": "minecraft:cobblestone"
    },
    "x": -2,
    "y": -1,
    "z": -2
  },
  {
    "block": {
      "Name": "minecraft:cobblestone"
    },
    "x": -1,
    "y": -1,
    "z": -2
  },
  {
    "block": {
      "Properties": {
        "powered": "false",
        "open": "false",
        "hinge": "right",
        "half": "lower",
        "facing": "south"
      },
      "Name": "minecraft:spruce_door"
    },
    "x": 0,
    "y": -1,
    "z": -2
  },
  {
    "block": {
      "Name": "minecraft:cobblestone"
    },
    "x": 1,
    "y": -1,
    "z": -2
  },
  {
    "block": {
      "Name": "minecraft:cobblestone"
    },
    "x": 2,
    "y": -1,
    "z": -2
  },
  {
    "block": {
      "Name": "minecraft:cobblestone"
    },
    "x": 3,
    "y": -1,
    "z": -2
  },
  {
    "block": {
      "Name": "minecraft:cobblestone"
    },
    "x": 4,
    "y": -1,
    "z": -2
  },
  {
    "block": {
      "Name": "minecraft:cobblestone"
    },
    "x": -4,
    "y": 0,
    "z": -2
  },
  {
    "block": {
      "Name": "minecraft:cobblestone"
    },
    "x": -3,
    "y": 0,
    "z": -2
  },
  {
    "block": {
      "Properties": {
        "west": "true",
        "waterlogged": "false",
        "south": "false",
        "north": "false",
        "east": "true"
      },
      "Name": "minecraft:glass_pane"
    },
    "x": -2,
    "y": 0,
    "z": -2
  },
  {
    "block": {
      "Name": "minecraft:cobblestone"
    },
    "x": -1,
    "y": 0,
    "z": -2
  },
  {
    "block": {
      "Properties": {
        "powered": "false",
        "open": "false",
        "hinge": "right",
        "half": "upper",
        "facing": "south"
      },
      "Name": "minecraft:spruce_door"
    },
    "x": 0,
    "y": 0,
    "z": -2
  },
  {
    "block": {
      "Name": "minecraft:cobblestone"
    },
    "x": 1,
    "y": 0,
    "z": -2
  },
  {
    "block": {
      "Properties": {
        "west": "true",
        "waterlogged": "false",
        "south": "false",
        "north": "false",
        "east": "true"
      },
      "Name": "minecraft:glass_pane"
    },
    "x": 2,
    "y": 0,
    "z": -2
  },
  {
    "block": {
      "Name": "minecraft:cobblestone"
    },
    "x": 3,
    "y": 0,
    "z": -2
  },
  {
    "block": {
      "Name": "minecraft:cobblestone"
    },
    "x": 4,
    "y": 0,
    "z": -2
  },
  {
    "block": {
      "Name": "minecraft:cobblestone"
    },
    "x": -4,
    "y": 1,
    "z": -2
  },
  {
    "block": {
      "Name": "minecraft:cobblestone"
    },
    "x": -3,
    "y": 1,
    "z": -2
  },
  {
    "block": {
      "Name": "minecraft:cobblestone"
    },
    "x": -2,
    "y": 1,
    "z": -2
  },
  {
    "block": {
      "Name": "minecraft:cobblestone"
    },
    "x": -1,
    "y": 1,
    "z": -2
  },
  {
    "block": {
      "Name": "minecraft:cobblestone"
    },
    "x": 0,
    "y": 1,
    "z": -2
  },
  {
    "block": {
      "Name": "minecraft:cobblestone"
    },
    "x": 1,
    "y": 1,
    "z": -2
  },
  {
    "block": {
      "Name": "minecraft:cobblestone"
    },
    "x": 2,
    "y": 1,
    "z": -2
  },
  {
    "block": {
      "Name": "minecraft:cobblestone"
    },
    "x": 3,
    "y": 1,
    "z": -2
  },
  {
    "block": {
      "Name": "minecraft:cobblestone"
    },
    "x": 4,
    "y": 1,
    "z": -2
  },
  {
    "block": {
      "Properties": {
        "axis": "z"
      },
      "Name": "minecraft:spruce_log"
    },
    "x": -5,
    "y": 2,
    "z": -2
  },
  {
    "block": {
      "Name": "minecraft:cobblestone"
    },
    "x": -4,
    "y": 2,
    "z": -2
  },
  {
    "block": {
      "Name": "minecraft:cobblestone"
    },
    "x": -3,
    "y": 2,
    "z": -2
  },
  {
    "block": {
      "Name": "minecraft:cobblestone"
    },
    "x": -2,
    "y": 2,
    "z": -2
  },
  {
    "block": {
      "Name": "minecraft:cobblestone"
    },
    "x": -1,
    "y": 2,
    "z": -2
  },
  {
    "block": {
      "Name": "minecraft:cobblestone"
    },
    "x": 0,
    "y": 2,
    "z": -2
  },
  {
    "block": {
      "Name": "minecraft:cobblestone"
    },
    "x": 1,
    "y": 2,
    "z": -2
  },
  {
    "block": {
      "Name": "minecraft:cobblestone"
    },
    "x": 2,
    "y": 2,
    "z": -2
  },
  {
    "block": {
      "Name": "minecraft:cobblestone"
    },
    "x": 3,
    "y": 2,
    "z": -2
  },
  {
    "block": {
      "Name": "minecraft:cobblestone"
    },
    "x": 4,
    "y": 2,
    "z": -2
  },
  {
    "block": {
      "Properties": {
        "axis": "z"
      },
      "Name": "minecraft:spruce_log"
    },
    "x": 5,
    "y": 2,
    "z": -2
  },
  {
    "block": {
      "Properties": {
        "axis": "z"
      },
      "Name": "minecraft:spruce_log"
    },
    "x": -4,
    "y": 3,
    "z": -2
  },
  {
    "block": {
      "Name": "minecraft:cobblestone"
    },
    "x": -3,
    "y": 3,
    "z": -2
  },
  {
    "block": {
      "Name": "minecraft:cobblestone"
    },
    "x": -2,
    "y": 3,
    "z": -2
  },
  {
    "block": {
      "Properties": {
        "west": "true",
        "waterlogged": "false",
        "south": "false",
        "north": "false",
        "east": "true"
      },
      "Name": "minecraft:glass_pane"
    },
    "x": -1,
    "y": 3,
    "z": -2
  },
  {
    "block": {
      "Name": "minecraft:cobblestone"
    },
    "x": 0,
    "y": 3,
    "z": -2
  },
  {
    "block": {
      "Properties": {
        "west": "true",
        "waterlogged": "false",
        "south": "false",
        "north": "false",
        "east": "true"
      },
      "Name": "minecraft:glass_pane"
    },
    "x": 1,
    "y": 3,
    "z": -2
  },
  {
    "block": {
      "Name": "minecraft:cobblestone"
    },
    "x": 2,
    "y": 3,
    "z": -2
  },
  {
    "block": {
      "Name": "minecraft:cobblestone"
    },
    "x": 3,
    "y": 3,
    "z": -2
  },
  {
    "block": {
      "Properties": {
        "axis": "z"
      },
      "Name": "minecraft:spruce_log"
    },
    "x": 4,
    "y": 3,
    "z": -2
  },
  {
    "block": {
      "Properties": {
        "axis": "z"
      },
      "Name": "minecraft:spruce_log"
    },
    "x": -3,
    "y": 4,
    "z": -2
  },
  {
    "block": {
      "Name": "minecraft:cobblestone"
    },
    "x": -2,
    "y": 4,
    "z": -2
  },
  {
    "block": {
      "Name": "minecraft:cobblestone"
    },
    "x": -1,
    "y": 4,
    "z": -2
  },
  {
    "block": {
      "Name": "minecraft:cobblestone"
    },
    "x": 0,
    "y": 4,
    "z": -2
  },
  {
    "block": {
      "Name": "minecraft:cobblestone"
    },
    "x": 1,
    "y": 4,
    "z": -2
  },
  {
    "block": {
      "Name": "minecraft:cobblestone"
    },
    "x": 2,
    "y": 4,
    "z": -2
  },
  {
    "block": {
      "Properties": {
        "axis": "z"
      },
      "Name": "minecraft:spruce_log"
    },
    "x": 3,
    "y": 4,
    "z": -2
  },
  {
    "block": {
      "Properties": {
        "axis": "z"
      },
      "Name": "minecraft:spruce_log"
    },
    "x": -2,
    "y": 5,
    "z": -2
  },
  {
    "block": {
      "Name": "minecraft:cobblestone"
    },
    "x": -1,
    "y": 5,
    "z": -2
  },
  {
    "block": {
      "Name": "minecraft:cobblestone"
    },
    "x": 0,
    "y": 5,
    "z": -2
  },
  {
    "block": {
      "Name": "minecraft:cobblestone"
    },
    "x": 1,
    "y": 5,
    "z": -2
  },
  {
    "block": {
      "Properties": {
        "axis": "z"
      },
      "Name": "minecraft:spruce_log"
    },
    "x": 2,
    "y": 5,
    "z": -2
  },
  {
    "block": {
      "Properties": {
        "axis": "z"
      },
      "Name": "minecraft:spruce_log"
    },
    "x": -1,
    "y": 6,
    "z": -2
  },
  {
    "block": {
      "Name": "minecraft:cobblestone"
    },
    "x": 0,
    "y": 6,
    "z": -2
  },
  {
    "block": {
      "Properties": {
        "axis": "z"
      },
      "Name": "minecraft:spruce_log"
    },
    "x": 1,
    "y": 6,
    "z": -2
  },
  {
    "block": {
      "Properties": {
        "axis": "z"
      },
      "Name": "minecraft:spruce_log"
    },
    "x": 0,
    "y": 7,
    "z": -2
  },
  {
    "block": {
      "Name": "minecraft:cobblestone"
    },
    "x": -4,
    "y": -1,
    "z": -1
  },
  {
    "block": {
      "Name": "minecraft:red_carpet"
    },
    "x": 2,
    "y": -1,
    "z": -1
  },
  {
    "block": {
      "Properties": {
        "waterlogged": "false",
        "shape": "straight",
        "half": "bottom",
        "facing": "east"
      },
      "Name": "minecraft:spruce_stairs"
    },
    "x": 3,
    "y": -1,
    "z": -1
  },
  {
    "block": {
      "Name": "minecraft:cobblestone"
    },
    "x": 4,
    "y": -1,
    "z": -1
  },
  {
    "block": {
      "Name": "minecraft:cobblestone"
    },
    "x": -4,
    "y": 0,
    "z": -1
  },
  {
    "block": {
      "Properties": {
        "facing": "south"
      },
      "Name": "minecraft:wall_torch"
    },
    "x": 1,
    "y": 0,
    "z": -1
  },
  {
    "block": {
      "Name": "minecraft:cobblestone"
    },
    "x": 4,
    "y": 0,
    "z": -1
  },
  {
    "block": {
      "Name": "minecraft:cobblestone"
    },
    "x": -4,
    "y": 1,
    "z": -1
  },
  {
    "block": {
      "Name": "minecraft:cobblestone"
    },
    "x": -3,
    "y": 1,
    "z": -1
  },
  {
    "block": {
      "Name": "minecraft:cobblestone"
    },
    "x": -2,
    "y": 1,
    "z": -1
  },
  {
    "block": {
      "Name": "minecraft:cobblestone"
    },
    "x": -1,
    "y": 1,
    "z": -1
  },
  {
    "block": {
      "Name": "minecraft:cobblestone"
    },
    "x": 0,
    "y": 1,
    "z": -1
  },
  {
    "block": {
      "Name": "minecraft:cobblestone"
    },
    "x": 1,
    "y": 1,
    "z": -1
  },
  {
    "block": {
      "Name": "minecraft:cobblestone"
    },
    "x": 2,
    "y": 1,
    "z": -1
  },
  {
    "block": {
      "Name": "minecraft:cobblestone"
    },
    "x": 3,
    "y": 1,
    "z": -1
  },
  {
    "block": {
      "Name": "minecraft:cobblestone"
    },
    "x": 4,
    "y": 1,
    "z": -1
  },
  {
    "block": {
      "Properties": {
        "axis": "z"
      },
      "Name": "minecraft:spruce_log"
    },
    "x": -5,
    "y": 2,
    "z": -1
  },
  {
    "block": {
      "Name": "minecraft:cobblestone"
    },
    "x": -4,
    "y": 2,
    "z": -1
  },
  {
    "block": {
      "Name": "minecraft:purple_carpet"
    },
    "x": 1,
    "y": 2,
    "z": -1
  },
  {
    "block": {
      "Name": "minecraft:purple_carpet"
    },
    "x": 2,
    "y": 2,
    "z": -1
  },
  {
    "block": {
      "Name": "minecraft:bookshelf"
    },
    "x": 3,
    "y": 2,
    "z": -1
  },
  {
    "block": {
      "Name": "minecraft:cobblestone"
    },
    "x": 4,
    "y": 2,
    "z": -1
  },
  {
    "block": {
      "Properties": {
        "axis": "z"
      },
      "Name": "minecraft:spruce_log"
    },
    "x": 5,
    "y": 2,
    "z": -1
  },
  {
    "block": {
      "Properties": {
        "axis": "z"
      },
      "Name": "minecraft:spruce_log"
    },
    "x": -4,
    "y": 3,
    "z": -1
  },
  {
    "block": {
      "Name": "minecraft:bookshelf"
    },
    "x": 3,
    "y": 3,
    "z": -1
  },
  {
    "block": {
      "Properties": {
        "axis": "z"
      },
      "Name": "minecraft:spruce_log"
    },
    "x": 4,
    "y": 3,
    "z": -1
  },
  {
    "block": {
      "Properties": {
        "axis": "z"
      },
      "Name": "minecraft:spruce_log"
    },
    "x": -3,
    "y": 4,
    "z": -1
  },
  {
    "block": {
      "Properties": {
        "axis": "z"
      },
      "Name": "minecraft:spruce_log"
    },
    "x": 3,
    "y": 4,
    "z": -1
  },
  {
    "block": {
      "Properties": {
        "axis": "z"
      },
      "Name": "minecraft:spruce_log"
    },
    "x": -2,
    "y": 5,
    "z": -1
  },
  {
    "block": {
      "Properties": {
        "facing": "south"
      },
      "Name": "minecraft:wall_torch"
    },
    "x": 0,
    "y": 5,
    "z": -1
  },
  {
    "block": {
      "Properties": {
        "axis": "z"
      },
      "Name": "minecraft:spruce_log"
    },
    "x": 2,
    "y": 5,
    "z": -1
  },
  {
    "block": {
      "Properties": {
        "axis": "z"
      },
      "Name": "minecraft:spruce_log"
    },
    "x": -1,
    "y": 6,
    "z": -1
  },
  {
    "block": {
      "Properties": {
        "axis": "z"
      },
      "Name": "minecraft:spruce_log"
    },
    "x": 1,
    "y": 6,
    "z": -1
  },
  {
    "block": {
      "Properties": {
        "axis": "z"
      },
      "Name": "minecraft:spruce_log"
    },
    "x": 0,
    "y": 7,
    "z": -1
  },
  {
    "block": {
      "Name": "minecraft:cobblestone"
    },
    "x": -4,
    "y": -1,
    "z": 0
  },
  {
    "block": {
      "Properties": {
        "waterlogged": "false",
        "shape": "straight",
        "half": "bottom",
        "facing": "east"
      },
      "Name": "minecraft:cobblestone_stairs"
    },
    "x": -2,
    "y": -1,
    "z": 0
  },
  {
    "block": {
      "Name": "minecraft:cobblestone"
    },
    "x": -1,
    "y": -1,
    "z": 0
  },
  {
    "block": {
      "Name": "minecraft:red_carpet"
    },
    "x": 2,
    "y": -1,
    "z": 0
  },
  {
    "block": {
      "Properties": {
        "waterlogged": "false",
        "shape": "straight",
        "half": "bottom",
        "facing": "east"
      },
      "Name": "minecraft:spruce_stairs"
    },
    "x": 3,
    "y": -1,
    "z": 0
  },
  {
    "block": {
      "Name": "minecraft:cobblestone"
    },
    "x": 4,
    "y": -1,
    "z": 0
  },
  {
    "block": {
      "Properties": {
        "west": "false",
        "waterlogged": "false",
        "south": "true",
        "north": "true",
        "east": "false"
      },
      "Name": "minecraft:glass_pane"
    },
    "x": -4,
    "y": 0,
    "z": 0
  },
  {
    "block": {
      "Properties": {
        "waterlogged": "false",
        "shape": "straight",
        "half": "bottom",
        "facing": "east"
      },
      "Name": "minecraft:cobblestone_stairs"
    },
    "x": -1,
    "y": 0,
    "z": 0
  },
  {
    "block": {
      "Properties": {
        "west": "false",
        "waterlogged": "false",
        "south": "true",
        "north": "true",
        "east": "false"
      },
      "Name": "minecraft:glass_pane"
    },
    "x": 4,
    "y": 0,
    "z": 0
  },
  {
    "block": {
      "Name": "minecraft:cobblestone"
    },
    "x": -4,
    "y": 1,
    "z": 0
  },
  {
    "block": {
      "Properties": {
        "waterlogged": "false",
        "shape": "straight",
        "half": "bottom",
        "facing": "east"
      },
      "Name": "minecraft:cobblestone_stairs"
    },
    "x": 0,
    "y": 1,
    "z": 0
  },
  {
    "block": {
      "Name": "minecraft:cobblestone"
    },
    "x": 1,
    "y": 1,
    "z": 0
  },
  {
    "block": {
      "Name": "minecraft:cobblestone"
    },
    "x": 2,
    "y": 1,
    "z": 0
  },
  {
    "block": {
      "Name": "minecraft:cobblestone"
    },
    "x": 3,
    "y": 1,
    "z": 0
  },
  {
    "block": {
      "Name": "minecraft:cobblestone"
    },
    "x": 4,
    "y": 1,
    "z": 0
  },
  {
    "block": {
      "Properties": {
        "axis": "z"
      },
      "Name": "minecraft:spruce_log"
    },
    "x": -5,
    "y": 2,
    "z": 0
  },
  {
    "block": {
      "Name": "minecraft:cobblestone"
    },
    "x": -4,
    "y": 2,
    "z": 0
  },
  {
    "block": {
      "Name": "minecraft:purple_carpet"
    },
    "x": 1,
    "y": 2,
    "z": 0
  },
  {
    "block": {
      "Name": "minecraft:purple_carpet"
    },
    "x": 2,
    "y": 2,
    "z": 0
  },
  {
    "block": {
      "Name": "minecraft:bookshelf"
    },
    "x": 3,
    "y": 2,
    "z": 0
  },
  {
    "block": {
      "Name": "minecraft:cobblestone"
    },
    "x": 4,
    "y": 2,
    "z": 0
  },
  {
    "block": {
      "Properties": {
        "axis": "z"
      },
      "Name": "minecraft:spruce_log"
    },
    "x": 5,
    "y": 2,
    "z": 0
  },
  {
    "block": {
      "Properties": {
        "axis": "z"
      },
      "Name": "minecraft:spruce_log"
    },
    "x": -4,
    "y": 3,
    "z": 0
  },
  {
    "block": {
      "Name": "minecraft:bookshelf"
    },
    "x": 3,
    "y": 3,
    "z": 0
  },
  {
    "block": {
      "Properties": {
        "axis": "z"
      },
      "Name": "minecraft:spruce_log"
    },
    "x": 4,
    "y": 3,
    "z": 0
  },
  {
    "block": {
      "Properties": {
        "axis": "z"
      },
      "Name": "minecraft:spruce_log"
    },
    "x": -3,
    "y": 4,
    "z": 0
  },
  {
    "block": {
      "Properties": {
        "facing": "east"
      },
      "Name": "minecraft:wall_torch"
    },
    "x": -2,
    "y": 4,
    "z": 0
  },
  {
    "block": {
      "Properties": {
        "facing": "west"
      },
      "Name": "minecraft:wall_torch"
    },
    "x": 2,
    "y": 4,
    "z": 0
  },
  {
    "block": {
      "Properties": {
        "axis": "z"
      },
      "Name": "minecraft:spruce_log"
    },
    "x": 3,
    "y": 4,
    "z": 0
  },
  {
    "block": {
      "Properties": {
        "axis": "z"
      },
      "Name": "minecraft:spruce_log"
    },
    "x": -2,
    "y": 5,
    "z": 0
  },
  {
    "block": {
      "Properties": {
        "axis": "z"
      },
      "Name": "minecraft:spruce_log"
    },
    "x": 2,
    "y": 5,
    "z": 0
  },
  {
    "block": {
      "Properties": {
        "axis": "z"
      },
      "Name": "minecraft:spruce_log"
    },
    "x": -1,
    "y": 6,
    "z": 0
  },
  {
    "block": {
      "Properties": {
        "axis": "z"
      },
      "Name": "minecraft:spruce_log"
    },
    "x": 1,
    "y": 6,
    "z": 0
  },
  {
    "block": {
      "Properties": {
        "axis": "z"
      },
      "Name": "minecraft:spruce_log"
    },
    "x": 0,
    "y": 7,
    "z": 0
  },
  {
    "block": {
      "Name": "minecraft:cobblestone"
    },
    "x": -4,
    "y": -1,
    "z": 1
  },
  {
    "block": {
      "Name": "minecraft:red_carpet"
    },
    "x": 2,
    "y": -1,
    "z": 1
  },
  {
    "block": {
      "Properties": {
        "powered": "false",
        "has_book": "false",
        "facing": "west"
      },
      "Name": "minecraft:lectern"
    },
    "x": 3,
    "y": -1,
    "z": 1
  },
  {
    "block": {
      "Name": "minecraft:cobblestone"
    },
    "x": 4,
    "y": -1,
    "z": 1
  },
  {
    "block": {
      "Name": "minecraft:cobblestone"
    },
    "x": -4,
    "y": 0,
    "z": 1
  },
  {
    "block": {
      "Properties": {
        "facing": "north"
      },
      "Name": "minecraft:wall_torch"
    },
    "x": -3,
    "y": 0,
    "z": 1
  },
  {
    "block": {
      "Properties": {
        "facing": "north"
      },
      "Name": "minecraft:wall_torch"
    },
    "x": 1,
    "y": 0,
    "z": 1
  },
  {
    "block": {
      "Name": "minecraft:cobblestone"
    },
    "x": 4,
    "y": 0,
    "z": 1
  },
  {
    "block": {
      "Name": "minecraft:cobblestone"
    },
    "x": -4,
    "y": 1,
    "z": 1
  },
  {
    "block": {
      "Name": "minecraft:cobblestone"
    },
    "x": -3,
    "y": 1,
    "z": 1
  },
  {
    "block": {
      "Name": "minecraft:cobblestone"
    },
    "x": -2,
    "y": 1,
    "z": 1
  },
  {
    "block": {
      "Name": "minecraft:cobblestone"
    },
    "x": -1,
    "y": 1,
    "z": 1
  },
  {
    "block": {
      "Name": "minecraft:cobblestone"
    },
    "x": 0,
    "y": 1,
    "z": 1
  },
  {
    "block": {
      "Name": "minecraft:cobblestone"
    },
    "x": 1,
    "y": 1,
    "z": 1
  },
  {
    "block": {
      "Name": "minecraft:cobblestone"
    },
    "x": 2,
    "y": 1,
    "z": 1
  },
  {
    "block": {
      "Name": "minecraft:cobblestone"
    },
    "x": 3,
    "y": 1,
    "z": 1
  },
  {
    "block": {
      "Name": "minecraft:cobblestone"
    },
    "x": 4,
    "y": 1,
    "z": 1
  },
  {
    "block": {
      "Properties": {
        "axis": "z"
      },
      "Name": "minecraft:spruce_log"
    },
    "x": -5,
    "y": 2,
    "z": 1
  },
  {
    "block": {
      "Name": "minecraft:cobblestone"
    },
    "x": -4,
    "y": 2,
    "z": 1
  },
  {
    "block": {
      "Name": "minecraft:purple_carpet"
    },
    "x": 1,
    "y": 2,
    "z": 1
  },
  {
    "block": {
      "Name": "minecraft:purple_carpet"
    },
    "x": 2,
    "y": 2,
    "z": 1
  },
  {
    "block": {
      "Name": "minecraft:bookshelf"
    },
    "x": 3,
    "y": 2,
    "z": 1
  },
  {
    "block": {
      "Name": "minecraft:cobblestone"
    },
    "x": 4,
    "y": 2,
    "z": 1
  },
  {
    "block": {
      "Properties": {
        "axis": "z"
      },
      "Name": "minecraft:spruce_log"
    },
    "x": 5,
    "y": 2,
    "z": 1
  },
  {
    "block": {
      "Properties": {
        "axis": "z"
      },
      "Name": "minecraft:spruce_log"
    },
    "x": -4,
    "y": 3,
    "z": 1
  },
  {
    "block": {
      "Name": "minecraft:bookshelf"
    },
    "x": 3,
    "y": 3,
    "z": 1
  },
  {
    "block": {
      "Properties": {
        "axis": "z"
      },
      "Name": "minecraft:spruce_log"
    },
    "x": 4,
    "y": 3,
    "z": 1
  },
  {
    "block": {
      "Properties": {
        "axis": "z"
      },
      "Name": "minecraft:spruce_log"
    },
    "x": -3,
    "y": 4,
    "z": 1
  },
  {
    "block": {
      "Properties": {
        "axis": "z"
      },
      "Name": "minecraft:spruce_log"
    },
    "x": 3,
    "y": 4,
    "z": 1
  },
  {
    "block": {
      "Properties": {
        "axis": "z"
      },
      "Name": "minecraft:spruce_log"
    },
    "x": -2,
    "y": 5,
    "z": 1
  },
  {
    "block": {
      "Properties": {
        "facing": "north"
      },
      "Name": "minecraft:wall_torch"
    },
    "x": 0,
    "y": 5,
    "z": 1
  },
  {
    "block": {
      "Properties": {
        "axis": "z"
      },
      "Name": "minecraft:spruce_log"
    },
    "x": 2,
    "y": 5,
    "z": 1
  },
  {
    "block": {
      "Properties": {
        "axis": "z"
      },
      "Name": "minecraft:spruce_log"
    },
    "x": -1,
    "y": 6,
    "z": 1
  },
  {
    "block": {
      "Properties": {
        "axis": "z"
      },
      "Name": "minecraft:spruce_log"
    },
    "x": 1,
    "y": 6,
    "z": 1
  },
  {
    "block": {
      "Properties": {
        "axis": "z"
      },
      "Name": "minecraft:spruce_log"
    },
    "x": 0,
    "y": 7,
    "z": 1
  },
  {
    "block": {
      "Name": "minecraft:cobblestone"
    },
    "x": -4,
    "y": -1,
    "z": 2
  },
  {
    "block": {
      "Name": "minecraft:cobblestone"
    },
    "x": -3,
    "y": -1,
    "z": 2
  },
  {
    "block": {
      "Name": "minecraft:cobblestone"
    },
    "x": -2,
    "y": -1,
    "z": 2
  },
  {
    "block": {
      "Name": "minecraft:cobblestone"
    },
    "x": -1,
    "y": -1,
    "z": 2
  },
  {
    "block": {
      "Name": "minecraft:cobblestone"
    },
    "x": 0,
    "y": -1,
    "z": 2
  },
  {
    "block": {
      "Name": "minecraft:cobblestone"
    },
    "x": 1,
    "y": -1,
    "z": 2
  },
  {
    "block": {
      "Name": "minecraft:cobblestone"
    },
    "x": 2,
    "y": -1,
    "z": 2
  },
  {
    "block": {
      "Name": "minecraft:cobblestone"
    },
    "x": 3,
    "y": -1,
    "z": 2
  },
  {
    "block": {
      "Name": "minecraft:cobblestone"
    },
    "x": 4,
    "y": -1,
    "z": 2
  },
  {
    "block": {
      "Name": "minecraft:cobblestone"
    },
    "x": -4,
    "y": 0,
    "z": 2
  },
  {
    "block": {
      "Name": "minecraft:cobblestone"
    },
    "x": -3,
    "y": 0,
    "z": 2
  },
  {
    "block": {
      "Properties": {
        "west": "true",
        "waterlogged": "false",
        "south": "false",
        "north": "false",
        "east": "true"
      },
      "Name": "minecraft:glass_pane"
    },
    "x": -2,
    "y": 0,
    "z": 2
  },
  {
    "block": {
      "Name": "minecraft:cobblestone"
    },
    "x": -1,
    "y": 0,
    "z": 2
  },
  {
    "block": {
      "Properties": {
        "west": "true",
        "waterlogged": "false",
        "south": "false",
        "north": "false",
        "east": "true"
      },
      "Name": "minecraft:glass_pane"
    },
    "x": 0,
    "y": 0,
    "z": 2
  },
  {
    "block": {
      "Name": "minecraft:cobblestone"
    },
    "x": 1,
    "y": 0,
    "z": 2
  },
  {
    "block": {
      "Properties": {
        "west": "true",
        "waterlogged": "false",
        "south": "false",
        "north": "false",
        "east": "true"
      },
      "Name": "minecraft:glass_pane"
    },
    "x": 2,
    "y": 0,
    "z": 2
  },
  {
    "block": {
      "Name": "minecraft:cobblestone"
    },
    "x": 3,
    "y": 0,
    "z": 2
  },
  {
    "block": {
      "Name": "minecraft:cobblestone"
    },
    "x": 4,
    "y": 0,
    "z": 2
  },
  {
    "block": {
      "Name": "minecraft:cobblestone"
    },
    "x": -4,
    "y": 1,
    "z": 2
  },
  {
    "block": {
      "Name": "minecraft:cobblestone"
    },
    "x": -3,
    "y": 1,
    "z": 2
  },
  {
    "block": {
      "Name": "minecraft:cobblestone"
    },
    "x": -2,
    "y": 1,
    "z": 2
  },
  {
    "block": {
      "Name": "minecraft:cobblestone"
    },
    "x": -1,
    "y": 1,
    "z": 2
  },
  {
    "block": {
      "Name": "minecraft:cobblestone"
    },
    "x": 0,
    "y": 1,
    "z": 2
  },
  {
    "block": {
      "Name": "minecraft:cobblestone"
    },
    "x": 1,
    "y": 1,
    "z": 2
  },
  {
    "block": {
      "Name": "minecraft:cobblestone"
    },
    "x": 2,
    "y": 1,
    "z": 2
  },
  {
    "block": {
      "Name": "minecraft:cobblestone"
    },
    "x": 3,
    "y": 1,
    "z": 2
  },
  {
    "block": {
      "Name": "minecraft:cobblestone"
    },
    "x": 4,
    "y": 1,
    "z": 2
  },
  {
    "block": {
      "Properties": {
        "axis": "z"
      },
      "Name": "minecraft:spruce_log"
    },
    "x": -5,
    "y": 2,
    "z": 2
  },
  {
    "block": {
      "Name": "minecraft:cobblestone"
    },
    "x": -4,
    "y": 2,
    "z": 2
  },
  {
    "block": {
      "Name": "minecraft:cobblestone"
    },
    "x": -3,
    "y": 2,
    "z": 2
  },
  {
    "block": {
      "Name": "minecraft:cobblestone"
    },
    "x": -2,
    "y": 2,
    "z": 2
  },
  {
    "block": {
      "Name": "minecraft:cobblestone"
    },
    "x": -1,
    "y": 2,
    "z": 2
  },
  {
    "block": {
      "Name": "minecraft:cobblestone"
    },
    "x": 0,
    "y": 2,
    "z": 2
  },
  {
    "block": {
      "Name": "minecraft:cobblestone"
    },
    "x": 1,
    "y": 2,
    "z": 2
  },
  {
    "block": {
      "Name": "minecraft:cobblestone"
    },
    "x": 2,
    "y": 2,
    "z": 2
  },
  {
    "block": {
      "Name": "minecraft:cobblestone"
    },
    "x": 3,
    "y": 2,
    "z": 2
  },
  {
    "block": {
      "Name": "minecraft:cobblestone"
    },
    "x": 4,
    "y": 2,
    "z": 2
  },
  {
    "block": {
      "Properties": {
        "axis": "z"
      },
      "Name": "minecraft:spruce_log"
    },
    "x": 5,
    "y": 2,
    "z": 2
  },
  {
    "block": {
      "Properties": {
        "axis": "z"
      },
      "Name": "minecraft:spruce_log"
    },
    "x": -4,
    "y": 3,
    "z": 2
  },
  {
    "block": {
      "Name": "minecraft:cobblestone"
    },
    "x": -3,
    "y": 3,
    "z": 2
  },
  {
    "block": {
      "Properties": {
        "west": "true",
        "waterlogged": "false",
        "south": "false",
        "north": "false",
        "east": "true"
      },
      "Name": "minecraft:glass_pane"
    },
    "x": -2,
    "y": 3,
    "z": 2
  },
  {
    "block": {
      "Name": "minecraft:cobblestone"
    },
    "x": -1,
    "y": 3,
    "z": 2
  },
  {
    "block": {
      "Properties": {
        "west": "true",
        "waterlogged": "false",
        "south": "false",
        "north": "false",
        "east": "true"
      },
      "Name": "minecraft:glass_pane"
    },
    "x": 0,
    "y": 3,
    "z": 2
  },
  {
    "block": {
      "Name": "minecraft:cobblestone"
    },
    "x": 1,
    "y": 3,
    "z": 2
  },
  {
    "block": {
      "Properties": {
        "west": "true",
        "waterlogged": "false",
        "south": "false",
        "north": "false",
        "east": "true"
      },
      "Name": "minecraft:glass_pane"
    },
    "x": 2,
    "y": 3,
    "z": 2
  },
  {
    "block": {
      "Name": "minecraft:cobblestone"
    },
    "x": 3,
    "y": 3,
    "z": 2
  },
  {
    "block": {
      "Properties": {
        "axis": "z"
      },
      "Name": "minecraft:spruce_log"
    },
    "x": 4,
    "y": 3,
    "z": 2
  },
  {
    "block": {
      "Properties": {
        "axis": "z"
      },
      "Name": "minecraft:spruce_log"
    },
    "x": -3,
    "y": 4,
    "z": 2
  },
  {
    "block": {
      "Name": "minecraft:cobblestone"
    },
    "x": -2,
    "y": 4,
    "z": 2
  },
  {
    "block": {
      "Name": "minecraft:cobblestone"
    },
    "x": -1,
    "y": 4,
    "z": 2
  },
  {
    "block": {
      "Name": "minecraft:cobblestone"
    },
    "x": 0,
    "y": 4,
    "z": 2
  },
  {
    "block": {
      "Name": "minecraft:cobblestone"
    },
    "x": 1,
    "y": 4,
    "z": 2
  },
  {
    "block": {
      "Name": "minecraft:cobblestone"
    },
    "x": 2,
    "y": 4,
    "z": 2
  },
  {
    "block": {
      "Properties": {
        "axis": "z"
      },
      "Name": "minecraft:spruce_log"
    },
    "x": 3,
    "y": 4,
    "z": 2
  },
  {
    "block": {
      "Properties": {
        "axis": "z"
      },
      "Name": "minecraft:spruce_log"
    },
    "x": -2,
    "y": 5,
    "z": 2
  },
  {
    "block": {
      "Name": "minecraft:cobblestone"
    },
    "x": -1,
    "y": 5,
    "z": 2
  },
  {
    "block": {
      "Name": "minecraft:cobblestone"
    },
    "x": 0,
    "y": 5,
    "z": 2
  },
  {
    "block": {
      "Name": "minecraft:cobblestone"
    },
    "x": 1,
    "y": 5,
    "z": 2
  },
  {
    "block": {
      "Properties": {
        "axis": "z"
      },
      "Name": "minecraft:spruce_log"
    },
    "x": 2,
    "y": 5,
    "z": 2
  },
  {
    "block": {
      "Properties": {
        "axis": "z"
      },
      "Name": "minecraft:spruce_log"
    },
    "x": -1,
    "y": 6,
    "z": 2
  },
  {
    "block": {
      "Name": "minecraft:cobblestone"
    },
    "x": 0,
    "y": 6,
    "z": 2
  },
  {
    "block": {
      "Properties": {
        "axis": "z"
      },
      "Name": "minecraft:spruce_log"
    },
    "x": 1,
    "y": 6,
    "z": 2
  },
  {
    "block": {
      "Properties": {
        "axis": "z"
      },
      "Name": "minecraft:spruce_log"
    },
    "x": 0,
    "y": 7,
    "z": 2
  },
  {
    "block": {
      "Name": "minecraft:fern"
    },
    "x": 3,
    "y": -1,
    "z": 3
  },
  {
    "block": {
      "Properties": {
        "axis": "z"
      },
      "Name": "minecraft:spruce_log"
    },
    "x": -5,
    "y": 2,
    "z": 3
  },
  {
    "block": {
      "Properties": {
        "axis": "z"
      },
      "Name": "minecraft:spruce_log"
    },
    "x": 5,
    "y": 2,
    "z": 3
  },
  {
    "block": {
      "Properties": {
        "axis": "z"
      },
      "Name": "minecraft:spruce_log"
    },
    "x": -4,
    "y": 3,
    "z": 3
  },
  {
    "block": {
      "Properties": {
        "axis": "z"
      },
      "Name": "minecraft:spruce_log"
    },
    "x": 4,
    "y": 3,
    "z": 3
  },
  {
    "block": {
      "Properties": {
        "axis": "z"
      },
      "Name": "minecraft:spruce_log"
    },
    "x": -3,
    "y": 4,
    "z": 3
  },
  {
    "block": {
      "Properties": {
        "axis": "z"
      },
      "Name": "minecraft:spruce_log"
    },
    "x": 3,
    "y": 4,
    "z": 3
  },
  {
    "block": {
      "Properties": {
        "axis": "z"
      },
      "Name": "minecraft:spruce_log"
    },
    "x": -2,
    "y": 5,
    "z": 3
  },
  {
    "block": {
      "Properties": {
        "facing": "south"
      },
      "Name": "minecraft:wall_torch"
    },
    "x": 0,
    "y": 5,
    "z": 3
  },
  {
    "block": {
      "Properties": {
        "axis": "z"
      },
      "Name": "minecraft:spruce_log"
    },
    "x": 2,
    "y": 5,
    "z": 3
  },
  {
    "block": {
      "Properties": {
        "axis": "z"
      },
      "Name": "minecraft:spruce_log"
    },
    "x": -1,
    "y": 6,
    "z": 3
  },
  {
    "block": {
      "Properties": {
        "axis": "z"
      },
      "Name": "minecraft:spruce_log"
    },
    "x": 1,
    "y": 6,
    "z": 3
  },
  {
    "block": {
      "Properties": {
        "axis": "z"
      },
      "Name": "minecraft:spruce_log"
    },
    "x": 0,
    "y": 7,
    "z": 3
  }
]