{
	"credit": "Made with Blockbench",
	"texture_size": [256, 256],
	"textures": {
		"0": "tardis:block/monitors/rca",
		"particle": "tardis:block/monitors/rca"
	},
	"elements": [
		{
			"from": [-1, 1, 1],
			"to": [17, 3, 16],
			"faces": {
				"north": {"uv": [2, 1.5, 3.125, 1.625], "texture": "#0"},
				"east": {"uv": [1.0625, 1.5, 2, 1.625], "texture": "#0"},
				"south": {"uv": [4.0625, 1.5, 5.1875, 1.625], "texture": "#0"},
				"west": {"uv": [3.125, 1.5, 4.0625, 1.625], "texture": "#0"},
				"up": {"uv": [3.125, 1.5, 2, 0.5625], "texture": "#0"},
				"down": {"uv": [4.25, 0.5625, 3.125, 1.5], "texture": "#0"}
			}
		},
		{
			"from": [-1.25, 3, 1.25],
			"to": [17.125, 6.5, 14.75],
			"faces": {
				"north": {"uv": [1.875, 1.375, 3, 1.5625], "texture": "#0"},
				"east": {"uv": [1.0625, 1.375, 1.875, 1.5625], "texture": "#0"},
				"south": {"uv": [3.8125, 1.375, 4.9375, 1.5625], "texture": "#0"},
				"west": {"uv": [3, 1.375, 3.8125, 1.5625], "texture": "#0"},
				"up": {"uv": [3, 1.375, 1.875, 0.5625], "texture": "#0"},
				"down": {"uv": [4.125, 0.5625, 3, 1.375], "texture": "#0"}
			}
		},
		{
			"from": [-1, 20.3125, 1],
			"to": [17, 22.8125, 16],
			"faces": {
				"north": {"uv": [2, 1.5, 3.125, 1.625], "texture": "#0"},
				"east": {"uv": [1.0625, 1.5, 2, 1.625], "texture": "#0"},
				"south": {"uv": [4.0625, 1.5, 5.1875, 1.625], "texture": "#0"},
				"west": {"uv": [3.125, 1.5, 4.0625, 1.625], "texture": "#0"},
				"up": {"uv": [3.125, 1.5, 2, 0.5625], "texture": "#0"},
				"down": {"uv": [4.25, 0.5625, 3.125, 1.5], "texture": "#0"}
			}
		},
		{
			"from": [12.34315, -6, 1.125],
			"to": [14.34315, -5, 15.875],
			"rotation": {"angle": 45, "axis": "z", "origin": [6.22183, 3.12132, 8]},
			"faces": {
				"north": {"uv": [1.9375, 1.4375, 2.0625, 1.5], "texture": "#0"},
				"east": {"uv": [1.0625, 1.4375, 1.9375, 1.5], "texture": "#0"},
				"south": {"uv": [2.9375, 1.4375, 3.0625, 1.5], "texture": "#0"},
				"west": {"uv": [2.0625, 1.4375, 2.9375, 1.5], "texture": "#0"},
				"up": {"uv": [2.0625, 1.4375, 1.9375, 0.5625], "texture": "#0"},
				"down": {"uv": [2.1875, 0.5625, 2.0625, 1.4375], "texture": "#0"}
			}
		},
		{
			"from": [22.14214, 5.27208, 1.125],
			"to": [23.14214, 7.27208, 15.875],
			"rotation": {"angle": 45, "axis": "z", "origin": [1.29289, 7.63604, 8]},
			"faces": {
				"north": {"uv": [1.9375, 1.4375, 2, 1.5625], "texture": "#0"},
				"east": {"uv": [1.0625, 1.4375, 1.9375, 1.5625], "texture": "#0"},
				"south": {"uv": [2.875, 1.4375, 2.9375, 1.5625], "texture": "#0"},
				"west": {"uv": [2, 1.4375, 2.875, 1.5625], "texture": "#0"},
				"up": {"uv": [2, 1.4375, 1.9375, 0.5625], "texture": "#0"},
				"down": {"uv": [2.0625, 0.5625, 2, 1.4375], "texture": "#0"}
			}
		},
		{
			"from": [-6.41421, 6.31371, 1.125],
			"to": [-5.41421, 8.31371, 15.875],
			"rotation": {"angle": 45, "axis": "z", "origin": [2.70711, 10.19239, 8]},
			"faces": {
				"north": {"uv": [1.9375, 1.4375, 2, 1.5625], "texture": "#0"},
				"east": {"uv": [1.0625, 1.4375, 1.9375, 1.5625], "texture": "#0"},
				"south": {"uv": [2.875, 1.4375, 2.9375, 1.5625], "texture": "#0"},
				"west": {"uv": [2, 1.4375, 2.875, 1.5625], "texture": "#0"},
				"up": {"uv": [2, 1.4375, 1.9375, 0.5625], "texture": "#0"},
				"down": {"uv": [2.0625, 0.5625, 2, 1.4375], "texture": "#0"}
			}
		},
		{
			"from": [-3.58579, 10.82843, 1.125],
			"to": [-2.58579, 12.82843, 15.875],
			"rotation": {"angle": -45, "axis": "z", "origin": [9.77817, 14.70711, 8]},
			"faces": {
				"north": {"uv": [1.9375, 1.4375, 2, 1.5625], "texture": "#0"},
				"east": {"uv": [1.0625, 1.4375, 1.9375, 1.5625], "texture": "#0"},
				"south": {"uv": [2.875, 1.4375, 2.9375, 1.5625], "texture": "#0"},
				"west": {"uv": [2, 1.4375, 2.875, 1.5625], "texture": "#0"},
				"up": {"uv": [2, 1.4375, 1.9375, 0.5625], "texture": "#0"},
				"down": {"uv": [2.0625, 0.5625, 2, 1.4375], "texture": "#0"}
			}
		},
		{
			"from": [17.00796, 2.41421, 1],
			"to": [18.41421, 21.41421, 16],
			"rotation": {"angle": 0, "axis": "y", "origin": [7.41421, 5.41421, 8]},
			"faces": {
				"north": {"uv": [1.1875, 2.875, 1.25, 4.0625], "texture": "#0"},
				"east": {"uv": [0.25, 2.875, 1.1875, 4.0625], "texture": "#0"},
				"south": {"uv": [2.1875, 2.875, 2.25, 4.0625], "texture": "#0"},
				"west": {"uv": [1.25, 2.875, 2.1875, 4.0625], "texture": "#0"},
				"up": {"uv": [1.25, 2.875, 1.1875, 1.9375], "texture": "#0"},
				"down": {"uv": [1.3125, 1.9375, 1.25, 2.875], "texture": "#0"}
			}
		},
		{
			"from": [-2.41421, 2.41421, 1],
			"to": [-1.00796, 21.41421, 16],
			"rotation": {"angle": 0, "axis": "y", "origin": [9.58579, 5.41421, 8]},
			"faces": {
				"north": {"uv": [4.9375, 3, 5, 4.1875], "texture": "#0"},
				"east": {"uv": [4, 3, 4.9375, 4.1875], "texture": "#0"},
				"south": {"uv": [5.9375, 3, 6, 4.1875], "texture": "#0"},
				"west": {"uv": [5, 3, 5.9375, 4.1875], "texture": "#0"},
				"up": {"uv": [5, 3, 4.9375, 2.0625], "texture": "#0"},
				"down": {"uv": [5.0625, 2.0625, 5, 3], "texture": "#0"}
			}
		},
		{
			"from": [-1.66421, 2.41421, 0.75],
			"to": [-1.41421, 21.41421, 1.25],
			"rotation": {"angle": 0, "axis": "y", "origin": [9.58579, 5.41421, 8]},
			"faces": {
				"north": {"uv": [2.25, 4.5625, 2.25, 5.75], "texture": "#0"},
				"east": {"uv": [2.25, 4.5625, 2.25, 5.75], "texture": "#0"},
				"south": {"uv": [2.25, 4.5625, 2.25, 5.75], "texture": "#0"},
				"west": {"uv": [2.25, 4.5625, 2.25, 5.75], "texture": "#0"},
				"up": {"uv": [2.25, 4.5625, 2.25, 4.5625], "texture": "#0"},
				"down": {"uv": [2.25, 4.5625, 2.25, 4.5625], "texture": "#0"}
			}
		},
		{
			"from": [17.33579, 2.41421, 0.75],
			"to": [17.58579, 21.41421, 1.25],
			"rotation": {"angle": 0, "axis": "y", "origin": [9.58579, 5.41421, 8]},
			"faces": {
				"north": {"uv": [0.5625, 4.5, 0.5625, 5.6875], "texture": "#0"},
				"east": {"uv": [0.5625, 4.5, 0.5625, 5.6875], "texture": "#0"},
				"south": {"uv": [0.5625, 4.5, 0.5625, 5.6875], "texture": "#0"},
				"west": {"uv": [0.5625, 4.5, 0.5625, 5.6875], "texture": "#0"},
				"up": {"uv": [0.5625, 4.5, 0.5625, 4.5], "texture": "#0"},
				"down": {"uv": [0.5625, 4.5, 0.5625, 4.5], "texture": "#0"}
			}
		},
		{
			"from": [-1.66421, 21.41421, 0.75],
			"to": [17.58579, 21.66421, 1.25],
			"rotation": {"angle": 0, "axis": "y", "origin": [9.58579, 5.41421, 8]},
			"faces": {
				"north": {"uv": [1.4375, 4.6875, 2.625, 4.6875], "texture": "#0"},
				"east": {"uv": [1.4375, 4.6875, 1.4375, 4.6875], "texture": "#0"},
				"south": {"uv": [2.625, 4.6875, 3.8125, 4.6875], "texture": "#0"},
				"west": {"uv": [2.625, 4.6875, 2.625, 4.6875], "texture": "#0"},
				"up": {"uv": [2.625, 4.6875, 1.4375, 4.6875], "texture": "#0"},
				"down": {"uv": [3.8125, 4.6875, 2.625, 4.6875], "texture": "#0"}
			}
		},
		{
			"from": [-1.66421, 2.16421, 0.75],
			"to": [17.58579, 2.41421, 1.25],
			"rotation": {"angle": 0, "axis": "y", "origin": [9.58579, 5.41421, 8]},
			"faces": {
				"north": {"uv": [1.8125, 5.125, 3, 5.125], "texture": "#0"},
				"east": {"uv": [1.8125, 5.125, 1.8125, 5.125], "texture": "#0"},
				"south": {"uv": [3, 5.125, 4.1875, 5.125], "texture": "#0"},
				"west": {"uv": [3, 5.125, 3, 5.125], "texture": "#0"},
				"up": {"uv": [3, 5.125, 1.8125, 5.125], "texture": "#0"},
				"down": {"uv": [4.1875, 5.125, 3, 5.125], "texture": "#0"}
			}
		},
		{
			"from": [3, 0, 2],
			"to": [5, 1, 4],
			"faces": {
				"north": {"uv": [7.5, 4.75, 7.625, 4.8125], "texture": "#0"},
				"east": {"uv": [7.375, 4.75, 7.5, 4.8125], "texture": "#0"},
				"south": {"uv": [7.75, 4.75, 7.875, 4.8125], "texture": "#0"},
				"west": {"uv": [7.625, 4.75, 7.75, 4.8125], "texture": "#0"},
				"up": {"uv": [7.625, 4.75, 7.5, 4.625], "texture": "#0"},
				"down": {"uv": [7.75, 4.625, 7.625, 4.75], "texture": "#0"}
			}
		},
		{
			"from": [11, 0, 2],
			"to": [13, 1, 4],
			"faces": {
				"north": {"uv": [7.5, 4.75, 7.625, 4.8125], "texture": "#0"},
				"east": {"uv": [7.375, 4.75, 7.5, 4.8125], "texture": "#0"},
				"south": {"uv": [7.75, 4.75, 7.875, 4.8125], "texture": "#0"},
				"west": {"uv": [7.625, 4.75, 7.75, 4.8125], "texture": "#0"},
				"up": {"uv": [7.625, 4.75, 7.5, 4.625], "texture": "#0"},
				"down": {"uv": [7.75, 4.625, 7.625, 4.75], "texture": "#0"}
			}
		},
		{
			"from": [7, 0, 12],
			"to": [9, 1, 14],
			"faces": {
				"north": {"uv": [7.5, 4.75, 7.625, 4.8125], "texture": "#0"},
				"east": {"uv": [7.375, 4.75, 7.5, 4.8125], "texture": "#0"},
				"south": {"uv": [7.75, 4.75, 7.875, 4.8125], "texture": "#0"},
				"west": {"uv": [7.625, 4.75, 7.75, 4.8125], "texture": "#0"},
				"up": {"uv": [7.625, 4.75, 7.5, 4.625], "texture": "#0"},
				"down": {"uv": [7.75, 4.625, 7.625, 4.75], "texture": "#0"}
			}
		},
		{
			"from": [0, 7, 2.5],
			"to": [16, 20, 3.5],
			"faces": {
				"north": {"uv": [6.75, 2.375, 7.75, 3.1875], "texture": "#0"},
				"east": {"uv": [6.6875, 2.375, 6.75, 3.1875], "texture": "#0"},
				"south": {"uv": [7.8125, 2.375, 8.8125, 3.1875], "texture": "#0"},
				"west": {"uv": [7.75, 2.375, 7.8125, 3.1875], "texture": "#0"},
				"up": {"uv": [7.75, 2.375, 6.75, 2.3125], "texture": "#0"},
				"down": {"uv": [8.75, 2.3125, 7.75, 2.375], "texture": "#0"}
			}
		},
		{
			"from": [-1, 3.72573, 3.2472],
			"to": [17, 5.72573, 4.2472],
			"rotation": {"angle": 22.5, "axis": "x", "origin": [8, 8.8996, 7.87132]},
			"faces": {
				"north": {"uv": [6.625, 0.9375, 7.75, 1.0625], "texture": "#0"},
				"east": {"uv": [6.5625, 0.9375, 6.625, 1.0625], "texture": "#0"},
				"south": {"uv": [7.8125, 0.9375, 8.9375, 1.0625], "texture": "#0"},
				"west": {"uv": [7.75, 0.9375, 7.8125, 1.0625], "texture": "#0"},
				"up": {"uv": [7.75, 0.9375, 6.625, 0.875], "texture": "#0"},
				"down": {"uv": [8.875, 0.875, 7.75, 0.9375], "texture": "#0"}
			}
		},
		{
			"from": [-1, 20.34983, 7.03741],
			"to": [17, 22.34983, 8.03741],
			"rotation": {"angle": -22.5, "axis": "x", "origin": [8, 8, 8]},
			"faces": {
				"north": {"uv": [6.625, 0.9375, 7.75, 1.0625], "texture": "#0"},
				"east": {"uv": [6.5625, 0.9375, 6.625, 1.0625], "texture": "#0"},
				"south": {"uv": [7.8125, 0.9375, 8.9375, 1.0625], "texture": "#0"},
				"west": {"uv": [7.75, 0.9375, 7.8125, 1.0625], "texture": "#0"},
				"up": {"uv": [7.75, 0.9375, 6.625, 0.875], "texture": "#0"},
				"down": {"uv": [8.875, 0.875, 7.75, 0.9375], "texture": "#0"}
			}
		},
		{
			"from": [-1.0391, 5.88914, 3.4946],
			"to": [0.9609, 20.88914, 4.4946],
			"rotation": {"angle": -22.5, "axis": "y", "origin": [3.69448, 11.63914, 2.6552]},
			"faces": {
				"north": {"uv": [8.25, 0.5625, 8.375, 1.5], "texture": "#0"},
				"east": {"uv": [8.1875, 0.5625, 8.25, 1.5], "texture": "#0"},
				"south": {"uv": [8.4375, 0.5625, 8.5625, 1.5], "texture": "#0"},
				"west": {"uv": [8.375, 0.5625, 8.4375, 1.5], "texture": "#0"},
				"up": {"uv": [8.375, 0.5625, 8.25, 0.5], "texture": "#0"},
				"down": {"uv": [8.5, 0.5, 8.375, 0.5625], "texture": "#0"}
			}
		},
		{
			"from": [19.47104, 5.88914, 8.172],
			"to": [21.47104, 20.88914, 9.172],
			"rotation": {"angle": 22.5, "axis": "y", "origin": [2.76404, 11.63914, 16.13433]},
			"faces": {
				"north": {"uv": [6.8125, 0.5, 6.9375, 1.4375], "texture": "#0"},
				"east": {"uv": [6.75, 0.5, 6.8125, 1.4375], "texture": "#0"},
				"south": {"uv": [7, 0.5, 7.125, 1.4375], "texture": "#0"},
				"west": {"uv": [6.9375, 0.5, 7, 1.4375], "texture": "#0"},
				"up": {"uv": [6.9375, 0.5, 6.8125, 0.4375], "texture": "#0"},
				"down": {"uv": [7.0625, 0.4375, 6.9375, 0.5], "texture": "#0"}
			}
		},
		{
			"from": [1, 4, 0.75],
			"to": [2, 5, 1.75],
			"faces": {
				"north": {"uv": [7.875, 4.5, 7.9375, 4.5625], "texture": "#0"},
				"east": {"uv": [7.8125, 4.5, 7.875, 4.5625], "texture": "#0"},
				"south": {"uv": [8, 4.5, 8.0625, 4.5625], "texture": "#0"},
				"west": {"uv": [7.9375, 4.5, 8, 4.5625], "texture": "#0"},
				"up": {"uv": [7.9375, 4.5, 7.875, 4.4375], "texture": "#0"},
				"down": {"uv": [8, 4.4375, 7.9375, 4.5], "texture": "#0"}
			}
		},
		{
			"from": [14.25, 4, 0.75],
			"to": [15.25, 5, 1.75],
			"faces": {
				"north": {"uv": [7.875, 4.5, 7.9375, 4.5625], "texture": "#0"},
				"east": {"uv": [7.8125, 4.5, 7.875, 4.5625], "texture": "#0"},
				"south": {"uv": [8, 4.5, 8.0625, 4.5625], "texture": "#0"},
				"west": {"uv": [7.9375, 4.5, 8, 4.5625], "texture": "#0"},
				"up": {"uv": [7.9375, 4.5, 7.875, 4.4375], "texture": "#0"},
				"down": {"uv": [8, 4.4375, 7.9375, 4.5], "texture": "#0"}
			}
		},
		{
			"from": [-1.04667, 6.5, 10.82323],
			"to": [16.95333, 20.75, 12.32323],
			"faces": {
				"north": {"uv": [6.5625, 4.0625, 7.6875, 4.9375], "texture": "#0"},
				"east": {"uv": [6.5, 4.0625, 6.5625, 4.9375], "texture": "#0"},
				"south": {"uv": [7.75, 4.0625, 8.875, 4.9375], "texture": "#0"},
				"west": {"uv": [7.6875, 4.0625, 7.75, 4.9375], "texture": "#0"},
				"up": {"uv": [7.6875, 4.0625, 6.5625, 4], "texture": "#0"},
				"down": {"uv": [8.8125, 4, 7.6875, 4.0625], "texture": "#0"}
			}
		},
		{
			"from": [1.57833, 8.5, 12.32323],
			"to": [14.32833, 17.75, 15.32323],
			"faces": {
				"north": {"uv": [6.875, 4.0625, 7.625, 4.625], "texture": "#0"},
				"east": {"uv": [6.6875, 4.0625, 6.875, 4.625], "texture": "#0"},
				"south": {"uv": [7.8125, 4.0625, 8.5625, 4.625], "texture": "#0"},
				"west": {"uv": [7.625, 4.0625, 7.8125, 4.625], "texture": "#0"},
				"up": {"uv": [7.625, 4.0625, 6.875, 3.875], "texture": "#0"},
				"down": {"uv": [8.375, 3.875, 7.625, 4.0625], "texture": "#0"}
			}
		},
		{
			"from": [5.57833, 11.25, 14.32323],
			"to": [10.32833, 15.5, 17.32323],
			"faces": {
				"north": {"uv": [7.4375, 0.9375, 7.6875, 1.1875], "texture": "#0"},
				"east": {"uv": [7.25, 0.9375, 7.4375, 1.1875], "texture": "#0"},
				"south": {"uv": [7.875, 0.9375, 8.125, 1.1875], "texture": "#0"},
				"west": {"uv": [7.6875, 0.9375, 7.875, 1.1875], "texture": "#0"},
				"up": {"uv": [7.6875, 0.9375, 7.4375, 0.75], "texture": "#0"},
				"down": {"uv": [7.9375, 0.75, 7.6875, 0.9375], "texture": "#0"}
			}
		}
	],
	"display": {
		"thirdperson_righthand": {
			"rotation": [75, 45, 0],
			"translation": [0, 2.5, 0],
			"scale": [0.375, 0.375, 0.375]
		},
		"thirdperson_lefthand": {
			"rotation": [75, 45, 0],
			"translation": [0, 2.5, 0],
			"scale": [0.375, 0.375, 0.375]
		},
		"firstperson_righthand": {
			"rotation": [0, 45, 0],
			"scale": [0.4, 0.4, 0.4]
		},
		"firstperson_lefthand": {
			"rotation": [0, 225, 0],
			"scale": [0.4, 0.4, 0.4]
		},
		"ground": {
			"translation": [0, 3, 0],
			"scale": [0.25, 0.25, 0.25]
		},
		"gui": {
			"rotation": [30, 225, 0],
			"translation": [0, -1.25, 0],
			"scale": [0.5, 0.5, 0.5]
		},
		"head": {
			"translation": [0, 0, 1],
			"scale": [1, 1, 1.43]
		},
		"fixed": {
			"scale": [0.5, 0.5, 0.5]
		}
	},
	"groups": [
		{
			"name": "rca_monitor",
			"origin": [8, 8, 8],
			"children": [
				{
					"name": "box",
					"origin": [8, 8, 8],
					"children": [0, 1, 2, 3, 4, 5, 6, 7, 8,
						{
							"name": "brass_trim",
							"origin": [9.58579, 5.41421, 8],
							"children": [9, 10, 11, 12]
						}
					]
				},
				{
					"name": "feet",
					"origin": [8, 8, 8],
					"children": [13, 14, 15]
				}
			]
		},
		{
			"name": "screen",
			"origin": [8, 8, 8],
			"children": [16]
		},
		{
			"name": "screen_bevel",
			"origin": [8, 8, 8],
			"children": [17, 18, 19, 20]
		},
		{
			"name": "knobs",
			"origin": [8, 8, 8],
			"children": [21, 22]
		},
		{
			"name": "tube",
			"origin": [9.58579, 5.41421, 8],
			"children": [23, 24, 25]
		}
	]
}