{
    "parent": "block/outer_stairs",
    "textures": {
        "bottom": "tardis:block/technology/tungsten_plate",
        "top": "tardis:block/technology/tungsten_plate",
        "side": "tardis:block/technology/tungsten_plate"
    }
}
