{
	"credit": "Made with Blockbench",
	"textures": {
		"0": "tardis:block/xion_crystal",
		"particle": "tardis:block/xion_crystal"
	},
	"elements": [
		{
			"from": [5, -4.66421, 6.34315],
			"to": [9, 8.33579, 10.34315],
			"rotation": {"angle": 22.5, "axis": "z", "origin": [7, -1.66421, 8.34315]},
			"faces": {
				"north": {"uv": [8, 2, 12, 15], "texture": "#0"},
				"east": {"uv": [2, 2, 6, 15], "texture": "#0"},
				"south": {"uv": [8, 2, 12, 15], "texture": "#0"},
				"west": {"uv": [2, 2, 6, 15], "texture": "#0"},
				"up": {"uv": [5, 5, 9, 9], "texture": "#0"},
				"down": {"uv": [5, 5, 11, 11], "texture": "#0"}
			}
		},
		{
			"from": [7, -1.66421, 3.34315],
			"to": [10, 1.33579, 6.34315],
			"rotation": {"angle": -22.5, "axis": "y", "origin": [8.5, -0.16421, 4.84315]},
			"faces": {
				"north": {"uv": [9, 5, 12, 8], "texture": "#0"},
				"east": {"uv": [9, 5, 12, 8], "texture": "#0"},
				"south": {"uv": [9, 5, 12, 8], "texture": "#0"},
				"west": {"uv": [9, 5, 12, 8], "texture": "#0"},
				"up": {"uv": [9, 5, 12, 8], "texture": "#0"},
				"down": {"uv": [9, 5, 12, 8], "texture": "#0"}
			}
		},
		{
			"from": [7, -3.41421, 9.34315],
			"to": [11, 0.58579, 13.34315],
			"rotation": {"angle": -22.5, "axis": "x", "origin": [10, -2.41421, 10.34315]},
			"faces": {
				"north": {"uv": [5, 5, 9, 9], "texture": "#0"},
				"east": {"uv": [5, 5, 9, 9], "texture": "#0"},
				"south": {"uv": [5, 5, 9, 9], "texture": "#0"},
				"west": {"uv": [5, 5, 9, 9], "texture": "#0"},
				"up": {"uv": [5, 5, 9, 9], "texture": "#0"},
				"down": {"uv": [5, 5, 9, 9], "texture": "#0"}
			}
		}
	],
	"groups": [
		{
			"name": "Xion B",
			"origin": [8, -8, 8],
			"children": [0, 1, 2]
		}
	]
}