{
    "parent": "block/inner_stairs",
    "textures": {
        "bottom": "tardis:block/yellow_crystal",
        "top": "tardis:block/yellow_crystal",
        "side": "tardis:block/yellow_crystal"
    }
}
