{
    "variants": {
        "facing=up": { "model": "tardis:block/chemlight" },
        "facing=down": { "model": "tardis:block/chemlight", "x": 180 },
        "facing=north": { "model": "tardis:block/chemlight","y": 0, "x": 90  },
        "facing=south": { "model": "tardis:block/chemlight", "y": 180, "x": 90 },
        "facing=west": { "model": "tardis:block/chemlight", "y": 270, "x": 90 },
        "facing=east": { "model": "tardis:block/chemlight", "y": 90, "x": 90 }
    }
}
