{
	"variants":{
		"type=0,facing=north":{
			"model":"tardis:block/struts/tech_strut_floor",
			"y":0
		},
		"type=0,facing=east":{
			"model":"tardis:block/struts/tech_strut_floor",
			"y": 90
		},
		"type=0,facing=south":{
			"model":"tardis:block/struts/tech_strut_floor",
			"y": 180
		},
		"type=0,facing=west":{
			"model":"tardis:block/struts/tech_strut_floor",
			"y": 270
		},
		"type=1,facing=north":{
			"model":"tardis:block/struts/tech_strut_wall",
			"y":0
		},
		"type=1,facing=east":{
			"model":"tardis:block/struts/tech_strut_wall",
			"y": 90
		},
		"type=1,facing=south":{
			"model":"tardis:block/struts/tech_strut_wall",
			"y": 180
		},
		"type=1,facing=west":{
			"model":"tardis:block/struts/tech_strut_wall",
			"y": 270
		},
		"type=2,facing=north":{
			"model":"tardis:block/struts/tech_strut_upper",
			"y":0
		},
		"type=2,facing=east":{
			"model":"tardis:block/struts/tech_strut_upper",
			"y": 90
		},
		"type=2,facing=south":{
			"model":"tardis:block/struts/tech_strut_upper",
			"y": 180
		},
		"type=2,facing=west":{
			"model":"tardis:block/struts/tech_strut_upper",
			"y": 270
		}
	}
}