{
    "variants": {
      "type=bottom": { "model": "tardis:block/tungsten_plate_slab" },
      "type=top": { "model": "tardis:block/tungsten_plate_slab_top" },
      "type=double": { "model": "tardis:block/tungsten_plate" }
    }
}