{
  "display_name": "Environmental Systems",
  "pages": [
    "tardis:env_systems/env_system_cover",
    "tardis:env_systems/env_system_intro",
    "tardis:env_systems/exterior_defence",
    "tardis:env_systems/interior_defence"
  ]
}