{
  "display_name": "Controls",
  "pages": [
    "tardis:flight/controls/controls_cover",
    "tardis:flight/controls/controls_intro",
    "tardis:flight/controls/axis_controls",
    "tardis:flight/controls/coordinate_increment",
    "tardis:flight/controls/throttle",
    "tardis:flight/controls/handbrake",
    "tardis:flight/controls/randomizer",
    "tardis:flight/controls/facing",
    "tardis:flight/controls/vertical_land_type",
    "tardis:flight/controls/fast_return",
    "tardis:flight/controls/refueler",
    "tardis:flight/controls/stabilizers",
    "tardis:flight/controls/sonic_port",
    "tardis:flight/controls/communicator",
    "tardis:flight/controls/telepathic"
  ]
}