{
	"credit": "Made with Blockbench",
	"texture_size": [64, 64],
	"textures": {
		"0": "tardis:item/diagnostic_tool_on",
		"particle": "tardis:item/diagnostic_tool_on"
	},
	"elements": [
		{
			"from": [4.625, 0.37868, 5.87868],
			"to": [11.375, 1.87868, 10.87868],
			"rotation": {"angle": 45, "axis": "x", "origin": [8, 8, 8]},
			"faces": {
				"north": {"uv": [1.75, 7, 3.5, 7.25], "texture": "#0"},
				"east": {"uv": [7.5, 2.5, 8.75, 2.75], "texture": "#0"},
				"south": {"uv": [1.75, 7.25, 3.5, 7.5], "texture": "#0"},
				"west": {"uv": [7.5, 4, 8.75, 4.25], "texture": "#0"},
				"up": {"uv": [4.25, 3.75, 2.5, 2.5], "texture": "#0"},
				"down": {"uv": [4.25, 0, 2.5, 1.25], "texture": "#0"}
			}
		},
		{
			"from": [7.53017, 3.37868, 2.92785],
			"to": [8.28017, 4.12868, 3.67785],
			"rotation": {"angle": 45, "axis": "z", "origin": [8, 3.75368, 3.30285]},
			"faces": {
				"north": {"uv": [8.5, 1.5, 8.75, 1.75], "texture": "#0"},
				"east": {"uv": [8.5, 1.5, 8.75, 1.75], "texture": "#0"},
				"south": {"uv": [8.5, 1.5, 8.75, 1.75], "texture": "#0"},
				"west": {"uv": [8.5, 1.5, 8.75, 1.75], "texture": "#0"},
				"up": {"uv": [8.5, 1.5, 8.75, 1.75], "texture": "#0"},
				"down": {"uv": [4.25, 0, 2.5, 1.25], "texture": "#0"}
			}
		},
		{
			"from": [6.625, 0.73223, 8.73223],
			"to": [9.375, 2.23223, 11.23223],
			"rotation": {"angle": 45, "axis": "x", "origin": [8, 8, 8]},
			"faces": {
				"north": {"uv": [2.25, 7.5, 3, 8], "texture": "#0"},
				"east": {"uv": [3, 7.5, 3.75, 8], "texture": "#0"},
				"south": {"uv": [3.75, 7.5, 4.5, 8], "texture": "#0"},
				"west": {"uv": [4.5, 7.5, 5.25, 8], "texture": "#0"},
				"up": {"uv": [6.75, 7.25, 6, 6.5], "texture": "#0"},
				"down": {"uv": [7.5, 6.75, 6.75, 7.5], "texture": "#0"}
			}
		},
		{
			"from": [4.625, -2.12132, 5.37868],
			"to": [11.375, 2.12868, 5.87868],
			"rotation": {"angle": 45, "axis": "x", "origin": [8, 8, 8]},
			"faces": {
				"north": {"uv": [4.25, 0, 6, 1], "texture": "#0"},
				"east": {"uv": [7.5, 5.5, 7.75, 6.5], "texture": "#0"},
				"south": {"uv": [4.25, 1, 6, 2], "texture": "#0"},
				"west": {"uv": [5.5, 7.75, 5.75, 8.75], "texture": "#0"},
				"up": {"uv": [8.5, 3, 6.75, 2.75], "texture": "#0"},
				"down": {"uv": [8.5, 6.5, 6.75, 6.75], "texture": "#0"}
			}
		},
		{
			"from": [4.625, -2.62132, 5.37868],
			"to": [11.375, -2.12132, 7.37868],
			"rotation": {"angle": 45, "axis": "x", "origin": [8, 8, 8]},
			"faces": {
				"north": {"uv": [3.5, 7.25, 5.25, 7.5], "texture": "#0"},
				"east": {"uv": [3.5, 7, 4, 7.25], "texture": "#0"},
				"south": {"uv": [7.25, 5, 9, 5.25], "texture": "#0"},
				"west": {"uv": [4, 7, 4.5, 7.25], "texture": "#0"},
				"up": {"uv": [6.5, 6, 4.75, 5.5], "texture": "#0"},
				"down": {"uv": [7.5, 3.5, 5.75, 4], "texture": "#0"}
			}
		},
		{
			"from": [11.375, -0.62132, 5.37868],
			"to": [11.625, 2.12868, 10.62868],
			"rotation": {"angle": 45, "axis": "x", "origin": [8, 8, 8]},
			"faces": {
				"north": {"uv": [4.25, 8, 4.5, 8.75], "texture": "#0"},
				"east": {"uv": [4.5, 4.75, 5.75, 5.5], "texture": "#0"},
				"south": {"uv": [4.5, 8, 4.75, 8.75], "texture": "#0"},
				"west": {"uv": [0, 5.25, 1.25, 6], "texture": "#0"},
				"up": {"uv": [0.75, 9, 0.5, 7.75], "texture": "#0"},
				"down": {"uv": [5.5, 7.75, 5.25, 9], "texture": "#0"}
			}
		},
		{
			"from": [11.375, -2.62132, 5.37868],
			"to": [11.625, -0.62132, 8.62868],
			"rotation": {"angle": 45, "axis": "x", "origin": [8, 8, 8]},
			"faces": {
				"north": {"uv": [1.25, 6.5, 1.5, 7], "texture": "#0"},
				"east": {"uv": [5.25, 7.25, 6, 7.75], "texture": "#0"},
				"south": {"uv": [6.25, 8.25, 6.5, 8.75], "texture": "#0"},
				"west": {"uv": [6, 7.25, 6.75, 7.75], "texture": "#0"},
				"up": {"uv": [5, 8.75, 4.75, 8], "texture": "#0"},
				"down": {"uv": [5.25, 8, 5, 8.75], "texture": "#0"}
			}
		},
		{
			"from": [4.375, -2.62132, 5.37868],
			"to": [4.625, -0.62132, 8.62868],
			"rotation": {"angle": 45, "axis": "x", "origin": [8, 8, 8]},
			"faces": {
				"north": {"uv": [6.5, 8.25, 6.75, 8.75], "texture": "#0"},
				"east": {"uv": [0.75, 7.5, 1.5, 8], "texture": "#0"},
				"south": {"uv": [8.25, 8.25, 8.5, 8.75], "texture": "#0"},
				"west": {"uv": [1.5, 7.5, 2.25, 8], "texture": "#0"},
				"up": {"uv": [7, 8.75, 6.75, 8], "texture": "#0"},
				"down": {"uv": [7.25, 8, 7, 8.75], "texture": "#0"}
			}
		},
		{
			"from": [4.375, -0.62132, 5.37868],
			"to": [4.625, 2.12868, 10.62868],
			"rotation": {"angle": 45, "axis": "x", "origin": [8, 8, 8]},
			"faces": {
				"north": {"uv": [3.75, 8, 4, 8.75], "texture": "#0"},
				"east": {"uv": [2, 4.75, 3.25, 5.5], "texture": "#0"},
				"south": {"uv": [4, 8, 4.25, 8.75], "texture": "#0"},
				"west": {"uv": [3.25, 4.75, 4.5, 5.5], "texture": "#0"},
				"up": {"uv": [0.25, 9, 0, 7.75], "texture": "#0"},
				"down": {"uv": [0.5, 7.75, 0.25, 9], "texture": "#0"}
			}
		},
		{
			"from": [6.375, -3.12132, 4.87868],
			"to": [9.625, 1.12868, 8.12868],
			"rotation": {"angle": 45, "axis": "x", "origin": [8, 8, 8]},
			"faces": {
				"north": {"uv": [1.5, 6, 2.25, 7], "texture": "#0"},
				"east": {"uv": [2.25, 6, 3, 7], "texture": "#0"},
				"south": {"uv": [3, 6, 3.75, 7], "texture": "#0"},
				"west": {"uv": [3.75, 6, 4.5, 7], "texture": "#0"},
				"up": {"uv": [5.25, 7.25, 4.5, 6.5], "texture": "#0"},
				"down": {"uv": [6, 6.5, 5.25, 7.25], "texture": "#0"}
			}
		},
		{
			"from": [5, 0.5, 7.375],
			"to": [11, 2.25, 8.375],
			"faces": {
				"north": {"uv": [5.75, 5, 7.25, 5.5], "texture": "#0"},
				"east": {"uv": [8.25, 1.5, 8.5, 2], "texture": "#0"},
				"south": {"uv": [0, 6, 1.5, 6.5], "texture": "#0"},
				"west": {"uv": [8.25, 2, 8.5, 2.5], "texture": "#0"},
				"up": {"uv": [5.75, 3.75, 4.25, 3.5], "texture": "#0"},
				"down": {"uv": [8.75, 5.25, 7.25, 5.5], "texture": "#0"}
			}
		},
		{
			"from": [5, 0.5, 8.625],
			"to": [11, 2.25, 9.625],
			"faces": {
				"north": {"uv": [4.5, 6, 6, 6.5], "texture": "#0"},
				"east": {"uv": [8.25, 6, 8.5, 6.5], "texture": "#0"},
				"south": {"uv": [6, 6, 7.5, 6.5], "texture": "#0"},
				"west": {"uv": [8.25, 6.75, 8.5, 7.25], "texture": "#0"},
				"up": {"uv": [9, 0.25, 7.5, 0], "texture": "#0"},
				"down": {"uv": [9, 0.25, 7.5, 0.5], "texture": "#0"}
			}
		},
		{
			"from": [5, 0.5, 9.875],
			"to": [11, 2.25, 10.875],
			"faces": {
				"north": {"uv": [6, 0, 7.5, 0.5], "texture": "#0"},
				"east": {"uv": [8.25, 7.25, 8.5, 7.75], "texture": "#0"},
				"south": {"uv": [6, 0.5, 7.5, 1], "texture": "#0"},
				"west": {"uv": [8.25, 7.75, 8.5, 8.25], "texture": "#0"},
				"up": {"uv": [9, 0.75, 7.5, 0.5], "texture": "#0"},
				"down": {"uv": [9, 0.75, 7.5, 1], "texture": "#0"}
			}
		},
		{
			"from": [5, 0.5, 11.125],
			"to": [11, 2.25, 12.125],
			"faces": {
				"north": {"uv": [6, 1, 7.5, 1.5], "texture": "#0"},
				"east": {"uv": [0.75, 8.5, 1, 9], "texture": "#0"},
				"south": {"uv": [6, 1.5, 7.5, 2], "texture": "#0"},
				"west": {"uv": [1, 8.5, 1.25, 9], "texture": "#0"},
				"up": {"uv": [9, 1.25, 7.5, 1], "texture": "#0"},
				"down": {"uv": [9, 1.25, 7.5, 1.5], "texture": "#0"}
			}
		},
		{
			"from": [5, 0.5, 12.625],
			"to": [8, 2.25, 15.625],
			"faces": {
				"north": {"uv": [7.5, 1.5, 8.25, 2], "texture": "#0"},
				"east": {"uv": [7.5, 2, 8.25, 2.5], "texture": "#0"},
				"south": {"uv": [7.5, 3, 8.25, 3.5], "texture": "#0"},
				"west": {"uv": [7.5, 3.5, 8.25, 4], "texture": "#0"},
				"up": {"uv": [7.5, 2.75, 6.75, 2], "texture": "#0"},
				"down": {"uv": [0.75, 7, 0, 7.75], "texture": "#0"}
			}
		},
		{
			"from": [10, 0.5, 12.625],
			"to": [11.5, 2.25, 14.125],
			"faces": {
				"north": {"uv": [7.5, 4.25, 8, 4.75], "texture": "#0"},
				"east": {"uv": [7.5, 6.75, 8, 7.25], "texture": "#0"},
				"south": {"uv": [5.75, 7.75, 6.25, 8.25], "texture": "#0"},
				"west": {"uv": [6.25, 7.75, 6.75, 8.25], "texture": "#0"},
				"up": {"uv": [8.25, 6, 7.75, 5.5], "texture": "#0"},
				"down": {"uv": [8.25, 6, 7.75, 6.5], "texture": "#0"}
			}
		},
		{
			"from": [8.25, 0.5, 12.625],
			"to": [9.75, 2.25, 14.125],
			"faces": {
				"north": {"uv": [0.75, 8, 1.25, 8.5], "texture": "#0"},
				"east": {"uv": [1.25, 8, 1.75, 8.5], "texture": "#0"},
				"south": {"uv": [1.75, 8, 2.25, 8.5], "texture": "#0"},
				"west": {"uv": [2.25, 8, 2.75, 8.5], "texture": "#0"},
				"up": {"uv": [3.25, 8.5, 2.75, 8], "texture": "#0"},
				"down": {"uv": [3.75, 8, 3.25, 8.5], "texture": "#0"}
			}
		},
		{
			"from": [5.25, 3.5, 0.25],
			"to": [6.25, 6.25, 1.375],
			"faces": {
				"north": {"uv": [7.25, 8, 7.5, 8.75], "texture": "#0"},
				"east": {"uv": [7.5, 8, 7.75, 8.75], "texture": "#0"},
				"south": {"uv": [7.75, 8, 8, 8.75], "texture": "#0"},
				"west": {"uv": [8, 8, 8.25, 8.75], "texture": "#0"},
				"up": {"uv": [8.5, 5, 8.25, 4.75], "texture": "#0"},
				"down": {"uv": [1.5, 8.5, 1.25, 8.75], "texture": "#0"}
			}
		},
		{
			"from": [4.5, 0, 7.25],
			"to": [11.5, 2, 12.25],
			"faces": {
				"north": {"uv": [5.75, 4, 7.5, 4.5], "texture": "#0"},
				"east": {"uv": [6.25, 3, 7.5, 3.5], "texture": "#0"},
				"south": {"uv": [5.75, 4.5, 7.5, 5], "texture": "#0"},
				"west": {"uv": [0, 6.5, 1.25, 7], "texture": "#0"},
				"up": {"uv": [4.25, 2.5, 2.5, 1.25], "texture": "#0"},
				"down": {"uv": [1.75, 3.5, 0, 4.75], "texture": "#0"}
			}
		},
		{
			"from": [4, 0, 12.25],
			"to": [12, 2, 16],
			"faces": {
				"north": {"uv": [4.25, 3, 6.25, 3.5], "texture": "#0"},
				"east": {"uv": [6.5, 5.5, 7.5, 6], "texture": "#0"},
				"south": {"uv": [0, 4.75, 2, 5.25], "texture": "#0"},
				"west": {"uv": [0.75, 7, 1.75, 7.5], "texture": "#0"},
				"up": {"uv": [3.75, 4.75, 1.75, 3.75], "texture": "#0"},
				"down": {"uv": [5.75, 3.75, 3.75, 4.75], "texture": "#0"}
			}
		},
		{
			"from": [3, 0, 0],
			"to": [13, 2, 7.25],
			"faces": {
				"north": {"uv": [4.25, 2, 6.75, 2.5], "texture": "#0"},
				"east": {"uv": [1.25, 5.5, 3, 6], "texture": "#0"},
				"south": {"uv": [4.25, 2.5, 6.75, 3], "texture": "#0"},
				"west": {"uv": [3, 5.5, 4.75, 6], "texture": "#0"},
				"up": {"uv": [2.5, 1.75, 0, 0], "texture": "#0"},
				"down": {"uv": [2.5, 1.75, 0, 3.5], "texture": "#0"}
			}
		},
		{
			"from": [5.5, 9.375, -0.875],
			"to": [6, 9.875, -0.25],
			"rotation": {"angle": 0, "axis": "y", "origin": [5.75, 8, 0.75]},
			"faces": {
				"north": {"uv": [2.5, 8.5, 2.75, 8.75], "texture": "#0"},
				"east": {"uv": [2.75, 8.5, 3, 8.75], "texture": "#0"},
				"south": {"uv": [3, 8.5, 3.25, 8.75], "texture": "#0"},
				"west": {"uv": [3.25, 8.5, 3.5, 8.75], "texture": "#0"},
				"up": {"uv": [3.75, 8.75, 3.5, 8.5], "texture": "#0"},
				"down": {"uv": [8.75, 8.5, 8.5, 8.75], "texture": "#0"}
			}
		},
		{
			"from": [5.25, 9, -0.25],
			"to": [6.25, 10.125, 1.375],
			"rotation": {"angle": 0, "axis": "y", "origin": [5.75, 8, 0.75]},
			"faces": {
				"north": {"uv": [2, 8.5, 2.25, 8.75], "texture": "#0"},
				"east": {"uv": [7.5, 4.75, 8, 5], "texture": "#0"},
				"south": {"uv": [2.25, 8.5, 2.5, 8.75], "texture": "#0"},
				"west": {"uv": [7.5, 7.25, 8, 7.5], "texture": "#0"},
				"up": {"uv": [8.5, 3.5, 8.25, 3], "texture": "#0"},
				"down": {"uv": [8.5, 3.5, 8.25, 4], "texture": "#0"}
			}
		},
		{
			"from": [4.25, 8.5, 0.125],
			"to": [7.25, 10.625, 0.75],
			"rotation": {"angle": 0, "axis": "y", "origin": [5.75, 8, 0.75]},
			"faces": {
				"north": {"uv": [6.75, 7.5, 7.5, 8], "texture": "#0"},
				"east": {"uv": [8.25, 4.25, 8.5, 4.75], "texture": "#0"},
				"south": {"uv": [7.5, 7.5, 8.25, 8], "texture": "#0"},
				"west": {"uv": [8.25, 5.5, 8.5, 6], "texture": "#0"},
				"up": {"uv": [2.5, 3.75, 1.75, 3.5], "texture": "#0"},
				"down": {"uv": [2, 5.25, 1.25, 5.5], "texture": "#0"}
			}
		},
		{
			"from": [5.5, 6.25, 0.5],
			"to": [6, 9, 1],
			"rotation": {"angle": 0, "axis": "y", "origin": [5.75, 8, 0.75]},
			"faces": {
				"north": {"uv": [8, 4.25, 8.25, 5], "texture": "#0"},
				"east": {"uv": [8, 6.75, 8.25, 7.5], "texture": "#0"},
				"south": {"uv": [5.75, 8.25, 6, 9], "texture": "#0"},
				"west": {"uv": [6, 8.25, 6.25, 9], "texture": "#0"},
				"up": {"uv": [1.75, 8.75, 1.5, 8.5], "texture": "#0"},
				"down": {"uv": [2, 8.5, 1.75, 8.75], "texture": "#0"}
			}
		}
	],
	"display": {
		"thirdperson_righthand": {
			"rotation": [89, 0, 0],
			"translation": [0, 1.25, 3],
			"scale": [0.55, 0.55, 0.55]
		},
		"thirdperson_lefthand": {
			"rotation": [89, 0, 0],
			"translation": [0, 1.25, 3],
			"scale": [0.55, 0.55, 0.55]
		},
		"firstperson_righthand": {
			"rotation": [0, -34, 0],
			"translation": [1.88, 5.45, 1.13],
			"scale": [0.68, 0.68, 0.68]
		},
		"firstperson_lefthand": {
			"rotation": [0, -34, 0],
			"translation": [1.88, 5.45, 1.13],
			"scale": [0.68, 0.68, 0.68]
		},
		"ground": {
			"translation": [0, 2, 0],
			"scale": [0.5, 0.5, 0.5]
		},
		"gui": {
			"rotation": [42, 45, 0],
			"translation": [0, 2.5, 0],
			"scale": [0.7, 0.7, 0.7]
		},
		"head": {
			"rotation": [0, -1, 0],
			"translation": [0, 14.5, 0.75]
		},
		"fixed": {
			"rotation": [-90, -90, 0],
			"translation": [0, 0, -7.75]
		}
	},
	"groups": [
		{
			"name": "screen",
			"origin": [8, 8, 8],
			"children": [0, 1, 2, 3, 4, 5, 6, 7, 8, 9]
		},
		{
			"name": "body",
			"origin": [8, 8, 8],
			"children": [10, 11, 12, 13, 14, 15, 16, 17, 18, 19, 20]
		},
		{
			"name": "dish",
			"origin": [8, 8, 8],
			"children": [21, 22, 23, 24]
		}
	]
}