{
	"credit": "Made with Blockbench",
	"texture_size": [64, 64],
	"textures": {
		"0": "tardis:item/stablizer",
		"particle": "tardis:item/stablizer"
	},
	"elements": [
		{
			"from": [10.5, 0.5, 3.5],
			"to": [12.5, 2, 12.5],
			"rotation": {"angle": 0, "axis": "y", "origin": [8, 1.25, 8]},
			"faces": {
				"north": {"uv": [5.75, 5.25, 6.25, 5.75], "texture": "#0"},
				"east": {"uv": [2.5, 1.25, 4.75, 1.75], "texture": "#0"},
				"south": {"uv": [1.5, 6.5, 2, 7], "texture": "#0"},
				"west": {"uv": [2.5, 1.75, 4.75, 2.25], "texture": "#0"},
				"up": {"uv": [0.5, 6, 0, 3.75], "texture": "#0"},
				"down": {"uv": [1, 3.75, 0.5, 6], "texture": "#0"}
			}
		},
		{
			"from": [11.25, 1.34375, 4.25],
			"to": [11.75, 2.34375, 11.75],
			"rotation": {"angle": 0, "axis": "y", "origin": [7.75, 2.09375, 8]},
			"faces": {
				"north": {"uv": [9.25, 9.25, 9.5, 9.5], "texture": "#0"},
				"east": {"uv": [6.5, 6, 8.5, 6.25], "texture": "#0"},
				"south": {"uv": [9.25, 0, 9.5, 0.25], "texture": "#0"},
				"west": {"uv": [6.5, 6.25, 8.5, 6.5], "texture": "#0"},
				"up": {"uv": [5.25, 8.75, 5, 6.75], "texture": "#0"},
				"down": {"uv": [5.5, 6.75, 5.25, 8.75], "texture": "#0"}
			}
		},
		{
			"from": [4.25, 1.34375, 4.25],
			"to": [4.75, 2.34375, 11.75],
			"rotation": {"angle": 0, "axis": "y", "origin": [0.75, 2.09375, 8]},
			"faces": {
				"north": {"uv": [9.25, 0.25, 9.5, 0.5], "texture": "#0"},
				"east": {"uv": [6.75, 1.5, 8.75, 1.75], "texture": "#0"},
				"south": {"uv": [9.25, 0.5, 9.5, 0.75], "texture": "#0"},
				"west": {"uv": [6.75, 4, 8.75, 4.25], "texture": "#0"},
				"up": {"uv": [2.5, 9, 2.25, 7], "texture": "#0"},
				"down": {"uv": [2.75, 7, 2.5, 9], "texture": "#0"}
			}
		},
		{
			"from": [1.25, 1.34375, 9.25],
			"to": [4.25, 2.34375, 9.75],
			"rotation": {"angle": 0, "axis": "y", "origin": [3, 1.84375, 9.5]},
			"faces": {
				"north": {"uv": [2.75, 7.25, 3.5, 7.5], "texture": "#0"},
				"east": {"uv": [9.25, 1.75, 9.5, 2], "texture": "#0"},
				"south": {"uv": [3.25, 8.5, 4, 8.75], "texture": "#0"},
				"west": {"uv": [9.25, 2, 9.5, 2.25], "texture": "#0"},
				"up": {"uv": [4.75, 8.75, 4, 8.5], "texture": "#0"},
				"down": {"uv": [6.25, 8.5, 5.5, 8.75], "texture": "#0"}
			}
		},
		{
			"from": [1.25, 1.34375, 6.25],
			"to": [4.25, 2.34375, 6.75],
			"rotation": {"angle": 0, "axis": "y", "origin": [3, 1.84375, 6.5]},
			"faces": {
				"north": {"uv": [8, 8.5, 8.75, 8.75], "texture": "#0"},
				"east": {"uv": [9.25, 2.25, 9.5, 2.5], "texture": "#0"},
				"south": {"uv": [8.5, 0.75, 9.25, 1], "texture": "#0"},
				"west": {"uv": [9.25, 2.5, 9.5, 2.75], "texture": "#0"},
				"up": {"uv": [9.25, 1.25, 8.5, 1], "texture": "#0"},
				"down": {"uv": [9.25, 1.25, 8.5, 1.5], "texture": "#0"}
			}
		},
		{
			"from": [11.75, 1.34375, 6.25],
			"to": [14.75, 2.34375, 6.75],
			"rotation": {"angle": 0, "axis": "y", "origin": [13.5, 1.84375, 6.5]},
			"faces": {
				"north": {"uv": [8.5, 3.25, 9.25, 3.5], "texture": "#0"},
				"east": {"uv": [9.25, 2.75, 9.5, 3], "texture": "#0"},
				"south": {"uv": [8.5, 3.5, 9.25, 3.75], "texture": "#0"},
				"west": {"uv": [9.25, 3, 9.5, 3.25], "texture": "#0"},
				"up": {"uv": [9.25, 4, 8.5, 3.75], "texture": "#0"},
				"down": {"uv": [9.25, 4.25, 8.5, 4.5], "texture": "#0"}
			}
		},
		{
			"from": [11.75, 1.34375, 9.25],
			"to": [14.75, 2.34375, 9.75],
			"rotation": {"angle": 0, "axis": "y", "origin": [13.5, 1.84375, 9.5]},
			"faces": {
				"north": {"uv": [8.5, 6, 9.25, 6.25], "texture": "#0"},
				"east": {"uv": [9.25, 3.25, 9.5, 3.5], "texture": "#0"},
				"south": {"uv": [8.5, 6.25, 9.25, 6.5], "texture": "#0"},
				"west": {"uv": [9.25, 3.5, 9.5, 3.75], "texture": "#0"},
				"up": {"uv": [9.25, 6.75, 8.5, 6.5], "texture": "#0"},
				"down": {"uv": [9.25, 6.75, 8.5, 7], "texture": "#0"}
			}
		},
		{
			"from": [9.25, 1.34375, 11.75],
			"to": [9.75, 2.34375, 14.75],
			"rotation": {"angle": 0, "axis": "y", "origin": [8.5, 1.84375, 12]},
			"faces": {
				"north": {"uv": [9.25, 3.75, 9.5, 4], "texture": "#0"},
				"east": {"uv": [8.5, 7.5, 9.25, 7.75], "texture": "#0"},
				"south": {"uv": [9.25, 4, 9.5, 4.25], "texture": "#0"},
				"west": {"uv": [8.5, 7.75, 9.25, 8], "texture": "#0"},
				"up": {"uv": [5, 9.25, 4.75, 8.5], "texture": "#0"},
				"down": {"uv": [6.5, 8.5, 6.25, 9.25], "texture": "#0"}
			}
		},
		{
			"from": [6.25, 1.34375, 11.75],
			"to": [6.75, 2.34375, 14.75],
			"rotation": {"angle": 0, "axis": "y", "origin": [5.5, 1.84375, 12]},
			"faces": {
				"north": {"uv": [9.25, 4.25, 9.5, 4.5], "texture": "#0"},
				"east": {"uv": [8.5, 8, 9.25, 8.25], "texture": "#0"},
				"south": {"uv": [9.25, 4.5, 9.5, 4.75], "texture": "#0"},
				"west": {"uv": [8.5, 8.25, 9.25, 8.5], "texture": "#0"},
				"up": {"uv": [1.75, 9.5, 1.5, 8.75], "texture": "#0"},
				"down": {"uv": [2, 8.75, 1.75, 9.5], "texture": "#0"}
			}
		},
		{
			"from": [6.25, 1.34375, 1.25],
			"to": [6.75, 2.34375, 4.25],
			"rotation": {"angle": 0, "axis": "y", "origin": [5.5, 1.84375, 1.5]},
			"faces": {
				"north": {"uv": [9.25, 4.75, 9.5, 5], "texture": "#0"},
				"east": {"uv": [3.25, 8.75, 4, 9], "texture": "#0"},
				"south": {"uv": [9.25, 5, 9.5, 5.25], "texture": "#0"},
				"west": {"uv": [4, 8.75, 4.75, 9], "texture": "#0"},
				"up": {"uv": [2.25, 9.5, 2, 8.75], "texture": "#0"},
				"down": {"uv": [5.25, 8.75, 5, 9.5], "texture": "#0"}
			}
		},
		{
			"from": [9.25, 1.34375, 1.25],
			"to": [9.75, 2.34375, 4.25],
			"rotation": {"angle": 0, "axis": "y", "origin": [8.5, 1.84375, 1.5]},
			"faces": {
				"north": {"uv": [9.25, 5.25, 9.5, 5.5], "texture": "#0"},
				"east": {"uv": [5.25, 8.75, 6, 9], "texture": "#0"},
				"south": {"uv": [9.25, 5.5, 9.5, 5.75], "texture": "#0"},
				"west": {"uv": [6.5, 8.75, 7.25, 9], "texture": "#0"},
				"up": {"uv": [6.25, 9.5, 6, 8.75], "texture": "#0"},
				"down": {"uv": [7.5, 8.75, 7.25, 9.5], "texture": "#0"}
			}
		},
		{
			"from": [4.75, 1.34375, 11.25],
			"to": [11.25, 2.34375, 11.75],
			"rotation": {"angle": 0, "axis": "y", "origin": [1.25, 2.09375, 8]},
			"faces": {
				"north": {"uv": [6.75, 4.25, 8.5, 4.5], "texture": "#0"},
				"east": {"uv": [9.25, 0.75, 9.5, 1], "texture": "#0"},
				"south": {"uv": [7, 0, 8.75, 0.25], "texture": "#0"},
				"west": {"uv": [9.25, 1, 9.5, 1.25], "texture": "#0"},
				"up": {"uv": [8.75, 0.5, 7, 0.25], "texture": "#0"},
				"down": {"uv": [8.75, 0.5, 7, 0.75], "texture": "#0"}
			}
		},
		{
			"from": [4.75, 1.34375, 4.25],
			"to": [11.25, 2.34375, 4.75],
			"rotation": {"angle": 0, "axis": "y", "origin": [1.25, 2.09375, 1]},
			"faces": {
				"north": {"uv": [7, 1.75, 8.75, 2], "texture": "#0"},
				"east": {"uv": [9.25, 1.25, 9.5, 1.5], "texture": "#0"},
				"south": {"uv": [7, 2, 8.75, 2.25], "texture": "#0"},
				"west": {"uv": [9.25, 1.5, 9.5, 1.75], "texture": "#0"},
				"up": {"uv": [8.75, 2.5, 7, 2.25], "texture": "#0"},
				"down": {"uv": [8.75, 2.5, 7, 2.75], "texture": "#0"}
			}
		},
		{
			"from": [3.5, 0.5, 3.5],
			"to": [5.5, 2, 12.5],
			"rotation": {"angle": 0, "axis": "y", "origin": [1, 1.25, 8]},
			"faces": {
				"north": {"uv": [1.75, 7.75, 2.25, 8.25], "texture": "#0"},
				"east": {"uv": [1, 3.75, 3.25, 4.25], "texture": "#0"},
				"south": {"uv": [7, 7.75, 7.5, 8.25], "texture": "#0"},
				"west": {"uv": [3.25, 3.75, 5.5, 4.25], "texture": "#0"},
				"up": {"uv": [1.5, 6.5, 1, 4.25], "texture": "#0"},
				"down": {"uv": [2, 4.25, 1.5, 6.5], "texture": "#0"}
			}
		},
		{
			"from": [5.5, 0.5, 10.5],
			"to": [10.5, 2, 12.5],
			"rotation": {"angle": 0, "axis": "y", "origin": [4, 1.25, 8]},
			"faces": {
				"north": {"uv": [5, 2.5, 6.25, 3], "texture": "#0"},
				"east": {"uv": [7.5, 7.75, 8, 8.25], "texture": "#0"},
				"south": {"uv": [5, 3, 6.25, 3.5], "texture": "#0"},
				"west": {"uv": [7.75, 7, 8.25, 7.5], "texture": "#0"},
				"up": {"uv": [3.25, 5.75, 2, 5.25], "texture": "#0"},
				"down": {"uv": [4.5, 5.25, 3.25, 5.75], "texture": "#0"}
			}
		},
		{
			"from": [5.5, 0.5, 3.5],
			"to": [10.5, 2, 5.5],
			"rotation": {"angle": 0, "axis": "y", "origin": [4, 1.25, 1]},
			"faces": {
				"north": {"uv": [4.5, 5.5, 5.75, 6], "texture": "#0"},
				"east": {"uv": [2.75, 8, 3.25, 8.5], "texture": "#0"},
				"south": {"uv": [5.5, 3.5, 6.75, 4], "texture": "#0"},
				"west": {"uv": [3.25, 8, 3.75, 8.5], "texture": "#0"},
				"up": {"uv": [6.75, 4.5, 5.5, 4], "texture": "#0"},
				"down": {"uv": [3.25, 5.75, 2, 6.25], "texture": "#0"}
			}
		},
		{
			"from": [7, 0.5, 7],
			"to": [9, 2, 9],
			"rotation": {"angle": 45, "axis": "y", "origin": [8, 1.25, 8]},
			"faces": {
				"north": {"uv": [3.75, 8, 4.25, 8.5], "texture": "#0"},
				"east": {"uv": [4.25, 8, 4.75, 8.5], "texture": "#0"},
				"south": {"uv": [5.5, 8, 6, 8.5], "texture": "#0"},
				"west": {"uv": [6, 8, 6.5, 8.5], "texture": "#0"},
				"up": {"uv": [8.5, 8.5, 8, 8], "texture": "#0"},
				"down": {"uv": [8.5, 6.5, 8, 7], "texture": "#0"}
			}
		},
		{
			"from": [7.25, 0.25, 7.25],
			"to": [8.75, 2.25, 8.75],
			"rotation": {"angle": 45, "axis": "y", "origin": [8, 1.25, 8]},
			"faces": {
				"north": {"uv": [8.25, 5.5, 8.75, 6], "texture": "#0"},
				"east": {"uv": [8.25, 7, 8.75, 7.5], "texture": "#0"},
				"south": {"uv": [0, 8.5, 0.5, 9], "texture": "#0"},
				"west": {"uv": [0.5, 8.5, 1, 9], "texture": "#0"},
				"up": {"uv": [1.5, 9, 1, 8.5], "texture": "#0"},
				"down": {"uv": [3.25, 8.5, 2.75, 9], "texture": "#0"}
			}
		},
		{
			"from": [7, 0.5, 9.75],
			"to": [9, 2, 10],
			"rotation": {"angle": 0, "axis": "y", "origin": [4, 1.25, 5]},
			"faces": {
				"north": {"uv": [8, 7.5, 8.5, 8], "texture": "#0"},
				"east": {"uv": [4.5, 9, 4.75, 9.5], "texture": "#0"},
				"south": {"uv": [1.75, 8.25, 2.25, 8.75], "texture": "#0"},
				"west": {"uv": [5.25, 9, 5.5, 9.5], "texture": "#0"},
				"up": {"uv": [5.5, 3.75, 5, 3.5], "texture": "#0"},
				"down": {"uv": [4.5, 5.75, 4, 6], "texture": "#0"}
			}
		},
		{
			"from": [7, 0.5, 9.375],
			"to": [9, 2, 9.625],
			"rotation": {"angle": 0, "axis": "y", "origin": [4, 1.25, 4.625]},
			"faces": {
				"north": {"uv": [6.5, 8.25, 7, 8.75], "texture": "#0"},
				"east": {"uv": [5.5, 9, 5.75, 9.5], "texture": "#0"},
				"south": {"uv": [7, 8.25, 7.5, 8.75], "texture": "#0"},
				"west": {"uv": [5.75, 9, 6, 9.5], "texture": "#0"},
				"up": {"uv": [3.25, 6.5, 2.75, 6.25], "texture": "#0"},
				"down": {"uv": [6.75, 0.75, 6.25, 1], "texture": "#0"}
			}
		},
		{
			"from": [7, 0.5, 6.375],
			"to": [9, 2, 6.625],
			"rotation": {"angle": 0, "axis": "y", "origin": [4, 1.25, 1.625]},
			"faces": {
				"north": {"uv": [7.5, 8.25, 8, 8.75], "texture": "#0"},
				"east": {"uv": [6.5, 9, 6.75, 9.5], "texture": "#0"},
				"south": {"uv": [8.25, 2.75, 8.75, 3.25], "texture": "#0"},
				"west": {"uv": [6.75, 9, 7, 9.5], "texture": "#0"},
				"up": {"uv": [6.75, 3.5, 6.25, 3.25], "texture": "#0"},
				"down": {"uv": [4, 6.5, 3.5, 6.75], "texture": "#0"}
			}
		},
		{
			"from": [7, 0.5, 6],
			"to": [9, 2, 6.25],
			"rotation": {"angle": 0, "axis": "y", "origin": [4, 1.25, 1.25]},
			"faces": {
				"north": {"uv": [8.25, 4.5, 8.75, 5], "texture": "#0"},
				"east": {"uv": [7, 9, 7.25, 9.5], "texture": "#0"},
				"south": {"uv": [8.25, 5, 8.75, 5.5], "texture": "#0"},
				"west": {"uv": [9, 9, 9.25, 9.5], "texture": "#0"},
				"up": {"uv": [9.25, 0.75, 8.75, 0.5], "texture": "#0"},
				"down": {"uv": [9.25, 3, 8.75, 3.25], "texture": "#0"}
			}
		},
		{
			"from": [11, 0.25, 0],
			"to": [16, 2.25, 5],
			"rotation": {"angle": 0, "axis": "y", "origin": [11, 9.25, 5]},
			"faces": {
				"north": {"uv": [3.75, 0, 5, 0.5], "texture": "#0"},
				"east": {"uv": [3.75, 0.5, 5, 1], "texture": "#0"},
				"south": {"uv": [3.75, 2.25, 5, 2.75], "texture": "#0"},
				"west": {"uv": [3.75, 2.75, 5, 3.25], "texture": "#0"},
				"up": {"uv": [1.25, 1.25, 0, 0], "texture": "#0"},
				"down": {"uv": [1.25, 1.25, 0, 2.5], "texture": "#0"}
			}
		},
		{
			"from": [12, 0, 1],
			"to": [15, 2.5, 4],
			"rotation": {"angle": -45, "axis": "y", "origin": [13.5, 2.25, 2.5]},
			"faces": {
				"north": {"uv": [3.25, 5.75, 4, 6.5], "texture": "#0"},
				"east": {"uv": [5.75, 5.75, 6.5, 6.5], "texture": "#0"},
				"south": {"uv": [5.75, 4.5, 6.5, 5.25], "texture": "#0"},
				"west": {"uv": [0, 6, 0.75, 6.75], "texture": "#0"},
				"up": {"uv": [4.75, 6.75, 4, 6], "texture": "#0"},
				"down": {"uv": [5.5, 6, 4.75, 6.75], "texture": "#0"}
			}
		},
		{
			"from": [11, 0.25, 11],
			"to": [16, 2.25, 16],
			"rotation": {"angle": 0, "axis": "y", "origin": [11, 9.25, 16]},
			"faces": {
				"north": {"uv": [3.75, 3.25, 5, 3.75], "texture": "#0"},
				"east": {"uv": [2, 4.25, 3.25, 4.75], "texture": "#0"},
				"south": {"uv": [3.25, 4.25, 4.5, 4.75], "texture": "#0"},
				"west": {"uv": [4.5, 4.5, 5.75, 5], "texture": "#0"},
				"up": {"uv": [2.5, 2.5, 1.25, 1.25], "texture": "#0"},
				"down": {"uv": [2.5, 0, 1.25, 1.25], "texture": "#0"}
			}
		},
		{
			"from": [12, 0, 12],
			"to": [15, 2.5, 15],
			"rotation": {"angle": -45, "axis": "y", "origin": [13.5, 2.25, 13.5]},
			"faces": {
				"north": {"uv": [6, 1, 6.75, 1.75], "texture": "#0"},
				"east": {"uv": [2, 6.25, 2.75, 7], "texture": "#0"},
				"south": {"uv": [6.25, 0, 7, 0.75], "texture": "#0"},
				"west": {"uv": [6.25, 1.75, 7, 2.5], "texture": "#0"},
				"up": {"uv": [7, 3.25, 6.25, 2.5], "texture": "#0"},
				"down": {"uv": [1.5, 6.5, 0.75, 7.25], "texture": "#0"}
			}
		},
		{
			"from": [0, 0.25, 11],
			"to": [5, 2.25, 16],
			"rotation": {"angle": 0, "axis": "y", "origin": [0, 9.25, 16]},
			"faces": {
				"north": {"uv": [2, 4.75, 3.25, 5.25], "texture": "#0"},
				"east": {"uv": [3.25, 4.75, 4.5, 5.25], "texture": "#0"},
				"south": {"uv": [4.75, 1, 6, 1.5], "texture": "#0"},
				"west": {"uv": [4.75, 1.5, 6, 2], "texture": "#0"},
				"up": {"uv": [1.25, 3.75, 0, 2.5], "texture": "#0"},
				"down": {"uv": [2.5, 2.5, 1.25, 3.75], "texture": "#0"}
			}
		},
		{
			"from": [1, 0, 12],
			"to": [4, 2.5, 15],
			"rotation": {"angle": -45, "axis": "y", "origin": [2.5, 2.25, 13.5]},
			"faces": {
				"north": {"uv": [2.75, 6.5, 3.5, 7.25], "texture": "#0"},
				"east": {"uv": [5.5, 6.5, 6.25, 7.25], "texture": "#0"},
				"south": {"uv": [6.25, 6.5, 7, 7.25], "texture": "#0"},
				"west": {"uv": [6.5, 4.5, 7.25, 5.25], "texture": "#0"},
				"up": {"uv": [7.25, 6, 6.5, 5.25], "texture": "#0"},
				"down": {"uv": [0.75, 6.75, 0, 7.5], "texture": "#0"}
			}
		},
		{
			"from": [0, 0.25, 0],
			"to": [5, 2.25, 5],
			"rotation": {"angle": 0, "axis": "y", "origin": [0, 9.25, 5]},
			"faces": {
				"north": {"uv": [4.5, 5, 5.75, 5.5], "texture": "#0"},
				"east": {"uv": [5, 0, 6.25, 0.5], "texture": "#0"},
				"south": {"uv": [5, 0.5, 6.25, 1], "texture": "#0"},
				"west": {"uv": [5, 2, 6.25, 2.5], "texture": "#0"},
				"up": {"uv": [3.75, 3.75, 2.5, 2.5], "texture": "#0"},
				"down": {"uv": [3.75, 0, 2.5, 1.25], "texture": "#0"}
			}
		},
		{
			"from": [1, 0, 1],
			"to": [4, 2.5, 4],
			"rotation": {"angle": -45, "axis": "y", "origin": [2.5, 2.25, 2.5]},
			"faces": {
				"north": {"uv": [3.5, 6.75, 4.25, 7.5], "texture": "#0"},
				"east": {"uv": [4.25, 6.75, 5, 7.5], "texture": "#0"},
				"south": {"uv": [6.75, 0.75, 7.5, 1.5], "texture": "#0"},
				"west": {"uv": [6.75, 3.25, 7.5, 4], "texture": "#0"},
				"up": {"uv": [2.25, 7.75, 1.5, 7], "texture": "#0"},
				"down": {"uv": [7.75, 7, 7, 7.75], "texture": "#0"}
			}
		},
		{
			"from": [14, 0, 9],
			"to": [15, 1.75, 10],
			"rotation": {"angle": 0, "axis": "y", "origin": [14.5, 1.25, 9.5]},
			"faces": {
				"north": {"uv": [7.75, 8.75, 8, 9.25], "texture": "#0"},
				"east": {"uv": [8, 8.75, 8.25, 9.25], "texture": "#0"},
				"south": {"uv": [8.25, 8.75, 8.5, 9.25], "texture": "#0"},
				"west": {"uv": [8.5, 8.75, 8.75, 9.25], "texture": "#0"},
				"up": {"uv": [1.5, 8.5, 1.25, 8.25], "texture": "#0"},
				"down": {"uv": [9, 4, 8.75, 4.25], "texture": "#0"}
			}
		},
		{
			"from": [14, 0, 6],
			"to": [15, 1.75, 7],
			"rotation": {"angle": 0, "axis": "y", "origin": [14.5, 1.25, 6.5]},
			"faces": {
				"north": {"uv": [8.75, 8.75, 9, 9.25], "texture": "#0"},
				"east": {"uv": [8.75, 0, 9, 0.5], "texture": "#0"},
				"south": {"uv": [8.75, 1.5, 9, 2], "texture": "#0"},
				"west": {"uv": [8.75, 2, 9, 2.5], "texture": "#0"},
				"up": {"uv": [9, 8.75, 8.75, 8.5], "texture": "#0"},
				"down": {"uv": [9.25, 0, 9, 0.25], "texture": "#0"}
			}
		},
		{
			"from": [1, 0, 6],
			"to": [2, 1.75, 7],
			"rotation": {"angle": 0, "axis": "y", "origin": [1.5, 1.25, 6.5]},
			"faces": {
				"north": {"uv": [8.75, 2.5, 9, 3], "texture": "#0"},
				"east": {"uv": [8.75, 4.5, 9, 5], "texture": "#0"},
				"south": {"uv": [8.75, 5, 9, 5.5], "texture": "#0"},
				"west": {"uv": [8.75, 5.5, 9, 6], "texture": "#0"},
				"up": {"uv": [9.25, 2, 9, 1.75], "texture": "#0"},
				"down": {"uv": [9.25, 2, 9, 2.25], "texture": "#0"}
			}
		},
		{
			"from": [1, 0, 9],
			"to": [2, 1.75, 10],
			"rotation": {"angle": 0, "axis": "y", "origin": [1.5, 1.25, 9.5]},
			"faces": {
				"north": {"uv": [0.75, 6, 1, 6.5], "texture": "#0"},
				"east": {"uv": [5.5, 6, 5.75, 6.5], "texture": "#0"},
				"south": {"uv": [6.25, 5.25, 6.5, 5.75], "texture": "#0"},
				"west": {"uv": [7.5, 8.75, 7.75, 9.25], "texture": "#0"},
				"up": {"uv": [5, 2.25, 4.75, 2], "texture": "#0"},
				"down": {"uv": [6.25, 1.75, 6, 2], "texture": "#0"}
			}
		},
		{
			"from": [6, 0, 14],
			"to": [7, 1.75, 15],
			"rotation": {"angle": 0, "axis": "y", "origin": [6.5, 1.25, 14.5]},
			"faces": {
				"north": {"uv": [8.75, 7, 9, 7.5], "texture": "#0"},
				"east": {"uv": [0, 9, 0.25, 9.5], "texture": "#0"},
				"south": {"uv": [0.25, 9, 0.5, 9.5], "texture": "#0"},
				"west": {"uv": [0.5, 9, 0.75, 9.5], "texture": "#0"},
				"up": {"uv": [9.25, 4.75, 9, 4.5], "texture": "#0"},
				"down": {"uv": [9.25, 4.75, 9, 5], "texture": "#0"}
			}
		},
		{
			"from": [9, 0, 14],
			"to": [10, 1.75, 15],
			"rotation": {"angle": 0, "axis": "y", "origin": [9.5, 1.25, 14.5]},
			"faces": {
				"north": {"uv": [0.75, 9, 1, 9.5], "texture": "#0"},
				"east": {"uv": [1, 9, 1.25, 9.5], "texture": "#0"},
				"south": {"uv": [1.25, 9, 1.5, 9.5], "texture": "#0"},
				"west": {"uv": [2.25, 9, 2.5, 9.5], "texture": "#0"},
				"up": {"uv": [9.25, 7.25, 9, 7], "texture": "#0"},
				"down": {"uv": [9.25, 7.25, 9, 7.5], "texture": "#0"}
			}
		},
		{
			"from": [9, 0, 1],
			"to": [10, 1.75, 2],
			"rotation": {"angle": 0, "axis": "y", "origin": [9.5, 1.25, 1.5]},
			"faces": {
				"north": {"uv": [2.5, 9, 2.75, 9.5], "texture": "#0"},
				"east": {"uv": [2.75, 9, 3, 9.5], "texture": "#0"},
				"south": {"uv": [3, 9, 3.25, 9.5], "texture": "#0"},
				"west": {"uv": [3.25, 9, 3.5, 9.5], "texture": "#0"},
				"up": {"uv": [5, 9.5, 4.75, 9.25], "texture": "#0"},
				"down": {"uv": [6.5, 9.25, 6.25, 9.5], "texture": "#0"}
			}
		},
		{
			"from": [6, 0, 1],
			"to": [7, 1.75, 2],
			"rotation": {"angle": 0, "axis": "y", "origin": [6.5, 1.25, 1.5]},
			"faces": {
				"north": {"uv": [3.5, 9, 3.75, 9.5], "texture": "#0"},
				"east": {"uv": [3.75, 9, 4, 9.5], "texture": "#0"},
				"south": {"uv": [4, 9, 4.25, 9.5], "texture": "#0"},
				"west": {"uv": [4.25, 9, 4.5, 9.5], "texture": "#0"},
				"up": {"uv": [8.25, 9.5, 8, 9.25], "texture": "#0"},
				"down": {"uv": [8.5, 9.25, 8.25, 9.5], "texture": "#0"}
			}
		},
		{
			"from": [10.25, 0.75, 9],
			"to": [14, 1.75, 10],
			"rotation": {"angle": 0, "axis": "y", "origin": [13.5, 1.25, 9.5]},
			"faces": {
				"north": {"uv": [3.75, 1, 4.75, 1.25], "texture": "#0"},
				"east": {"uv": [7.75, 7.5, 8, 7.75], "texture": "#0"},
				"south": {"uv": [4.5, 4.25, 5.5, 4.5], "texture": "#0"},
				"west": {"uv": [8, 3, 8.25, 3.25], "texture": "#0"},
				"up": {"uv": [8, 3.25, 7, 3], "texture": "#0"},
				"down": {"uv": [8, 6.5, 7, 6.75], "texture": "#0"}
			}
		},
		{
			"from": [10.25, 0.75, 6],
			"to": [14, 1.75, 7],
			"rotation": {"angle": 0, "axis": "y", "origin": [13.5, 1.25, 6.5]},
			"faces": {
				"north": {"uv": [7, 6.75, 8, 7], "texture": "#0"},
				"east": {"uv": [9, 0.25, 9.25, 0.5], "texture": "#0"},
				"south": {"uv": [5.5, 7.25, 6.5, 7.5], "texture": "#0"},
				"west": {"uv": [9, 1.5, 9.25, 1.75], "texture": "#0"},
				"up": {"uv": [8.25, 4.75, 7.25, 4.5], "texture": "#0"},
				"down": {"uv": [8.25, 4.75, 7.25, 5], "texture": "#0"}
			}
		},
		{
			"from": [2, 0.75, 6],
			"to": [5.75, 1.75, 7],
			"rotation": {"angle": 0, "axis": "y", "origin": [2.5, 1.25, 6.5]},
			"faces": {
				"north": {"uv": [7.25, 5, 8.25, 5.25], "texture": "#0"},
				"east": {"uv": [9, 2.25, 9.25, 2.5], "texture": "#0"},
				"south": {"uv": [7.25, 5.25, 8.25, 5.5], "texture": "#0"},
				"west": {"uv": [9, 2.5, 9.25, 2.75], "texture": "#0"},
				"up": {"uv": [8.25, 5.75, 7.25, 5.5], "texture": "#0"},
				"down": {"uv": [8.25, 5.75, 7.25, 6], "texture": "#0"}
			}
		},
		{
			"from": [2, 0.75, 9],
			"to": [5.75, 1.75, 10],
			"rotation": {"angle": 0, "axis": "y", "origin": [2.5, 1.25, 9.5]},
			"faces": {
				"north": {"uv": [2.75, 7.5, 3.75, 7.75], "texture": "#0"},
				"east": {"uv": [9, 2.75, 9.25, 3], "texture": "#0"},
				"south": {"uv": [3.75, 7.5, 4.75, 7.75], "texture": "#0"},
				"west": {"uv": [9, 4, 9.25, 4.25], "texture": "#0"},
				"up": {"uv": [6.5, 7.75, 5.5, 7.5], "texture": "#0"},
				"down": {"uv": [8.5, 0.75, 7.5, 1], "texture": "#0"}
			}
		},
		{
			"from": [6, 0.75, 10.25],
			"to": [7, 1.75, 14],
			"rotation": {"angle": 0, "axis": "y", "origin": [6.5, 1.25, 13.5]},
			"faces": {
				"north": {"uv": [9, 5, 9.25, 5.25], "texture": "#0"},
				"east": {"uv": [7.5, 1, 8.5, 1.25], "texture": "#0"},
				"south": {"uv": [9, 5.25, 9.25, 5.5], "texture": "#0"},
				"west": {"uv": [7.5, 1.25, 8.5, 1.5], "texture": "#0"},
				"up": {"uv": [1.5, 8.25, 1.25, 7.25], "texture": "#0"},
				"down": {"uv": [6.75, 7.25, 6.5, 8.25], "texture": "#0"}
			}
		},
		{
			"from": [9, 0.75, 10.25],
			"to": [10, 1.75, 14],
			"rotation": {"angle": 0, "axis": "y", "origin": [9.5, 1.25, 13.5]},
			"faces": {
				"north": {"uv": [9, 5.5, 9.25, 5.75], "texture": "#0"},
				"east": {"uv": [7.5, 3.25, 8.5, 3.5], "texture": "#0"},
				"south": {"uv": [9, 5.75, 9.25, 6], "texture": "#0"},
				"west": {"uv": [7.5, 3.5, 8.5, 3.75], "texture": "#0"},
				"up": {"uv": [7, 8.25, 6.75, 7.25], "texture": "#0"},
				"down": {"uv": [0.25, 7.5, 0, 8.5], "texture": "#0"}
			}
		},
		{
			"from": [9, 0.75, 2],
			"to": [10, 1.75, 5.75],
			"rotation": {"angle": 0, "axis": "y", "origin": [9.5, 1.25, 2.5]},
			"faces": {
				"north": {"uv": [9, 8.5, 9.25, 8.75], "texture": "#0"},
				"east": {"uv": [7.5, 3.75, 8.5, 4], "texture": "#0"},
				"south": {"uv": [9, 8.75, 9.25, 9], "texture": "#0"},
				"west": {"uv": [2.75, 7.75, 3.75, 8], "texture": "#0"},
				"up": {"uv": [0.5, 8.5, 0.25, 7.5], "texture": "#0"},
				"down": {"uv": [0.75, 7.5, 0.5, 8.5], "texture": "#0"}
			}
		},
		{
			"from": [7.5, 0.75, 5.5],
			"to": [8.5, 1.75, 10.5],
			"rotation": {"angle": 0, "axis": "y", "origin": [8, 1.25, 6]},
			"faces": {
				"north": {"uv": [8.5, 9.25, 8.75, 9.5], "texture": "#0"},
				"east": {"uv": [2.5, 2.25, 3.75, 2.5], "texture": "#0"},
				"south": {"uv": [8.75, 9.25, 9, 9.5], "texture": "#0"},
				"west": {"uv": [7, 2.75, 8.25, 3], "texture": "#0"},
				"up": {"uv": [1, 8.5, 0.75, 7.25], "texture": "#0"},
				"down": {"uv": [1.25, 7.25, 1, 8.5], "texture": "#0"}
			}
		},
		{
			"from": [6, 0.75, 2],
			"to": [7, 1.75, 5.75],
			"rotation": {"angle": 0, "axis": "y", "origin": [6.5, 1.25, 2.5]},
			"faces": {
				"north": {"uv": [7.5, 9.25, 7.75, 9.5], "texture": "#0"},
				"east": {"uv": [3.75, 7.75, 4.75, 8], "texture": "#0"},
				"south": {"uv": [7.75, 9.25, 8, 9.5], "texture": "#0"},
				"west": {"uv": [5.5, 7.75, 6.5, 8], "texture": "#0"},
				"up": {"uv": [5, 8.5, 4.75, 7.5], "texture": "#0"},
				"down": {"uv": [1.75, 7.75, 1.5, 8.75], "texture": "#0"}
			}
		}
	],
	"display": {
		"thirdperson_righthand": {
			"rotation": [0, -35.5, 0],
			"translation": [-0.75, 1.5, -4.75],
			"scale": [0.5, 0.5, 0.5]
		},
		"thirdperson_lefthand": {
			"rotation": [0, -34.5, 0],
			"translation": [-0.75, 1.5, -4.75],
			"scale": [0.5, 0.5, 0.5]
		},
		"firstperson_righthand": {
			"rotation": [60, -20, 80],
			"translation": [-3, 5.5, 0],
			"scale": [0.5, 0.6, 0.6]
		},
		"firstperson_lefthand": {
			"rotation": [80, -20, 60],
			"translation": [-3, 5.5, 0],
			"scale": [0.5, 0.6, 0.6]
		},
		"ground": {
			"translation": [0, 3, 0],
			"scale": [0.3, 0.3, 0.3]
		},
		"gui": {
			"rotation": [125, 0, 45],
			"translation": [-4, -2.25, 0.5],
			"scale": [0.75, 0.75, 0.75586]
		},
		"head": {
			"translation": [0, 13.5, 0]
		},
		"fixed": {
			"rotation": [-90, 0, 0],
			"translation": [0, 0, -8]
		}
	},
	"groups": [0, 1, 2, 3, 4, 5, 6, 7, 8, 9, 10, 11, 12, 13, 14, 15, 16, 17, 18, 19, 20, 21,
		{
			"name": "group",
			"origin": [11, 9.5, 5],
			"children": [22, 23]
		},
		{
			"name": "group",
			"origin": [11, 9.5, 5],
			"children": [24, 25]
		},
		{
			"name": "group",
			"origin": [11, 9.5, 5],
			"children": [26, 27]
		},
		{
			"name": "group",
			"origin": [11, 9.5, 5],
			"children": [28, 29]
		},
		{
			"name": "group",
			"origin": [13.5, 1, 9.5],
			"children": [30, 31, 32, 33, 34, 35, 36, 37, 38, 39, 40, 41, 42, 43, 44, 45, 46]
		}
	]
}