{
	"type": "tardis:quantiscope",
	"repair":false,
	"ingredients":[
		{"item":"tardis:circuits"},
		{"item":"tardis:xion_crystal"},
		{"item":"minecraft:clock"}
	],
	"result":{
		"item":"tardis:pocket_watch"
	}
}