{
  "type":"normal",
  "text":"This chapter covers Subsystems. A Subsystem is an important component of a timeship which is tied to a specific item. Subsystems enable the timeship to perform specific functions. Some subsystems are considered 'essential', which means the timeship will not be able to fly without them. When these essential subsystems are below 10% health, the timeship Console Unit block will start to spark. When an essential subsystem breaks, the timeship will initiate a forced emergency landing in a random location."
}