{
  "processing_ticks": 200,
  "ingredients": [
    {
      "item": "tardis:blank_upgrade"
    },
    {
      "item": "minecraft:ghast_tear"
    },
    {
      "item": "minecraft:blaze_rod"
    },
    {
      "item": "tardis:circuits"
    }
  ],
  "result": {
    "item": "tardis:upgrades/zero_room"
  },
  "repair": false,
  "type": "tardis:quantiscope"
}