{
  "type": "normal",
  "text": "Waypoint Screen. This menu displays and manages all waypoints for a timeship. Waypoints allow a timeship to travel to a preset destination and can be created, deleted and loaded when the pilot wishes. One point to note is that a new waypoint will always use the timeship's current position and dimension. Waypoints are stored in Waypoint Bank blocks placed anywhere inside the interior. Each Waypoint Bank block holds 5 waypoints, so you can increase the timeship's waypoint storage by 5 waypoints for each Waypoint Bank placed inside the interior."
}