{
  "type":"normal",
  "text":"After installation of a component, you may see slider buttons above the item slot are now enabled. These sliders allow the component to be 'activated' by toggling the slider to the 'on' state, indicated by a bright red light. When the component is activated, the timeship will be able to perform the function granted by the component or allow the pilot to soft disable specific components. When the component does not need to be in use, pilots may disable the component's function without needing to completely uninstall it, by simply toggling the slider above the item slot to the 'off' position, indicated by a dimmed red light."
}