{
  "type":"normal",
  "text":"Tardis Engine. The Engine is the most crucial part of a time-ship, save the console. This holds all your subsystem components, upgrades, artron banks, and also has a compartment for embuing things with Artron Energy."
}