[
    [
        "Andromeda",
		"Antlia",
		"Aquila",
		"Caelum",
		"Capricornus",
		"Centaurus",
		"Circinus",
		"Corvus",
		"Cygnus",
		"Draco",
		"Equuleus",
		"Eridanus",
		"Fornax",
		"Gemini",
		"Horologium",
		"Hydrus",
		"Orion",
		"Phoenix",
		"Reticulum",
		"Scorpius",
		"Serpens",
		"Sextans",
		"Taurus",
		"Telescopium",
		"Triangulum",
		"Volans",
		"Vulpecula"
    ],
    [
        "Capsule",
		"Escort",
		"Expedition",
		"Explorer",
		"Lander",
		"Module",
		"Observer",
		"Patrolship",
		"Precursor",
		"Recon",
		"Runner",
		"Scoutship",
		"Vanguard"
    ],
    [
        "Alpha",
        "Beta",
        "Gamma",
		"Delta",
		"Epsilon",
		"Zeta",
		"Eta",
		"Theta",
		"Iota",
		"Kappa",
		"Lambda",
		"Mu",
		"Nu",
		"Xi",
		"Omicron",
		"Pi",
		"Rho",
		"Sigma",
		"Tau",
		"Upsilon",
		"Phi",
		"Chi",
		"Psi",
		"Omega",
		"1",
		"2",
		"3",
		"4",
		"5",
		"6",
		"7",
		"8"
    ]

]