{
  "parent": "tardis:obtain_tardis",
  "display": {
    "icon": {
      "item": "tardis:vm"
    },
    "title": {
      "translate": "advancements.tardis.title.vortex"
    },
    "description": {
      "translate": "advancements.tardis.desc.vortex"
    },
    "frame": "task",
    "show_toast": true,
    "announce_to_chat": true,
    "hidden": false
  },
  "criteria": {
    "0": {
      "trigger": "minecraft:changed_dimension",
      "conditions": {
        "to": "tardis:vortex"
      }
    }
  },
  "requirements": [
    [
      "0"
    ]
  ]
}