{
  "replace": false,
  "values": [
    "minecraft:dead_brain_coral_block",
    "minecraft:dead_brain_coral_fan",
    "minecraft:dead_bubble_coral_block",
    "minecraft:dead_bubble_coral_fan",
    "minecraft:dead_fire_coral_block",
    "minecraft:dead_fire_coral_fan",
    "minecraft:dead_horn_coral_block",
    "minecraft:dead_horn_coral_fan",
    "minecraft:dead_tube_coral_block",
    "minecraft:dead_tube_coral_fan"
  ]
}