{
  "type": "normal",
  "text": "Interior Defence. In addition to exterior defence systems, timeships also save beings from falling out of the interior dimension's void if the Temporal Grace circuits are activated."
}